(Created with emc2b post processor 2015/07/07 18:05)
(tool change to 5 mm Fraise à Rainurer)
T1 M06 G43
G17 G90 G21
(Cercle 256)
G00 X-0.247 Y120.247 S7000 M03
Z2
G01 Z-5.9 F100
G02 X-1.661 Y121.661 I-0.707 J0.707 F150
X0 Y122.35 I1.661 J-1.661 
X2.35 Y120 I0 J-2.35 
X0 Y117.65 I-2.35 J0 
X-2.35 Y120 I0 J2.35 
X-1.661 Y121.661 I2.35 J0 
X-0.247 Y120.247 I0.707 J-0.707 
G01 Z-11.8 F100
G02 X-1.661 Y121.661 I-0.707 J0.707 F150
X0 Y122.35 I1.661 J-1.661 
X2.35 Y120 I0 J-2.35 
X0 Y117.65 I-2.35 J0 
X-2.35 Y120 I0 J2.35 
X-1.661 Y121.661 I2.35 J0 
X-0.247 Y120.247 I0.707 J-0.707 
G00 Z5
G90
X0 Y160 S7000 M03
G83 Q12 G98 X0 Y160 Z-11.8 R2 F50
X0 Y40 
X30 Y30 
X40 Y0 
X10 Y-10 
X10 Y10 
X-10 Y10 
X-10 Y-10 
X-30 Y30 
X-40 Y0 
X-30 Y-30 
X0 Y-40 
X30 Y-30 
X30 Y150 
X0 Y80 
X-30 Y90 
X40 Y120 
X-30 Y150 
X-40 Y120 
X30 Y90 
X-10 Y110 
X-10 Y130 
X10 Y130 
X10 Y110 
G80
(Cercle 255)
G00 X-37.83 Y157.83 S7000 M03
Z2
G01 Z-5.9 F100
G02 X-36.415 Y156.415 I0.707 J-0.707 F150
G03 X-51.5 Y120 I36.415 J-36.415 
X0 Y68.5 I51.5 J0 
X51.5 Y120 I0 J51.5 
X0 Y171.5 I-51.5 J0 
X-36.415 Y156.415 I0 J-51.5 
G02 X-37.83 Y157.83 I-0.707 J0.707 
G01 Z-11.8 F100
G02 X-36.415 Y156.415 I0.707 J-0.707 F150
G03 X-51.5 Y120 I36.415 J-36.415 
X0 Y68.5 I51.5 J0 
X51.5 Y120 I0 J51.5 
X0 Y171.5 I-51.5 J0 
X-36.415 Y156.415 I0 J-51.5 
G02 X-37.83 Y157.83 I-0.707 J0.707 
G00 Z5
T0 M06 M02
