<?xml version="1.0" encoding="UTF-8" standalone="no"?>
<!-- Created with Inkscape (http://www.inkscape.org/) -->

<svg
   xmlns:dc="http://purl.org/dc/elements/1.1/"
   xmlns:cc="http://creativecommons.org/ns#"
   xmlns:rdf="http://www.w3.org/1999/02/22-rdf-syntax-ns#"
   xmlns:svg="http://www.w3.org/2000/svg"
   xmlns="http://www.w3.org/2000/svg"
   xmlns:sodipodi="http://sodipodi.sourceforge.net/DTD/sodipodi-0.dtd"
   xmlns:inkscape="http://www.inkscape.org/namespaces/inkscape"
   width="428.94077"
   height="597.60461"
   id="svg2"
   version="1.1"
   inkscape:version="0.48.4 r9939"
   sodipodi:docname="16aimants-12bobines-laser.svg">
  <defs
     id="defs4">
    <symbol
       id="Plaque3Bobines-0">
      <path
         id="path3084"
         style="fill:none;stroke:#000000;stroke-linecap:round"
         d="M 156.47303,781.34297 413.25412,712.53868"
         inkscape:connector-curvature="0" />
      <path
         id="path3086"
         style="fill:none;stroke:#000000;stroke-linecap:round"
         d="m 0,1052.3622 68.804286,256.7811"
         inkscape:connector-curvature="0" />
      <path
         id="path3088"
         style="fill:none;stroke:#000000;stroke-linecap:round"
         d="M 0,1052.3622 A 230.31496,230.31496 0 0 0 156.47303,781.34297"
         inkscape:connector-curvature="0" />
      <path
         id="path3090"
         style="fill:none;stroke:#000000;stroke-linecap:round"
         d="M 68.804286,1309.1433 A 496.06299,496.06299 0 0 0 413.25412,712.53868"
         inkscape:connector-curvature="0" />
      <path
         id="path3092"
         style="fill:none;stroke:#000000;stroke-linecap:round"
         d="m 313.43817,832.35233 a 62.662755,62.662755 0 1 0 -125.32551,0 62.662755,62.662755 0 1 0 125.32551,0 z"
         inkscape:connector-curvature="0" />
      <path
         id="path3094"
         style="fill:none;stroke:#000000;stroke-linecap:round"
         d="m 324.86745,861.78618 a 79.724409,79.724409 0 0 0 0,-58.8677"
         inkscape:connector-curvature="0" />
      <path
         id="path3096"
         style="fill:none;stroke:#000000;stroke-linecap:round"
         d="m 340.58322,870.15836 a 97.440945,97.440945 0 0 0 0,-75.61206"
         inkscape:connector-curvature="0" />
      <path
         id="path3098"
         style="fill:none;stroke:#000000;stroke-linecap:round"
         d="m 340.59124,794.54203 a 8.9078966,8.9078966 0 0 0 -15.72379,8.37645"
         inkscape:connector-curvature="0" />
      <path
         id="path3100"
         style="fill:none;stroke:#000000;stroke-linecap:round"
         d="m 324.87547,861.79045 a 8.8988107,8.8988107 0 0 0 15.70775,8.36791"
         inkscape:connector-curvature="0" />
      <path
         id="path3102"
         style="fill:none;stroke:#000000;stroke-linecap:round"
         d="m 270.71399,991.80115 a 62.662755,62.662755 0 1 0 -125.32551,0 62.662755,62.662755 0 1 0 125.32551,0 z"
         inkscape:connector-curvature="0" />
      <path
         id="path3104"
         style="fill:none;stroke:#000000;stroke-linecap:round"
         d="m 257.4999,1054.3376 a 79.724409,79.724409 0 0 0 29.43384,-50.9809"
         inkscape:connector-curvature="0" />
      <path
         id="path3106"
         style="fill:none;stroke:#000000;stroke-linecap:round"
         d="m 266.92406,1069.446 a 97.440945,97.440945 0 0 0 37.80603,-65.4819"
         inkscape:connector-curvature="0" />
      <path
         id="path3108"
         style="fill:none;stroke:#000000;stroke-linecap:round"
         d="m 304.73917,1003.9644 a 8.9078987,8.9078987 0 1 0 -17.80543,-0.6077"
         inkscape:connector-curvature="0" />
      <path
         id="path3110"
         style="fill:none;stroke:#000000;stroke-linecap:round"
         d="m 257.5047,1054.3453 a 8.8988129,8.8988129 0 0 0 9.41936,15.1007"
         inkscape:connector-curvature="0" />
      <path
         id="path3112"
         style="fill:none;stroke:#000000;stroke-linecap:round"
         d="m 153.98935,1108.5258 a 62.662753,62.662753 0 1 0 -125.325505,0 62.662753,62.662753 0 1 0 125.325505,0 z"
         inkscape:connector-curvature="0" />
      <path
         id="path3114"
         style="fill:none;stroke:#000000;stroke-linecap:round"
         d="m 102.88215,1187.4083 a 79.724409,79.724409 0 0 0 50.98093,-29.4338"
         inkscape:connector-curvature="0" />
      <path
         id="path3116"
         style="fill:none;stroke:#000000;stroke-linecap:round"
         d="m 103.48952,1205.2046 a 97.440945,97.440945 0 0 0 65.48196,-37.806"
         inkscape:connector-curvature="0" />
      <path
         id="path3118"
         style="fill:none;stroke:#000000;stroke-linecap:round"
         d="m 168.97919,1167.4034 a 8.907896,8.907896 0 0 0 -15.11611,-9.4289"
         inkscape:connector-curvature="0" />
      <path
         id="path3120"
         style="fill:none;stroke:#000000;stroke-linecap:round"
         d="m 102.88246,1187.4174 a 8.89881,8.89881 0 0 0 0.60706,17.7872"
         inkscape:connector-curvature="0" />
      <path
         id="path3122"
         style="fill:none;stroke:#000000;stroke-linecap:round"
         d="m 197.58604,894.37789 a 8.858268,8.858268 0 1 0 -4.58537,17.11286"
         inkscape:connector-curvature="0" />
      <path
         id="path3124"
         style="fill:none;stroke:#000000;stroke-linecap:round"
         d="m 261.43138,929.82671 a 8.8582711,8.8582711 0 1 0 4.5854,-17.11286"
         inkscape:connector-curvature="0" />
      <path
         id="path3126"
         style="fill:none;stroke:#000000;stroke-linecap:round"
         d="m 197.58604,894.37789 68.43074,18.33596"
         inkscape:connector-curvature="0" />
      <path
         id="path3128"
         style="fill:none;stroke:#000000;stroke-linecap:round"
         d="M 261.43138,929.82671 193.00067,911.49075"
         inkscape:connector-curvature="0" />
      <path
         id="path3130"
         style="fill:none;stroke:#000000;stroke-linecap:round"
         d="m 130.97511,1018.9222 a 8.8582767,8.8582767 0 1 0 -12.52749,12.5275"
         inkscape:connector-curvature="0" />
      <path
         id="path3132"
         style="fill:none;stroke:#000000;stroke-linecap:round"
         d="m 168.54238,1081.5444 a 8.858268,8.858268 0 1 0 12.5275,-12.5274"
         inkscape:connector-curvature="0" />
      <path
         id="path3134"
         style="fill:none;stroke:#000000;stroke-linecap:round"
         d="m 130.97511,1018.9222 50.09477,50.0948"
         inkscape:connector-curvature="0" />
      <path
         id="path3136"
         style="fill:none;stroke:#000000;stroke-linecap:round"
         d="m 168.54238,1081.5444 -50.09476,-50.0947"
         inkscape:connector-curvature="0" />
      <path
         id="path3138"
         style="fill:none;stroke:#000000;stroke-linecap:round"
         d="m 401.36597,832.35233 a 8.85827,8.85827 0 1 0 -17.71654,0 8.85827,8.85827 0 1 0 17.71654,0 z"
         inkscape:connector-curvature="0" />
      <path
         id="path3140"
         style="fill:none;stroke:#000000;stroke-linecap:round"
         d="m 339.65326,1062.6673 a 8.858268,8.858268 0 1 0 -17.71653,0 8.858268,8.858268 0 1 0 17.71653,0 z"
         inkscape:connector-curvature="0" />
      <path
         id="path3142"
         style="fill:none;stroke:#000000;stroke-linecap:round"
         d="m 171.05101,1231.2695 a 8.85827,8.85827 0 1 0 -17.71654,0 8.85827,8.85827 0 1 0 17.71654,0 z"
         inkscape:connector-curvature="0" />
    </symbol>
    <symbol
       id="Plaque3Bobines">
      <path
         id="path3023"
         style="fill:none;stroke:#000000;stroke-linecap:round"
         d="M 156.47303,781.34297 413.25412,712.53868"
         inkscape:connector-curvature="0" />
      <path
         id="path3025"
         style="fill:none;stroke:#000000;stroke-linecap:round"
         d="m 0,1052.3622 68.804286,256.7811"
         inkscape:connector-curvature="0" />
      <path
         id="path3027"
         style="fill:none;stroke:#000000;stroke-linecap:round"
         d="M 0,1052.3622 A 230.31496,230.31496 0 0 0 156.47303,781.34297"
         inkscape:connector-curvature="0" />
      <path
         id="path3029"
         style="fill:none;stroke:#000000;stroke-linecap:round"
         d="M 68.804286,1309.1433 A 496.06299,496.06299 0 0 0 413.25412,712.53868"
         inkscape:connector-curvature="0" />
      <path
         id="path3031"
         style="fill:none;stroke:#000000;stroke-linecap:round"
         d="m 313.43817,832.35233 a 62.662755,62.662755 0 1 0 -125.32551,0 62.662755,62.662755 0 1 0 125.32551,0 z"
         inkscape:connector-curvature="0" />
      <path
         id="path3033"
         style="fill:none;stroke:#000000;stroke-linecap:round"
         d="m 324.86745,861.78618 a 79.724409,79.724409 0 0 0 0,-58.8677"
         inkscape:connector-curvature="0" />
      <path
         id="path3035"
         style="fill:none;stroke:#000000;stroke-linecap:round"
         d="m 340.58322,870.15836 a 97.440945,97.440945 0 0 0 0,-75.61206"
         inkscape:connector-curvature="0" />
      <path
         id="path3037"
         style="fill:none;stroke:#000000;stroke-linecap:round"
         d="m 340.59124,794.54203 a 8.9078966,8.9078966 0 0 0 -15.72379,8.37645"
         inkscape:connector-curvature="0" />
      <path
         id="path3039"
         style="fill:none;stroke:#000000;stroke-linecap:round"
         d="m 324.87547,861.79045 a 8.8988107,8.8988107 0 0 0 15.70775,8.36791"
         inkscape:connector-curvature="0" />
      <path
         id="path3041"
         style="fill:none;stroke:#000000;stroke-linecap:round"
         d="m 270.71399,991.80115 a 62.662755,62.662755 0 1 0 -125.32551,0 62.662755,62.662755 0 1 0 125.32551,0 z"
         inkscape:connector-curvature="0" />
      <path
         id="path3043"
         style="fill:none;stroke:#000000;stroke-linecap:round"
         d="m 257.4999,1054.3376 a 79.724409,79.724409 0 0 0 29.43384,-50.9809"
         inkscape:connector-curvature="0" />
      <path
         id="path3045"
         style="fill:none;stroke:#000000;stroke-linecap:round"
         d="m 266.92406,1069.446 a 97.440945,97.440945 0 0 0 37.80603,-65.4819"
         inkscape:connector-curvature="0" />
      <path
         id="path3047"
         style="fill:none;stroke:#000000;stroke-linecap:round"
         d="m 304.73917,1003.9644 a 8.9078987,8.9078987 0 1 0 -17.80543,-0.6077"
         inkscape:connector-curvature="0" />
      <path
         id="path3049"
         style="fill:none;stroke:#000000;stroke-linecap:round"
         d="m 257.5047,1054.3453 a 8.8988129,8.8988129 0 0 0 9.41936,15.1007"
         inkscape:connector-curvature="0" />
      <path
         id="path3051"
         style="fill:none;stroke:#000000;stroke-linecap:round"
         d="m 153.98935,1108.5258 a 62.662753,62.662753 0 1 0 -125.325505,0 62.662753,62.662753 0 1 0 125.325505,0 z"
         inkscape:connector-curvature="0" />
      <path
         id="path3053"
         style="fill:none;stroke:#000000;stroke-linecap:round"
         d="m 102.88215,1187.4083 a 79.724409,79.724409 0 0 0 50.98093,-29.4338"
         inkscape:connector-curvature="0" />
      <path
         id="path3055"
         style="fill:none;stroke:#000000;stroke-linecap:round"
         d="m 103.48952,1205.2046 a 97.440945,97.440945 0 0 0 65.48196,-37.806"
         inkscape:connector-curvature="0" />
      <path
         id="path3057"
         style="fill:none;stroke:#000000;stroke-linecap:round"
         d="m 168.97919,1167.4034 a 8.907896,8.907896 0 0 0 -15.11611,-9.4289"
         inkscape:connector-curvature="0" />
      <path
         id="path3059"
         style="fill:none;stroke:#000000;stroke-linecap:round"
         d="m 102.88246,1187.4174 a 8.89881,8.89881 0 0 0 0.60706,17.7872"
         inkscape:connector-curvature="0" />
      <path
         id="path3061"
         style="fill:none;stroke:#000000;stroke-linecap:round"
         d="m 197.58604,894.37789 a 8.858268,8.858268 0 1 0 -4.58537,17.11286"
         inkscape:connector-curvature="0" />
      <path
         id="path3063"
         style="fill:none;stroke:#000000;stroke-linecap:round"
         d="m 261.43138,929.82671 a 8.8582711,8.8582711 0 1 0 4.5854,-17.11286"
         inkscape:connector-curvature="0" />
      <path
         id="path3065"
         style="fill:none;stroke:#000000;stroke-linecap:round"
         d="m 197.58604,894.37789 68.43074,18.33596"
         inkscape:connector-curvature="0" />
      <path
         id="path3067"
         style="fill:none;stroke:#000000;stroke-linecap:round"
         d="M 261.43138,929.82671 193.00067,911.49075"
         inkscape:connector-curvature="0" />
      <path
         id="path3069"
         style="fill:none;stroke:#000000;stroke-linecap:round"
         d="m 130.97511,1018.9222 a 8.8582767,8.8582767 0 1 0 -12.52749,12.5275"
         inkscape:connector-curvature="0" />
      <path
         id="path3071"
         style="fill:none;stroke:#000000;stroke-linecap:round"
         d="m 168.54238,1081.5444 a 8.858268,8.858268 0 1 0 12.5275,-12.5274"
         inkscape:connector-curvature="0" />
      <path
         id="path3073"
         style="fill:none;stroke:#000000;stroke-linecap:round"
         d="m 130.97511,1018.9222 50.09477,50.0948"
         inkscape:connector-curvature="0" />
      <path
         id="path3075"
         style="fill:none;stroke:#000000;stroke-linecap:round"
         d="m 168.54238,1081.5444 -50.09476,-50.0947"
         inkscape:connector-curvature="0" />
      <path
         id="path3077"
         style="fill:none;stroke:#000000;stroke-linecap:round"
         d="m 401.36597,832.35233 a 8.85827,8.85827 0 1 0 -17.71654,0 8.85827,8.85827 0 1 0 17.71654,0 z"
         inkscape:connector-curvature="0" />
      <path
         id="path3079"
         style="fill:none;stroke:#000000;stroke-linecap:round"
         d="m 339.65326,1062.6673 a 8.858268,8.858268 0 1 0 -17.71653,0 8.858268,8.858268 0 1 0 17.71653,0 z"
         inkscape:connector-curvature="0" />
      <path
         id="path3081"
         style="fill:none;stroke:#000000;stroke-linecap:round"
         d="m 171.05101,1231.2695 a 8.85827,8.85827 0 1 0 -17.71654,0 8.85827,8.85827 0 1 0 17.71654,0 z"
         inkscape:connector-curvature="0" />
    </symbol>
    <symbol
       id="*Paper_Space" />
    <symbol
       id="*Model_Space" />
    <pattern
       y="0"
       x="0"
       width="8"
       patternUnits="userSpaceOnUse"
       id="Hatch"
       height="8">
      <path
         id="path3014"
         stroke-width="0.25"
         stroke="#000000"
         linecap="square"
         d="M8 4 l-4,4" />
      <path
         id="path3016"
         stroke-width="0.25"
         stroke="#000000"
         linecap="square"
         d="M6 2 l-4,4" />
      <path
         id="path3018"
         stroke-width="0.25"
         stroke="#000000"
         linecap="square"
         d="M4 0 l-4,4" />
    </pattern>
    <marker
       style="overflow:visible"
       refY="0"
       refX="0"
       orient="auto"
       id="DistanceX">
      <path
         id="path3011"
         style="stroke:#000000;stroke-width:0.5"
         d="M 3,-3 -3,3 M 0,-5 0,5"
         inkscape:connector-curvature="0" />
    </marker>
  </defs>
  <sodipodi:namedview
     id="base"
     pagecolor="#ffffff"
     bordercolor="#666666"
     borderopacity="1.0"
     inkscape:pageopacity="0.0"
     inkscape:pageshadow="2"
     inkscape:zoom="0.99898823"
     inkscape:cx="214.47039"
     inkscape:cy="298.80229"
     inkscape:document-units="px"
     inkscape:current-layer="layer2"
     showgrid="false"
     fit-margin-top="0"
     fit-margin-left="0"
     fit-margin-right="0"
     fit-margin-bottom="0"
     inkscape:window-width="1215"
     inkscape:window-height="776"
     inkscape:window-x="65"
     inkscape:window-y="24"
     inkscape:window-maximized="1" />
  <metadata
     id="metadata7">
    <rdf:RDF>
      <cc:Work
         rdf:about="">
        <dc:format>image/svg+xml</dc:format>
        <dc:type
           rdf:resource="http://purl.org/dc/dcmitype/StillImage" />
        <dc:title></dc:title>
      </cc:Work>
    </rdf:RDF>
  </metadata>
  <g
     inkscape:groupmode="layer"
     id="layer2"
     inkscape:label="decoupe-1"
     style="display:inline"
     transform="translate(-161.90794,-169.1914)">
    <path
       id="path4120"
       style="fill:none;stroke:#ff00ff;stroke-linecap:round"
       d="m 563.77391,289.50504 a 8.85827,8.85827 0 1 0 -17.71654,0 8.85827,8.85827 0 0 0 17.71654,0 z"
       inkscape:connector-curvature="0" />
    <path
       id="path4122"
       style="fill:none;stroke:#ff00ff;stroke-linecap:round"
       d="m 502.0612,519.82004 a 8.858268,8.858268 0 1 0 -17.71653,0 8.858268,8.858268 0 1 0 17.71653,0 z"
       inkscape:connector-curvature="0" />
    <path
       id="path4124"
       style="fill:none;stroke:#ff00ff;stroke-linecap:round"
       d="m 333.45895,688.42224 a 8.85827,8.85827 0 1 0 -17.71654,0 8.85827,8.85827 0 0 0 17.71654,0 z"
       inkscape:connector-curvature="0" />
  </g>
  <g
     inkscape:groupmode="layer"
     id="layer3"
     inkscape:label="decoupe-2"
     style="display:inline"
     transform="translate(-161.90794,-169.1914)">
    <path
       id="path4072"
       style="fill:none;stroke:#ff00ff;stroke-linecap:round"
       d="m 475.19123,289.50504 a 62.007875,62.007875 0 1 0 -124.01575,0 62.007875,62.007875 0 0 0 124.01575,0 z"
       inkscape:connector-curvature="0" />
    <path
       id="path4074"
       style="fill:none;stroke:#ff00ff;stroke-linecap:round"
       d="m 502.99116,251.69904 a 8.8988101,8.8988101 0 1 0 -15.70775,8.3679"
       inkscape:connector-curvature="0" />
    <path
       id="path4076"
       style="fill:none;stroke:#ff00ff;stroke-linecap:round"
       d="m 487.28341,318.94314 a 8.8988101,8.8988101 0 0 0 15.70775,8.3679"
       inkscape:connector-curvature="0" />
    <path
       id="path4078"
       style="fill:none;stroke:#ff00ff;stroke-linecap:round"
       d="m 502.97698,327.34474 a 97.440945,97.440945 0 0 0 0,-75.6794"
       inkscape:connector-curvature="0" />
    <path
       id="path4080"
       style="fill:none;stroke:#ff00ff;stroke-linecap:round"
       d="m 487.27539,318.93894 a 79.724409,79.724409 0 0 0 -3.7e-4,-58.8687"
       inkscape:connector-curvature="0" />
    <path
       id="path4082"
       style="fill:none;stroke:#ff00ff;stroke-linecap:round"
       d="m 432.46705,448.95384 a 62.007875,62.007875 0 1 0 -124.01575,0 62.007875,62.007875 0 0 0 124.01575,0 z"
       inkscape:connector-curvature="0" />
    <path
       id="path4084"
       style="fill:none;stroke:#ff00ff;stroke-linecap:round"
       d="m 467.13803,461.11674 a 8.89881,8.89881 0 1 0 -17.78726,-0.607"
       inkscape:connector-curvature="0" />
    <path
       id="path4086"
       style="fill:none;stroke:#ff00ff;stroke-linecap:round"
       d="m 419.91265,511.49804 a 8.8988105,8.8988105 0 0 0 9.41935,15.1007"
       inkscape:connector-curvature="0" />
    <path
       id="path4088"
       style="fill:none;stroke:#ff00ff;stroke-linecap:round"
       d="m 429.30289,526.62084 a 97.440945,97.440945 0 0 0 37.83969,-65.5403"
       inkscape:connector-curvature="0" />
    <path
       id="path4090"
       style="fill:none;stroke:#ff00ff;stroke-linecap:round"
       d="m 419.90784,511.49034 a 79.724409,79.724409 0 0 0 29.43399,-50.9819"
       inkscape:connector-curvature="0" />
    <path
       id="path4092"
       style="fill:none;stroke:#ff00ff;stroke-linecap:round"
       d="m 315.74241,565.67854 a 62.007874,62.007874 0 1 0 -124.01575,0 62.007874,62.007874 0 1 0 124.01575,0 z"
       inkscape:connector-curvature="0" />
    <path
       id="path4094"
       style="fill:none;stroke:#ff00ff;stroke-linecap:round"
       d="m 331.37942,624.55134 a 8.8988192,8.8988192 0 0 0 -15.10069,-9.4194"
       inkscape:connector-curvature="0" />
    <path
       id="path4096"
       style="fill:none;stroke:#ff00ff;stroke-linecap:round"
       d="m 265.29041,644.57014 a 8.89881,8.89881 0 0 0 0.60705,17.7872"
       inkscape:connector-curvature="0" />
    <path
       id="path4098"
       style="fill:none;stroke:#ff00ff;stroke-linecap:round"
       d="m 265.86121,662.36194 a 97.440945,97.440945 0 0 0 65.54028,-37.8397"
       inkscape:connector-curvature="0" />
    <path
       id="path4100"
       style="fill:none;stroke:#ff00ff;stroke-linecap:round"
       d="m 265.2901,644.56104 a 79.724409,79.724409 0 0 0 50.98154,-29.4347"
       inkscape:connector-curvature="0" />
    <path
       id="path4102"
       style="fill:none;stroke:#ff00ff;stroke-linecap:round"
       d="m 359.99393,351.53064 a 8.858268,8.858268 0 0 0 -4.58532,17.1128"
       inkscape:connector-curvature="0" />
    <path
       id="path4104"
       style="fill:none;stroke:#ff00ff;stroke-linecap:round"
       d="m 423.83931,386.97944 a 8.8583008,8.8583008 0 0 0 4.58548,-17.1129"
       inkscape:connector-curvature="0" />
    <path
       id="path4106"
       style="fill:none;stroke:#ff00ff;stroke-linecap:round"
       d="m 359.99393,351.53064 68.43086,18.3359"
       inkscape:connector-curvature="0" />
    <path
       id="path4108"
       style="fill:none;stroke:#ff00ff;stroke-linecap:round"
       d="m 423.83931,386.97944 -68.44528,-18.2816"
       inkscape:connector-curvature="0" />
    <path
       id="path4110"
       style="fill:none;stroke:#ff00ff;stroke-linecap:round"
       d="m 293.383,476.07484 a 8.858268,8.858268 0 0 0 -12.52744,12.5275"
       inkscape:connector-curvature="0" />
    <path
       id="path4112"
       style="fill:none;stroke:#ff00ff;stroke-linecap:round"
       d="m 330.95032,538.69714 a 8.858268,8.858268 0 0 0 12.52755,-12.5274"
       inkscape:connector-curvature="0" />
    <path
       id="path4114"
       style="fill:none;stroke:#ff00ff;stroke-linecap:round"
       d="m 293.383,476.07484 50.09487,50.0949"
       inkscape:connector-curvature="0" />
    <path
       id="path4116"
       style="fill:none;stroke:#ff00ff;stroke-linecap:round"
       d="m 330.95032,538.69714 -50.13459,-50.0549"
       inkscape:connector-curvature="0" />
  </g>
  <g
     inkscape:groupmode="layer"
     id="layer4"
     inkscape:label="decoupe-3"
     style="display:inline"
     transform="translate(-161.90794,-169.1914)">
    <g
       inkscape:label="plaquebordext"
       id="g4060"
       transform="translate(94.285716,-762.85716)">
      <path
         inkscape:connector-curvature="0"
         d="M 224.59525,1001.3528 481.37634,932.54856"
         style="fill:none;stroke:#ff00ff;stroke-linecap:round"
         id="path4062" />
      <path
         inkscape:connector-curvature="0"
         d="m 68.122221,1272.3721 68.804289,256.7811"
         style="fill:none;stroke:#ff00ff;stroke-linecap:round"
         id="path4064" />
      <path
         inkscape:connector-curvature="0"
         d="M 136.92651,1529.1532 A 496.06299,496.06299 0 0 0 481.37634,932.54856"
         style="fill:none;stroke:#ff00ff;stroke-linecap:round"
         id="path4066" />
      <path
         inkscape:connector-curvature="0"
         d="M 68.122221,1272.3721 A 230.31496,230.31496 0 0 0 224.59525,1001.3528"
         style="fill:none;stroke:#ff00ff;stroke-linecap:round"
         id="path4068" />
    </g>
  </g>
</svg>
