999
dxfrw 0.5.10
0
SECTION
2
HEADER
9
$ACADVER
1
AC1021
9
$HANDSEED
5
20000
9
$DWGCODEPAGE
3
ANSI_1252
9
$INSBASE
10
0
20
0
30
0
9
$EXTMIN
10
-240
20
-240
30
0
9
$EXTMAX
10
301.25
20
240
30
0
9
$LIMMIN
10
0
20
0
9
$LIMMAX
10
420
20
297
9
$ORTHOMODE
70
0
9
$LTSCALE
40
1
9
$TEXTSTYLE
7
STANDARD
9
$CLAYER
8
0.1.32A24B-aimants-10mm
9
$DIMASZ
40
2.5
9
$DIMLFAC
40
1
9
$DIMSCALE
40
1
9
$DIMEXO
40
0.625
9
$DIMEXE
40
1.25
9
$DIMTXT
40
2.5
9
$DIMTSZ
40
0
9
$DIMAUNIT
70
0
9
$DIMADEC
70
0
9
$DIMLUNIT
70
2
9
$DIMSTYLE
2
STANDARD
9
$DIMGAP
40
0.625
9
$DIMTIH
70
0
9
$LUNITS
70
2
9
$LUPREC
70
4
9
$AUNITS
70
0
9
$AUPREC
70
2
9
$SPLINESEGS
70
8
9
$GRIDMODE
70
1
9
$SNAPSTYLE
70
0
9
$PINSBASE
10
0
20
0
30
0
9
$PLIMMIN
10
0
20
0
9
$PLIMMAX
10
210
20
297
9
$INSUNITS
70
0
9
$PSVPSCALE
40
1
0
ENDSEC
0
SECTION
2
CLASSES
0
ENDSEC
0
SECTION
2
TABLES
0
TABLE
2
VPORT
5
8
330
0
100
AcDbSymbolTable
70
1
0
VPORT
5
31
330
2
100
AcDbSymbolTableRecord
100
AcDbViewportTableRecord
2
*ACTIVE
70
0
10
0
20
0
11
1
21
1
12
174.780499592
22
42.050037551
13
0
23
0
14
10
24
10
15
10
25
10
16
0
26
0
36
1
17
0
27
0
37
0
40
163.706253061
41
1.70196078431
42
50
43
0
44
0
50
0
51
0
71
0
72
100
73
1
74
3
75
0
76
1
77
0
78
0
281
0
65
1
110
0
120
0
130
0
111
1
121
0
131
0
112
0
122
1
132
0
79
0
146
0
348
10020
60
7
61
5
292
1
282
1
141
0
142
0
63
250
421
3358443
0
ENDTAB
0
TABLE
2
LTYPE
5
5
330
0
100
AcDbSymbolTable
70
4
0
LTYPE
5
14
330
5
100
AcDbSymbolTableRecord
100
AcDbLinetypeTableRecord
2
ByBlock
70
0
3

72
65
73
0
40
0
0
LTYPE
5
15
330
5
100
AcDbSymbolTableRecord
100
AcDbLinetypeTableRecord
2
ByLayer
70
0
3

72
65
73
0
40
0
0
LTYPE
5
16
330
5
100
AcDbSymbolTableRecord
100
AcDbLinetypeTableRecord
2
Continuous
70
0
3
Solid line
72
65
73
0
40
0
0
LTYPE
5
32
330
5
100
AcDbSymbolTableRecord
100
AcDbLinetypeTableRecord
2
DOT
70
0
3
Dot . . . . . . . . . . . . . . . . . . . . . .
72
65
73
2
40
6.35
49
0
74
0
49
-6.35
74
0
0
LTYPE
5
33
330
5
100
AcDbSymbolTableRecord
100
AcDbLinetypeTableRecord
2
DOT2
70
0
3
Dot (.5x) .....................................
72
65
73
2
40
3.175
49
0
74
0
49
-3.175
74
0
0
LTYPE
5
34
330
5
100
AcDbSymbolTableRecord
100
AcDbLinetypeTableRecord
2
DOTX2
70
0
3
Dot (2x) .  .  .  .  .  .  .  .  .  .  .  .  .
72
65
73
2
40
12.7
49
0
74
0
49
-12.7
74
0
0
LTYPE
5
35
330
5
100
AcDbSymbolTableRecord
100
AcDbLinetypeTableRecord
2
DASHED
70
0
3
Dot . . . . . . . . . . . . . . . . . . . . . .
72
65
73
2
40
19.05
49
12.7
74
0
49
-6.35
74
0
0
LTYPE
5
36
330
5
100
AcDbSymbolTableRecord
100
AcDbLinetypeTableRecord
2
DASHED2
70
0
3
Dashed (.5x) _ _ _ _ _ _ _ _ _ _ _ _ _ _ _ _ _
72
65
73
2
40
9.525
49
6.35
74
0
49
-3.175
74
0
0
LTYPE
5
37
330
5
100
AcDbSymbolTableRecord
100
AcDbLinetypeTableRecord
2
DASHEDX2
70
0
3
Dashed (2x) ____  ____  ____  ____  ____  ___
72
65
73
2
40
38.1
49
25.4
74
0
49
-12.7
74
0
0
LTYPE
5
38
330
5
100
AcDbSymbolTableRecord
100
AcDbLinetypeTableRecord
2
DASHDOT
70
0
3
Dash dot __ . __ . __ . __ . __ . __ . __ . __
72
65
73
4
40
25.4
49
12.7
74
0
49
-6.35
74
0
49
0
74
0
49
-6.35
74
0
0
LTYPE
5
39
330
5
100
AcDbSymbolTableRecord
100
AcDbLinetypeTableRecord
2
DASHDOT2
70
0
3
Dash dot (.5x) _._._._._._._._._._._._._._._.
72
65
73
4
40
12.7
49
6.35
74
0
49
-3.175
74
0
49
0
74
0
49
-3.175
74
0
0
LTYPE
5
3A
330
5
100
AcDbSymbolTableRecord
100
AcDbLinetypeTableRecord
2
DASHDOTX2
70
0
3
Dash dot (2x) ____  .  ____  .  ____  .  ___
72
65
73
4
40
50.8
49
25.4
74
0
49
-12.7
74
0
49
0
74
0
49
-12.7
74
0
0
LTYPE
5
3B
330
5
100
AcDbSymbolTableRecord
100
AcDbLinetypeTableRecord
2
DIVIDE
70
0
3
Divide ____ . . ____ . . ____ . . ____ . . ____
72
65
73
6
40
31.75
49
12.7
74
0
49
-6.35
74
0
49
0
74
0
49
-6.35
74
0
49
0
74
0
49
-6.35
74
0
0
LTYPE
5
3C
330
5
100
AcDbSymbolTableRecord
100
AcDbLinetypeTableRecord
2
DIVIDE2
70
0
3
Divide (.5x) __..__..__..__..__..__..__..__.._
72
65
73
6
40
15.875
49
6.35
74
0
49
-3.175
74
0
49
0
74
0
49
-3.175
74
0
49
0
74
0
49
-3.175
74
0
0
LTYPE
5
3D
330
5
100
AcDbSymbolTableRecord
100
AcDbLinetypeTableRecord
2
DIVIDEX2
70
0
3
Divide (2x) ________  .  .  ________  .  .  _
72
65
73
6
40
63.5
49
25.4
74
0
49
-12.7
74
0
49
0
74
0
49
-12.7
74
0
49
0
74
0
49
-12.7
74
0
0
LTYPE
5
3E
330
5
100
AcDbSymbolTableRecord
100
AcDbLinetypeTableRecord
2
BORDER
70
0
3
Border __ __ . __ __ . __ __ . __ __ . __ __ .
72
65
73
6
40
44.45
49
12.7
74
0
49
-6.35
74
0
49
12.7
74
0
49
-6.35
74
0
49
0
74
0
49
-6.35
74
0
0
LTYPE
5
3F
330
5
100
AcDbSymbolTableRecord
100
AcDbLinetypeTableRecord
2
BORDER2
70
0
3
Border (.5x) __.__.__.__.__.__.__.__.__.__.__.
72
65
73
6
40
22.225
49
6.35
74
0
49
-3.175
74
0
49
6.35
74
0
49
-3.175
74
0
49
0
74
0
49
-3.175
74
0
0
LTYPE
5
40
330
5
100
AcDbSymbolTableRecord
100
AcDbLinetypeTableRecord
2
BORDERX2
70
0
3
Border (2x) ____  ____  .  ____  ____  .  ___
72
65
73
6
40
88.9
49
25.4
74
0
49
-12.7
74
0
49
25.4
74
0
49
-12.7
74
0
49
0
74
0
49
-12.7
74
0
0
LTYPE
5
41
330
5
100
AcDbSymbolTableRecord
100
AcDbLinetypeTableRecord
2
CENTER
70
0
3
Center ____ _ ____ _ ____ _ ____ _ ____ _ ____
72
65
73
4
40
50.8
49
31.75
74
0
49
-6.35
74
0
49
6.35
74
0
49
-6.35
74
0
0
LTYPE
5
42
330
5
100
AcDbSymbolTableRecord
100
AcDbLinetypeTableRecord
2
CENTER2
70
0
3
Center (.5x) ___ _ ___ _ ___ _ ___ _ ___ _ ___
72
65
73
4
40
28.575
49
19.05
74
0
49
-3.175
74
0
49
3.175
74
0
49
-3.175
74
0
0
LTYPE
5
43
330
5
100
AcDbSymbolTableRecord
100
AcDbLinetypeTableRecord
2
CENTERX2
70
0
3
Center (2x) ________  __  ________  __  _____
72
65
73
4
40
101.6
49
63.5
74
0
49
-12.7
74
0
49
12.7
74
0
49
-12.7
74
0
0
ENDTAB
0
TABLE
2
LAYER
5
2
330
0
100
AcDbSymbolTable
70
1
0
LAYER
5
10
330
2
100
AcDbSymbolTableRecord
100
AcDbLayerTableRecord
2
0
70
1
62
7
6
CONTINUOUS
370
0
390
F
0
LAYER
5
44
330
2
100
AcDbSymbolTableRecord
100
AcDbLayerTableRecord
2
0.1.32A24B-aimants-10mm
70
0
62
1
6
CONTINUOUS
370
0
390
F
0
LAYER
5
45
330
2
100
AcDbSymbolTableRecord
100
AcDbLayerTableRecord
2
0.1.32A24B-bobines-maxi
70
0
62
2
6
CONTINUOUS
370
0
390
F
0
ENDTAB
0
TABLE
2
STYLE
5
3
330
0
100
AcDbSymbolTable
70
3
0
STYLE
5
46
330
2
100
AcDbSymbolTableRecord
100
AcDbTextStyleTableRecord
2
Standard
70
0
40
0
41
1
50
0
71
0
42
1
3
txt
4

0
ENDTAB
0
TABLE
2
VIEW
5
6
330
0
100
AcDbSymbolTable
70
0
0
ENDTAB
0
TABLE
2
UCS
5
7
330
0
100
AcDbSymbolTable
70
0
0
ENDTAB
0
TABLE
2
APPID
5
9
330
0
100
AcDbSymbolTable
70
1
0
APPID
5
12
330
9
100
AcDbSymbolTableRecord
100
AcDbRegAppTableRecord
2
ACAD
70
0
0
ENDTAB
0
TABLE
2
DIMSTYLE
5
A
330
0
100
AcDbSymbolTable
70
1
100
AcDbDimStyleTable
71
1
0
DIMSTYLE
105
47
330
A
100
AcDbSymbolTableRecord
100
AcDbDimStyleTableRecord
2
Standard
70
0
40
1
41
2.5
42
0.625
43
0.38
44
1.25
45
0
46
0
47
0
48
0
140
2.5
141
0.09
142
0
143
25.4
144
1
145
0
146
1
147
0.625
148
0
71
0
72
0
73
0
74
1
75
0
76
0
77
0
78
0
79
0
170
0
171
2
172
0
173
0
174
0
175
0
176
0
177
0
178
0
179
0
271
4
272
4
273
2
274
2
275
0
276
0
277
2
278
46
279
0
280
0
281
0
282
0
283
1
284
0
285
0
286
0
288
0
289
3
340
Standard
341

371
-2
372
-2
0
ENDTAB
0
TABLE
2
BLOCK_RECORD
5
1
330
0
100
AcDbSymbolTable
70
2
0
BLOCK_RECORD
5
1F
330
1
100
AcDbSymbolTableRecord
100
AcDbBlockTableRecord
2
*Model_Space
70
0
280
1
281
0
0
BLOCK_RECORD
5
1E
330
1
100
AcDbSymbolTableRecord
100
AcDbBlockTableRecord
2
*Paper_Space
70
0
280
1
281
0
0
ENDTAB
0
ENDSEC
0
SECTION
2
BLOCKS
0
BLOCK
5
20
330
1F
100
AcDbEntity
8
0
100
AcDbBlockBegin
2
*Model_Space
70
0
10
0
20
0
30
0
3
*Model_Space
1

0
ENDBLK
5
21
330
1F
100
AcDbEntity
8
0
100
AcDbBlockEnd
0
BLOCK
5
1C
330
1B
100
AcDbEntity
8
0
100
AcDbBlockBegin
2
*Paper_Space
70
0
10
0
20
0
30
0
3
*Paper_Space
1

0
ENDBLK
5
1D
330
1F
100
AcDbEntity
8
0
100
AcDbBlockEnd
0
ENDSEC
0
SECTION
2
ENTITIES
0
CIRCLE
5
48
100
AcDbEntity
8
0.1.32A24B-aimants-10mm
6
ByLayer
62
256
370
-1
100
AcDbCircle
10
169.181403534
20
-4.91967577787e-15
40
5
0
CIRCLE
5
49
100
AcDbEntity
8
0.1.32A24B-aimants-10mm
6
ByLayer
62
256
370
-1
100
AcDbCircle
10
169.181403534
20
-4.91967577787e-15
40
16.6629138559
0
CIRCLE
5
4A
100
AcDbEntity
8
0.1.32A24B-aimants-10mm
6
ByLayer
62
256
370
-1
100
AcDbCircle
10
165.930630304
20
33.0056544946
40
5
0
CIRCLE
5
4B
100
AcDbEntity
8
0.1.32A24B-aimants-10mm
6
ByLayer
62
256
370
-1
100
AcDbCircle
10
165.930630304
20
33.0056544946
40
16.6629138559
0
CIRCLE
5
4C
100
AcDbEntity
8
0.1.32A24B-aimants-10mm
6
ByLayer
62
256
370
-1
100
AcDbCircle
10
156.303236007
20
64.7429201968
40
5
0
CIRCLE
5
4D
100
AcDbEntity
8
0.1.32A24B-aimants-10mm
6
ByLayer
62
256
370
-1
100
AcDbCircle
10
156.303236007
20
64.7429201968
40
16.6629138559
0
CIRCLE
5
4E
100
AcDbEntity
8
0.1.32A24B-aimants-10mm
6
ByLayer
62
256
370
-1
100
AcDbCircle
10
140.669196005
20
93.9921517841
40
5
0
CIRCLE
5
4F
100
AcDbEntity
8
0.1.32A24B-aimants-10mm
6
ByLayer
62
256
370
-1
100
AcDbCircle
10
140.669196005
20
93.9921517841
40
16.6629138559
0
CIRCLE
5
50
100
AcDbEntity
8
0.1.32A24B-aimants-10mm
6
ByLayer
62
256
370
-1
100
AcDbCircle
10
119.62931769
20
119.62931769
40
5
0
CIRCLE
5
51
100
AcDbEntity
8
0.1.32A24B-aimants-10mm
6
ByLayer
62
256
370
-1
100
AcDbCircle
10
119.62931769
20
119.62931769
40
16.6629138559
0
CIRCLE
5
52
100
AcDbEntity
8
0.1.32A24B-aimants-10mm
6
ByLayer
62
256
370
-1
100
AcDbCircle
10
93.9921517841
20
140.669196005
40
5
0
CIRCLE
5
53
100
AcDbEntity
8
0.1.32A24B-aimants-10mm
6
ByLayer
62
256
370
-1
100
AcDbCircle
10
93.9921517841
20
140.669196005
40
16.6629138559
0
CIRCLE
5
54
100
AcDbEntity
8
0.1.32A24B-aimants-10mm
6
ByLayer
62
256
370
-1
100
AcDbCircle
10
64.7429201968
20
156.303236007
40
5
0
CIRCLE
5
55
100
AcDbEntity
8
0.1.32A24B-aimants-10mm
6
ByLayer
62
256
370
-1
100
AcDbCircle
10
64.7429201968
20
156.303236007
40
16.6629138559
0
CIRCLE
5
56
100
AcDbEntity
8
0.1.32A24B-aimants-10mm
6
ByLayer
62
256
370
-1
100
AcDbCircle
10
33.0056544946
20
165.930630304
40
5
0
CIRCLE
5
57
100
AcDbEntity
8
0.1.32A24B-aimants-10mm
6
ByLayer
62
256
370
-1
100
AcDbCircle
10
33.0056544946
20
165.930630304
40
16.6629138559
0
CIRCLE
5
58
100
AcDbEntity
8
0.1.32A24B-aimants-10mm
6
ByLayer
62
256
370
-1
100
AcDbCircle
10
1.55275098335e-14
20
169.181403534
40
5
0
CIRCLE
5
59
100
AcDbEntity
8
0.1.32A24B-aimants-10mm
6
ByLayer
62
256
370
-1
100
AcDbCircle
10
1.55275098335e-14
20
169.181403534
40
16.6629138559
0
CIRCLE
5
5A
100
AcDbEntity
8
0.1.32A24B-aimants-10mm
6
ByLayer
62
256
370
-1
100
AcDbCircle
10
-33.0056544946
20
165.930630304
40
5
0
CIRCLE
5
5B
100
AcDbEntity
8
0.1.32A24B-aimants-10mm
6
ByLayer
62
256
370
-1
100
AcDbCircle
10
-33.0056544946
20
165.930630304
40
16.6629138559
0
CIRCLE
5
5C
100
AcDbEntity
8
0.1.32A24B-aimants-10mm
6
ByLayer
62
256
370
-1
100
AcDbCircle
10
-64.7429201968
20
156.303236007
40
5
0
CIRCLE
5
5D
100
AcDbEntity
8
0.1.32A24B-aimants-10mm
6
ByLayer
62
256
370
-1
100
AcDbCircle
10
-64.7429201968
20
156.303236007
40
16.6629138559
0
CIRCLE
5
5E
100
AcDbEntity
8
0.1.32A24B-aimants-10mm
6
ByLayer
62
256
370
-1
100
AcDbCircle
10
-93.9921517841
20
140.669196005
40
5
0
CIRCLE
5
5F
100
AcDbEntity
8
0.1.32A24B-aimants-10mm
6
ByLayer
62
256
370
-1
100
AcDbCircle
10
-93.9921517841
20
140.669196005
40
16.6629138559
0
CIRCLE
5
60
100
AcDbEntity
8
0.1.32A24B-aimants-10mm
6
ByLayer
62
256
370
-1
100
AcDbCircle
10
-119.62931769
20
119.62931769
40
5
0
CIRCLE
5
61
100
AcDbEntity
8
0.1.32A24B-aimants-10mm
6
ByLayer
62
256
370
-1
100
AcDbCircle
10
-119.62931769
20
119.62931769
40
16.6629138559
0
CIRCLE
5
62
100
AcDbEntity
8
0.1.32A24B-aimants-10mm
6
ByLayer
62
256
370
-1
100
AcDbCircle
10
-140.669196005
20
93.9921517841
40
5
0
CIRCLE
5
63
100
AcDbEntity
8
0.1.32A24B-aimants-10mm
6
ByLayer
62
256
370
-1
100
AcDbCircle
10
-140.669196005
20
93.9921517841
40
16.6629138559
0
CIRCLE
5
64
100
AcDbEntity
8
0.1.32A24B-aimants-10mm
6
ByLayer
62
256
370
-1
100
AcDbCircle
10
-156.303236007
20
64.7429201968
40
5
0
CIRCLE
5
65
100
AcDbEntity
8
0.1.32A24B-aimants-10mm
6
ByLayer
62
256
370
-1
100
AcDbCircle
10
-156.303236007
20
64.7429201968
40
16.6629138559
0
CIRCLE
5
66
100
AcDbEntity
8
0.1.32A24B-aimants-10mm
6
ByLayer
62
256
370
-1
100
AcDbCircle
10
-165.930630304
20
33.0056544946
40
5
0
CIRCLE
5
67
100
AcDbEntity
8
0.1.32A24B-aimants-10mm
6
ByLayer
62
256
370
-1
100
AcDbCircle
10
-165.930630304
20
33.0056544946
40
16.6629138559
0
CIRCLE
5
68
100
AcDbEntity
8
0.1.32A24B-aimants-10mm
6
ByLayer
62
256
370
-1
100
AcDbCircle
10
-169.181403534
20
2.61336091656e-14
40
5
0
CIRCLE
5
69
100
AcDbEntity
8
0.1.32A24B-aimants-10mm
6
ByLayer
62
256
370
-1
100
AcDbCircle
10
-169.181403534
20
2.61336091656e-14
40
16.6629138559
0
CIRCLE
5
6A
100
AcDbEntity
8
0.1.32A24B-aimants-10mm
6
ByLayer
62
256
370
-1
100
AcDbCircle
10
-165.930630304
20
-33.0056544946
40
5
0
CIRCLE
5
6B
100
AcDbEntity
8
0.1.32A24B-aimants-10mm
6
ByLayer
62
256
370
-1
100
AcDbCircle
10
-165.930630304
20
-33.0056544946
40
16.6629138559
0
CIRCLE
5
6C
100
AcDbEntity
8
0.1.32A24B-aimants-10mm
6
ByLayer
62
256
370
-1
100
AcDbCircle
10
-156.303236007
20
-64.7429201968
40
5
0
CIRCLE
5
6D
100
AcDbEntity
8
0.1.32A24B-aimants-10mm
6
ByLayer
62
256
370
-1
100
AcDbCircle
10
-156.303236007
20
-64.7429201968
40
16.6629138559
0
CIRCLE
5
6E
100
AcDbEntity
8
0.1.32A24B-aimants-10mm
6
ByLayer
62
256
370
-1
100
AcDbCircle
10
-140.669196005
20
-93.9921517841
40
5
0
CIRCLE
5
6F
100
AcDbEntity
8
0.1.32A24B-aimants-10mm
6
ByLayer
62
256
370
-1
100
AcDbCircle
10
-140.669196005
20
-93.9921517841
40
16.6629138559
0
CIRCLE
5
70
100
AcDbEntity
8
0.1.32A24B-aimants-10mm
6
ByLayer
62
256
370
-1
100
AcDbCircle
10
-119.62931769
20
-119.62931769
40
5
0
CIRCLE
5
71
100
AcDbEntity
8
0.1.32A24B-aimants-10mm
6
ByLayer
62
256
370
-1
100
AcDbCircle
10
-119.62931769
20
-119.62931769
40
16.6629138559
0
CIRCLE
5
72
100
AcDbEntity
8
0.1.32A24B-aimants-10mm
6
ByLayer
62
256
370
-1
100
AcDbCircle
10
-93.9921517841
20
-140.669196005
40
5
0
CIRCLE
5
73
100
AcDbEntity
8
0.1.32A24B-aimants-10mm
6
ByLayer
62
256
370
-1
100
AcDbCircle
10
-93.9921517841
20
-140.669196005
40
16.6629138559
0
CIRCLE
5
74
100
AcDbEntity
8
0.1.32A24B-aimants-10mm
6
ByLayer
62
256
370
-1
100
AcDbCircle
10
-64.7429201968
20
-156.303236007
40
5
0
CIRCLE
5
75
100
AcDbEntity
8
0.1.32A24B-aimants-10mm
6
ByLayer
62
256
370
-1
100
AcDbCircle
10
-64.7429201968
20
-156.303236007
40
16.6629138559
0
CIRCLE
5
76
100
AcDbEntity
8
0.1.32A24B-aimants-10mm
6
ByLayer
62
256
370
-1
100
AcDbCircle
10
-33.0056544946
20
-165.930630304
40
5
0
CIRCLE
5
77
100
AcDbEntity
8
0.1.32A24B-aimants-10mm
6
ByLayer
62
256
370
-1
100
AcDbCircle
10
-33.0056544946
20
-165.930630304
40
16.6629138559
0
CIRCLE
5
78
100
AcDbEntity
8
0.1.32A24B-aimants-10mm
6
ByLayer
62
256
370
-1
100
AcDbCircle
10
-3.67397084977e-14
20
-169.181403534
40
5
0
CIRCLE
5
79
100
AcDbEntity
8
0.1.32A24B-aimants-10mm
6
ByLayer
62
256
370
-1
100
AcDbCircle
10
-3.67397084977e-14
20
-169.181403534
40
16.6629138559
0
CIRCLE
5
7A
100
AcDbEntity
8
0.1.32A24B-aimants-10mm
6
ByLayer
62
256
370
-1
100
AcDbCircle
10
33.0056544946
20
-165.930630304
40
5
0
CIRCLE
5
7B
100
AcDbEntity
8
0.1.32A24B-aimants-10mm
6
ByLayer
62
256
370
-1
100
AcDbCircle
10
33.0056544946
20
-165.930630304
40
16.6629138559
0
CIRCLE
5
7C
100
AcDbEntity
8
0.1.32A24B-aimants-10mm
6
ByLayer
62
256
370
-1
100
AcDbCircle
10
64.7429201968
20
-156.303236007
40
5
0
CIRCLE
5
7D
100
AcDbEntity
8
0.1.32A24B-aimants-10mm
6
ByLayer
62
256
370
-1
100
AcDbCircle
10
64.7429201968
20
-156.303236007
40
16.6629138559
0
CIRCLE
5
7E
100
AcDbEntity
8
0.1.32A24B-aimants-10mm
6
ByLayer
62
256
370
-1
100
AcDbCircle
10
93.9921517841
20
-140.669196005
40
5
0
CIRCLE
5
7F
100
AcDbEntity
8
0.1.32A24B-aimants-10mm
6
ByLayer
62
256
370
-1
100
AcDbCircle
10
93.9921517841
20
-140.669196005
40
16.6629138559
0
CIRCLE
5
80
100
AcDbEntity
8
0.1.32A24B-aimants-10mm
6
ByLayer
62
256
370
-1
100
AcDbCircle
10
119.62931769
20
-119.62931769
40
5
0
CIRCLE
5
81
100
AcDbEntity
8
0.1.32A24B-aimants-10mm
6
ByLayer
62
256
370
-1
100
AcDbCircle
10
119.62931769
20
-119.62931769
40
16.6629138559
0
CIRCLE
5
82
100
AcDbEntity
8
0.1.32A24B-aimants-10mm
6
ByLayer
62
256
370
-1
100
AcDbCircle
10
140.669196005
20
-93.9921517841
40
5
0
CIRCLE
5
83
100
AcDbEntity
8
0.1.32A24B-aimants-10mm
6
ByLayer
62
256
370
-1
100
AcDbCircle
10
140.669196005
20
-93.9921517841
40
16.6629138559
0
CIRCLE
5
84
100
AcDbEntity
8
0.1.32A24B-aimants-10mm
6
ByLayer
62
256
370
-1
100
AcDbCircle
10
156.303236007
20
-64.7429201968
40
5
0
CIRCLE
5
85
100
AcDbEntity
8
0.1.32A24B-aimants-10mm
6
ByLayer
62
256
370
-1
100
AcDbCircle
10
156.303236007
20
-64.7429201968
40
16.6629138559
0
CIRCLE
5
86
100
AcDbEntity
8
0.1.32A24B-aimants-10mm
6
ByLayer
62
256
370
-1
100
AcDbCircle
10
165.930630304
20
-33.0056544946
40
5
0
CIRCLE
5
87
100
AcDbEntity
8
0.1.32A24B-aimants-10mm
6
ByLayer
62
256
370
-1
100
AcDbCircle
10
165.930630304
20
-33.0056544946
40
16.6629138559
0
LINE
5
88
100
AcDbEntity
8
0.1.32A24B-aimants-10mm
6
ByLayer
62
256
370
-1
100
AcDbLine
10
238.844334401
20
-23.5241136791
11
240
21
-4.75747913287e-14
0
LINE
5
89
100
AcDbEntity
8
0.1.32A24B-aimants-10mm
6
ByLayer
62
256
370
-1
100
AcDbLine
10
240
20
-4.75747913287e-14
11
238.844334401
21
23.5241136791
0
LINE
5
8A
100
AcDbEntity
8
0.1.32A24B-aimants-10mm
6
ByLayer
62
256
370
-1
100
AcDbLine
10
238.844334401
20
23.5241136791
11
235.388467297
21
46.8216772839
0
LINE
5
8B
100
AcDbEntity
8
0.1.32A24B-aimants-10mm
6
ByLayer
62
256
370
-1
100
AcDbLine
10
235.388467297
20
46.8216772839
11
229.665680576
21
69.6683225411
0
LINE
5
8C
100
AcDbEntity
8
0.1.32A24B-aimants-10mm
6
ByLayer
62
256
370
-1
100
AcDbLine
10
229.665680576
20
69.6683225411
11
221.731087803
21
91.8440237676
0
LINE
5
8D
100
AcDbEntity
8
0.1.32A24B-aimants-10mm
6
ByLayer
62
256
370
-1
100
AcDbLine
10
221.731087803
20
91.8440237676
11
211.661103444
21
113.135216838
0
LINE
5
8E
100
AcDbEntity
8
0.1.32A24B-aimants-10mm
6
ByLayer
62
256
370
-1
100
AcDbLine
10
211.661103444
20
113.135216838
11
199.552706953
21
133.336855925
0
LINE
5
8F
100
AcDbEntity
8
0.1.32A24B-aimants-10mm
6
ByLayer
62
256
370
-1
100
AcDbLine
10
199.552706953
20
133.336855925
11
185.522508807
21
152.254388199
0
LINE
5
90
100
AcDbEntity
8
0.1.32A24B-aimants-10mm
6
ByLayer
62
256
370
-1
100
AcDbLine
10
185.522508807
20
152.254388199
11
169.705627485
21
169.705627485
0
LINE
5
91
100
AcDbEntity
8
0.1.32A24B-aimants-10mm
6
ByLayer
62
256
370
-1
100
AcDbLine
10
169.705627485
20
169.705627485
11
152.254388199
21
185.522508807
0
LINE
5
92
100
AcDbEntity
8
0.1.32A24B-aimants-10mm
6
ByLayer
62
256
370
-1
100
AcDbLine
10
152.254388199
20
185.522508807
11
133.336855925
21
199.552706953
0
LINE
5
93
100
AcDbEntity
8
0.1.32A24B-aimants-10mm
6
ByLayer
62
256
370
-1
100
AcDbLine
10
133.336855925
20
199.552706953
11
113.135216838
21
211.661103444
0
LINE
5
94
100
AcDbEntity
8
0.1.32A24B-aimants-10mm
6
ByLayer
62
256
370
-1
100
AcDbLine
10
113.135216838
20
211.661103444
11
91.8440237676
21
221.731087803
0
LINE
5
95
100
AcDbEntity
8
0.1.32A24B-aimants-10mm
6
ByLayer
62
256
370
-1
100
AcDbLine
10
91.8440237676
20
221.731087803
11
69.6683225411
21
229.665680576
0
LINE
5
96
100
AcDbEntity
8
0.1.32A24B-aimants-10mm
6
ByLayer
62
256
370
-1
100
AcDbLine
10
69.6683225411
20
229.665680576
11
46.8216772839
21
235.388467297
0
LINE
5
97
100
AcDbEntity
8
0.1.32A24B-aimants-10mm
6
ByLayer
62
256
370
-1
100
AcDbLine
10
46.8216772839
20
235.388467297
11
23.5241136791
21
238.844334401
0
LINE
5
98
100
AcDbEntity
8
0.1.32A24B-aimants-10mm
6
ByLayer
62
256
370
-1
100
AcDbLine
10
23.5241136791
20
238.844334401
11
4.73614203411e-14
21
240
0
LINE
5
99
100
AcDbEntity
8
0.1.32A24B-aimants-10mm
6
ByLayer
62
256
370
-1
100
AcDbLine
10
4.73614203411e-14
20
240
11
-23.5241136791
21
238.844334401
0
LINE
5
9A
100
AcDbEntity
8
0.1.32A24B-aimants-10mm
6
ByLayer
62
256
370
-1
100
AcDbLine
10
-23.5241136791
20
238.844334401
11
-46.8216772839
21
235.388467297
0
LINE
5
9B
100
AcDbEntity
8
0.1.32A24B-aimants-10mm
6
ByLayer
62
256
370
-1
100
AcDbLine
10
-46.8216772839
20
235.388467297
11
-69.6683225411
21
229.665680576
0
LINE
5
9C
100
AcDbEntity
8
0.1.32A24B-aimants-10mm
6
ByLayer
62
256
370
-1
100
AcDbLine
10
-69.6683225411
20
229.665680576
11
-91.8440237676
21
221.731087803
0
LINE
5
9D
100
AcDbEntity
8
0.1.32A24B-aimants-10mm
6
ByLayer
62
256
370
-1
100
AcDbLine
10
-91.8440237676
20
221.731087803
11
-113.135216838
21
211.661103444
0
LINE
5
9E
100
AcDbEntity
8
0.1.32A24B-aimants-10mm
6
ByLayer
62
256
370
-1
100
AcDbLine
10
-113.135216838
20
211.661103444
11
-133.336855925
21
199.552706953
0
LINE
5
9F
100
AcDbEntity
8
0.1.32A24B-aimants-10mm
6
ByLayer
62
256
370
-1
100
AcDbLine
10
-133.336855925
20
199.552706953
11
-152.254388199
21
185.522508807
0
LINE
5
A0
100
AcDbEntity
8
0.1.32A24B-aimants-10mm
6
ByLayer
62
256
370
-1
100
AcDbLine
10
-152.254388199
20
185.522508807
11
-169.705627485
21
169.705627485
0
LINE
5
A1
100
AcDbEntity
8
0.1.32A24B-aimants-10mm
6
ByLayer
62
256
370
-1
100
AcDbLine
10
-169.705627485
20
169.705627485
11
-185.522508807
21
152.254388199
0
LINE
5
A2
100
AcDbEntity
8
0.1.32A24B-aimants-10mm
6
ByLayer
62
256
370
-1
100
AcDbLine
10
-185.522508807
20
152.254388199
11
-199.552706953
21
133.336855925
0
LINE
5
A3
100
AcDbEntity
8
0.1.32A24B-aimants-10mm
6
ByLayer
62
256
370
-1
100
AcDbLine
10
-199.552706953
20
133.336855925
11
-211.661103444
21
113.135216838
0
LINE
5
A4
100
AcDbEntity
8
0.1.32A24B-aimants-10mm
6
ByLayer
62
256
370
-1
100
AcDbLine
10
-211.661103444
20
113.135216838
11
-221.731087803
21
91.8440237676
0
LINE
5
A5
100
AcDbEntity
8
0.1.32A24B-aimants-10mm
6
ByLayer
62
256
370
-1
100
AcDbLine
10
-221.731087803
20
91.8440237676
11
-229.665680576
21
69.6683225411
0
LINE
5
A6
100
AcDbEntity
8
0.1.32A24B-aimants-10mm
6
ByLayer
62
256
370
-1
100
AcDbLine
10
-229.665680576
20
69.6683225411
11
-235.388467297
21
46.8216772839
0
LINE
5
A7
100
AcDbEntity
8
0.1.32A24B-aimants-10mm
6
ByLayer
62
256
370
-1
100
AcDbLine
10
-235.388467297
20
46.8216772839
11
-238.844334401
21
23.5241136791
0
LINE
5
A8
100
AcDbEntity
8
0.1.32A24B-aimants-10mm
6
ByLayer
62
256
370
-1
100
AcDbLine
10
-238.844334401
20
23.5241136791
11
-240
21
4.6398648812e-14
0
LINE
5
A9
100
AcDbEntity
8
0.1.32A24B-aimants-10mm
6
ByLayer
62
256
370
-1
100
AcDbLine
10
-240
20
4.6398648812e-14
11
-238.844334401
21
-23.5241136791
0
LINE
5
AA
100
AcDbEntity
8
0.1.32A24B-aimants-10mm
6
ByLayer
62
256
370
-1
100
AcDbLine
10
-238.844334401
20
-23.5241136791
11
-235.388467297
21
-46.8216772839
0
LINE
5
AB
100
AcDbEntity
8
0.1.32A24B-aimants-10mm
6
ByLayer
62
256
370
-1
100
AcDbLine
10
-235.388467297
20
-46.8216772839
11
-229.665680576
21
-69.6683225411
0
LINE
5
AC
100
AcDbEntity
8
0.1.32A24B-aimants-10mm
6
ByLayer
62
256
370
-1
100
AcDbLine
10
-229.665680576
20
-69.6683225411
11
-221.731087803
21
-91.8440237676
0
LINE
5
AD
100
AcDbEntity
8
0.1.32A24B-aimants-10mm
6
ByLayer
62
256
370
-1
100
AcDbLine
10
-221.731087803
20
-91.8440237676
11
-211.661103444
21
-113.135216838
0
LINE
5
AE
100
AcDbEntity
8
0.1.32A24B-aimants-10mm
6
ByLayer
62
256
370
-1
100
AcDbLine
10
-211.661103444
20
-113.135216838
11
-199.552706953
21
-133.336855925
0
LINE
5
AF
100
AcDbEntity
8
0.1.32A24B-aimants-10mm
6
ByLayer
62
256
370
-1
100
AcDbLine
10
-199.552706953
20
-133.336855925
11
-185.522508807
21
-152.254388199
0
LINE
5
B0
100
AcDbEntity
8
0.1.32A24B-aimants-10mm
6
ByLayer
62
256
370
-1
100
AcDbLine
10
-185.522508807
20
-152.254388199
11
-169.705627485
21
-169.705627485
0
LINE
5
B1
100
AcDbEntity
8
0.1.32A24B-aimants-10mm
6
ByLayer
62
256
370
-1
100
AcDbLine
10
-169.705627485
20
-169.705627485
11
-152.254388199
21
-185.522508807
0
LINE
5
B2
100
AcDbEntity
8
0.1.32A24B-aimants-10mm
6
ByLayer
62
256
370
-1
100
AcDbLine
10
-152.254388199
20
-185.522508807
11
-133.336855925
21
-199.552706953
0
LINE
5
B3
100
AcDbEntity
8
0.1.32A24B-aimants-10mm
6
ByLayer
62
256
370
-1
100
AcDbLine
10
-133.336855925
20
-199.552706953
11
-113.135216838
21
-211.661103444
0
LINE
5
B4
100
AcDbEntity
8
0.1.32A24B-aimants-10mm
6
ByLayer
62
256
370
-1
100
AcDbLine
10
-113.135216838
20
-211.661103444
11
-91.8440237676
21
-221.731087803
0
LINE
5
B5
100
AcDbEntity
8
0.1.32A24B-aimants-10mm
6
ByLayer
62
256
370
-1
100
AcDbLine
10
-91.8440237676
20
-221.731087803
11
-69.6683225411
21
-229.665680576
0
LINE
5
B6
100
AcDbEntity
8
0.1.32A24B-aimants-10mm
6
ByLayer
62
256
370
-1
100
AcDbLine
10
-69.6683225411
20
-229.665680576
11
-46.8216772839
21
-235.388467297
0
LINE
5
B7
100
AcDbEntity
8
0.1.32A24B-aimants-10mm
6
ByLayer
62
256
370
-1
100
AcDbLine
10
-46.8216772839
20
-235.388467297
11
-23.5241136791
21
-238.844334401
0
LINE
5
B8
100
AcDbEntity
8
0.1.32A24B-aimants-10mm
6
ByLayer
62
256
370
-1
100
AcDbLine
10
-23.5241136791
20
-238.844334401
11
-7.37188088351e-14
21
-240
0
LINE
5
B9
100
AcDbEntity
8
0.1.32A24B-aimants-10mm
6
ByLayer
62
256
370
-1
100
AcDbLine
10
-7.37188088351e-14
20
-240
11
23.5241136791
21
-238.844334401
0
LINE
5
BA
100
AcDbEntity
8
0.1.32A24B-aimants-10mm
6
ByLayer
62
256
370
-1
100
AcDbLine
10
23.5241136791
20
-238.844334401
11
46.8216772839
21
-235.388467297
0
LINE
5
BB
100
AcDbEntity
8
0.1.32A24B-aimants-10mm
6
ByLayer
62
256
370
-1
100
AcDbLine
10
46.8216772839
20
-235.388467297
11
69.6683225411
21
-229.665680576
0
LINE
5
BC
100
AcDbEntity
8
0.1.32A24B-aimants-10mm
6
ByLayer
62
256
370
-1
100
AcDbLine
10
69.6683225411
20
-229.665680576
11
91.8440237676
21
-221.731087803
0
LINE
5
BD
100
AcDbEntity
8
0.1.32A24B-aimants-10mm
6
ByLayer
62
256
370
-1
100
AcDbLine
10
91.8440237676
20
-221.731087803
11
113.135216838
21
-211.661103444
0
LINE
5
BE
100
AcDbEntity
8
0.1.32A24B-aimants-10mm
6
ByLayer
62
256
370
-1
100
AcDbLine
10
113.135216838
20
-211.661103444
11
133.336855925
21
-199.552706953
0
LINE
5
BF
100
AcDbEntity
8
0.1.32A24B-aimants-10mm
6
ByLayer
62
256
370
-1
100
AcDbLine
10
133.336855925
20
-199.552706953
11
152.254388199
21
-185.522508807
0
LINE
5
C0
100
AcDbEntity
8
0.1.32A24B-aimants-10mm
6
ByLayer
62
256
370
-1
100
AcDbLine
10
152.254388199
20
-185.522508807
11
169.705627485
21
-169.705627485
0
LINE
5
C1
100
AcDbEntity
8
0.1.32A24B-aimants-10mm
6
ByLayer
62
256
370
-1
100
AcDbLine
10
169.705627485
20
-169.705627485
11
185.522508807
21
-152.254388199
0
LINE
5
C2
100
AcDbEntity
8
0.1.32A24B-aimants-10mm
6
ByLayer
62
256
370
-1
100
AcDbLine
10
185.522508807
20
-152.254388199
11
199.552706953
21
-133.336855925
0
LINE
5
C3
100
AcDbEntity
8
0.1.32A24B-aimants-10mm
6
ByLayer
62
256
370
-1
100
AcDbLine
10
199.552706953
20
-133.336855925
11
211.661103444
21
-113.135216838
0
LINE
5
C4
100
AcDbEntity
8
0.1.32A24B-aimants-10mm
6
ByLayer
62
256
370
-1
100
AcDbLine
10
211.661103444
20
-113.135216838
11
221.731087803
21
-91.8440237676
0
LINE
5
C5
100
AcDbEntity
8
0.1.32A24B-aimants-10mm
6
ByLayer
62
256
370
-1
100
AcDbLine
10
221.731087803
20
-91.8440237676
11
229.665680576
21
-69.6683225411
0
LINE
5
C6
100
AcDbEntity
8
0.1.32A24B-aimants-10mm
6
ByLayer
62
256
370
-1
100
AcDbLine
10
229.665680576
20
-69.6683225411
11
235.388467297
21
-46.8216772839
0
LINE
5
C7
100
AcDbEntity
8
0.1.32A24B-aimants-10mm
6
ByLayer
62
256
370
-1
100
AcDbLine
10
235.388467297
20
-46.8216772839
11
238.844334401
21
-23.5241136791
0
LINE
5
C8
100
AcDbEntity
8
0.1.32A24B-aimants-10mm
6
ByLayer
62
256
370
-1
100
AcDbLine
10
189.085098068
20
-18.6232566626
11
189.085098068
21
18.6232566626
0
LINE
5
C9
100
AcDbEntity
8
0.1.32A24B-aimants-10mm
6
ByLayer
62
256
370
-1
100
AcDbLine
10
189.085098068
20
18.6232566626
11
181.818663789
21
55.1540886783
0
LINE
5
CA
100
AcDbEntity
8
0.1.32A24B-aimants-10mm
6
ByLayer
62
256
370
-1
100
AcDbLine
10
181.818663789
20
55.1540886783
11
167.565040226
21
89.5653799969
0
LINE
5
CB
100
AcDbEntity
8
0.1.32A24B-aimants-10mm
6
ByLayer
62
256
370
-1
100
AcDbLine
10
167.565040226
20
89.5653799969
11
146.871986139
21
120.534723991
0
LINE
5
CC
100
AcDbEntity
8
0.1.32A24B-aimants-10mm
6
ByLayer
62
256
370
-1
100
AcDbLine
10
146.871986139
20
120.534723991
11
120.534723991
21
146.871986139
0
LINE
5
CD
100
AcDbEntity
8
0.1.32A24B-aimants-10mm
6
ByLayer
62
256
370
-1
100
AcDbLine
10
120.534723991
20
146.871986139
11
89.5653799969
21
167.565040226
0
LINE
5
CE
100
AcDbEntity
8
0.1.32A24B-aimants-10mm
6
ByLayer
62
256
370
-1
100
AcDbLine
10
89.5653799969
20
167.565040226
11
55.1540886783
21
181.818663789
0
LINE
5
CF
100
AcDbEntity
8
0.1.32A24B-aimants-10mm
6
ByLayer
62
256
370
-1
100
AcDbLine
10
55.1540886783
20
181.818663789
11
18.6232566626
21
189.085098068
0
LINE
5
D0
100
AcDbEntity
8
0.1.32A24B-aimants-10mm
6
ByLayer
62
256
370
-1
100
AcDbLine
10
18.6232566626
20
189.085098068
11
-18.6232566626
21
189.085098068
0
LINE
5
D1
100
AcDbEntity
8
0.1.32A24B-aimants-10mm
6
ByLayer
62
256
370
-1
100
AcDbLine
10
-18.6232566626
20
189.085098068
11
-55.1540886783
21
181.818663789
0
LINE
5
D2
100
AcDbEntity
8
0.1.32A24B-aimants-10mm
6
ByLayer
62
256
370
-1
100
AcDbLine
10
-55.1540886783
20
181.818663789
11
-89.5653799969
21
167.565040226
0
LINE
5
D3
100
AcDbEntity
8
0.1.32A24B-aimants-10mm
6
ByLayer
62
256
370
-1
100
AcDbLine
10
-89.5653799969
20
167.565040226
11
-120.534723991
21
146.871986139
0
LINE
5
D4
100
AcDbEntity
8
0.1.32A24B-aimants-10mm
6
ByLayer
62
256
370
-1
100
AcDbLine
10
-120.534723991
20
146.871986139
11
-146.871986139
21
120.534723991
0
LINE
5
D5
100
AcDbEntity
8
0.1.32A24B-aimants-10mm
6
ByLayer
62
256
370
-1
100
AcDbLine
10
-146.871986139
20
120.534723991
11
-167.565040226
21
89.5653799969
0
LINE
5
D6
100
AcDbEntity
8
0.1.32A24B-aimants-10mm
6
ByLayer
62
256
370
-1
100
AcDbLine
10
-167.565040226
20
89.5653799969
11
-181.818663789
21
55.1540886783
0
LINE
5
D7
100
AcDbEntity
8
0.1.32A24B-aimants-10mm
6
ByLayer
62
256
370
-1
100
AcDbLine
10
-181.818663789
20
55.1540886783
11
-189.085098068
21
18.6232566626
0
LINE
5
D8
100
AcDbEntity
8
0.1.32A24B-aimants-10mm
6
ByLayer
62
256
370
-1
100
AcDbLine
10
-189.085098068
20
18.6232566626
11
-189.085098068
21
-18.6232566626
0
LINE
5
D9
100
AcDbEntity
8
0.1.32A24B-aimants-10mm
6
ByLayer
62
256
370
-1
100
AcDbLine
10
-189.085098068
20
-18.6232566626
11
-181.818663789
21
-55.1540886783
0
LINE
5
DA
100
AcDbEntity
8
0.1.32A24B-aimants-10mm
6
ByLayer
62
256
370
-1
100
AcDbLine
10
-181.818663789
20
-55.1540886783
11
-167.565040226
21
-89.5653799969
0
LINE
5
DB
100
AcDbEntity
8
0.1.32A24B-aimants-10mm
6
ByLayer
62
256
370
-1
100
AcDbLine
10
-167.565040226
20
-89.5653799969
11
-146.871986139
21
-120.534723991
0
LINE
5
DC
100
AcDbEntity
8
0.1.32A24B-aimants-10mm
6
ByLayer
62
256
370
-1
100
AcDbLine
10
-146.871986139
20
-120.534723991
11
-120.534723991
21
-146.871986139
0
LINE
5
DD
100
AcDbEntity
8
0.1.32A24B-aimants-10mm
6
ByLayer
62
256
370
-1
100
AcDbLine
10
-120.534723991
20
-146.871986139
11
-89.5653799969
21
-167.565040226
0
LINE
5
DE
100
AcDbEntity
8
0.1.32A24B-aimants-10mm
6
ByLayer
62
256
370
-1
100
AcDbLine
10
-89.5653799969
20
-167.565040226
11
-55.1540886783
21
-181.818663789
0
LINE
5
DF
100
AcDbEntity
8
0.1.32A24B-aimants-10mm
6
ByLayer
62
256
370
-1
100
AcDbLine
10
-55.1540886783
20
-181.818663789
11
-18.6232566626
21
-189.085098068
0
LINE
5
E0
100
AcDbEntity
8
0.1.32A24B-aimants-10mm
6
ByLayer
62
256
370
-1
100
AcDbLine
10
-18.6232566626
20
-189.085098068
11
18.6232566626
21
-189.085098068
0
LINE
5
E1
100
AcDbEntity
8
0.1.32A24B-aimants-10mm
6
ByLayer
62
256
370
-1
100
AcDbLine
10
18.6232566626
20
-189.085098068
11
55.1540886783
21
-181.818663789
0
LINE
5
E2
100
AcDbEntity
8
0.1.32A24B-aimants-10mm
6
ByLayer
62
256
370
-1
100
AcDbLine
10
55.1540886783
20
-181.818663789
11
89.5653799969
21
-167.565040226
0
LINE
5
E3
100
AcDbEntity
8
0.1.32A24B-aimants-10mm
6
ByLayer
62
256
370
-1
100
AcDbLine
10
89.5653799969
20
-167.565040226
11
120.534723991
21
-146.871986139
0
LINE
5
E4
100
AcDbEntity
8
0.1.32A24B-aimants-10mm
6
ByLayer
62
256
370
-1
100
AcDbLine
10
120.534723991
20
-146.871986139
11
146.871986139
21
-120.534723991
0
LINE
5
E5
100
AcDbEntity
8
0.1.32A24B-aimants-10mm
6
ByLayer
62
256
370
-1
100
AcDbLine
10
146.871986139
20
-120.534723991
11
167.565040226
21
-89.5653799969
0
LINE
5
E6
100
AcDbEntity
8
0.1.32A24B-aimants-10mm
6
ByLayer
62
256
370
-1
100
AcDbLine
10
167.565040226
20
-89.5653799969
11
181.818663789
21
-55.1540886783
0
LINE
5
E7
100
AcDbEntity
8
0.1.32A24B-aimants-10mm
6
ByLayer
62
256
370
-1
100
AcDbLine
10
181.818663789
20
-55.1540886783
11
189.085098068
21
-18.6232566626
0
LINE
5
E8
100
AcDbEntity
8
0.1.32A24B-aimants-10mm
6
ByLayer
62
256
370
-1
100
AcDbLine
10
149.277709001
20
-14.7025710494
11
149.277709001
21
14.7025710494
0
LINE
5
E9
100
AcDbEntity
8
0.1.32A24B-aimants-10mm
6
ByLayer
62
256
370
-1
100
AcDbLine
10
149.277709001
20
14.7025710494
11
143.54105036
21
43.5427015882
0
LINE
5
EA
100
AcDbEntity
8
0.1.32A24B-aimants-10mm
6
ByLayer
62
256
370
-1
100
AcDbLine
10
143.54105036
20
43.5427015882
11
132.288189652
21
70.7095105239
0
LINE
5
EB
100
AcDbEntity
8
0.1.32A24B-aimants-10mm
6
ByLayer
62
256
370
-1
100
AcDbLine
10
132.288189652
20
70.7095105239
11
115.951568004
21
95.1589926245
0
LINE
5
EC
100
AcDbEntity
8
0.1.32A24B-aimants-10mm
6
ByLayer
62
256
370
-1
100
AcDbLine
10
115.951568004
20
95.1589926245
11
95.1589926245
21
115.951568004
0
LINE
5
ED
100
AcDbEntity
8
0.1.32A24B-aimants-10mm
6
ByLayer
62
256
370
-1
100
AcDbLine
10
95.1589926245
20
115.951568004
11
70.7095105239
21
132.288189652
0
LINE
5
EE
100
AcDbEntity
8
0.1.32A24B-aimants-10mm
6
ByLayer
62
256
370
-1
100
AcDbLine
10
70.7095105239
20
132.288189652
11
43.5427015882
21
143.54105036
0
LINE
5
EF
100
AcDbEntity
8
0.1.32A24B-aimants-10mm
6
ByLayer
62
256
370
-1
100
AcDbLine
10
43.5427015882
20
143.54105036
11
14.7025710494
21
149.277709001
0
LINE
5
F0
100
AcDbEntity
8
0.1.32A24B-aimants-10mm
6
ByLayer
62
256
370
-1
100
AcDbLine
10
14.7025710494
20
149.277709001
11
-14.7025710494
21
149.277709001
0
LINE
5
F1
100
AcDbEntity
8
0.1.32A24B-aimants-10mm
6
ByLayer
62
256
370
-1
100
AcDbLine
10
-14.7025710494
20
149.277709001
11
-43.5427015882
21
143.54105036
0
LINE
5
F2
100
AcDbEntity
8
0.1.32A24B-aimants-10mm
6
ByLayer
62
256
370
-1
100
AcDbLine
10
-43.5427015882
20
143.54105036
11
-70.7095105239
21
132.288189652
0
LINE
5
F3
100
AcDbEntity
8
0.1.32A24B-aimants-10mm
6
ByLayer
62
256
370
-1
100
AcDbLine
10
-70.7095105239
20
132.288189652
11
-95.1589926245
21
115.951568004
0
LINE
5
F4
100
AcDbEntity
8
0.1.32A24B-aimants-10mm
6
ByLayer
62
256
370
-1
100
AcDbLine
10
-95.1589926245
20
115.951568004
11
-115.951568004
21
95.1589926245
0
LINE
5
F5
100
AcDbEntity
8
0.1.32A24B-aimants-10mm
6
ByLayer
62
256
370
-1
100
AcDbLine
10
-115.951568004
20
95.1589926245
11
-132.288189652
21
70.7095105239
0
LINE
5
F6
100
AcDbEntity
8
0.1.32A24B-aimants-10mm
6
ByLayer
62
256
370
-1
100
AcDbLine
10
-132.288189652
20
70.7095105239
11
-143.54105036
21
43.5427015882
0
LINE
5
F7
100
AcDbEntity
8
0.1.32A24B-aimants-10mm
6
ByLayer
62
256
370
-1
100
AcDbLine
10
-143.54105036
20
43.5427015882
11
-149.277709001
21
14.7025710494
0
LINE
5
F8
100
AcDbEntity
8
0.1.32A24B-aimants-10mm
6
ByLayer
62
256
370
-1
100
AcDbLine
10
-149.277709001
20
14.7025710494
11
-149.277709001
21
-14.7025710494
0
LINE
5
F9
100
AcDbEntity
8
0.1.32A24B-aimants-10mm
6
ByLayer
62
256
370
-1
100
AcDbLine
10
-149.277709001
20
-14.7025710494
11
-143.54105036
21
-43.5427015882
0
LINE
5
FA
100
AcDbEntity
8
0.1.32A24B-aimants-10mm
6
ByLayer
62
256
370
-1
100
AcDbLine
10
-143.54105036
20
-43.5427015882
11
-132.288189652
21
-70.7095105239
0
LINE
5
FB
100
AcDbEntity
8
0.1.32A24B-aimants-10mm
6
ByLayer
62
256
370
-1
100
AcDbLine
10
-132.288189652
20
-70.7095105239
11
-115.951568004
21
-95.1589926245
0
LINE
5
FC
100
AcDbEntity
8
0.1.32A24B-aimants-10mm
6
ByLayer
62
256
370
-1
100
AcDbLine
10
-115.951568004
20
-95.1589926245
11
-95.1589926245
21
-115.951568004
0
LINE
5
FD
100
AcDbEntity
8
0.1.32A24B-aimants-10mm
6
ByLayer
62
256
370
-1
100
AcDbLine
10
-95.1589926245
20
-115.951568004
11
-70.7095105239
21
-132.288189652
0
LINE
5
FE
100
AcDbEntity
8
0.1.32A24B-aimants-10mm
6
ByLayer
62
256
370
-1
100
AcDbLine
10
-70.7095105239
20
-132.288189652
11
-43.5427015882
21
-143.54105036
0
LINE
5
FF
100
AcDbEntity
8
0.1.32A24B-aimants-10mm
6
ByLayer
62
256
370
-1
100
AcDbLine
10
-43.5427015882
20
-143.54105036
11
-14.7025710494
21
-149.277709001
0
LINE
5
100
100
AcDbEntity
8
0.1.32A24B-aimants-10mm
6
ByLayer
62
256
370
-1
100
AcDbLine
10
-14.7025710494
20
-149.277709001
11
14.7025710494
21
-149.277709001
0
LINE
5
101
100
AcDbEntity
8
0.1.32A24B-aimants-10mm
6
ByLayer
62
256
370
-1
100
AcDbLine
10
14.7025710494
20
-149.277709001
11
43.5427015882
21
-143.54105036
0
LINE
5
102
100
AcDbEntity
8
0.1.32A24B-aimants-10mm
6
ByLayer
62
256
370
-1
100
AcDbLine
10
43.5427015882
20
-143.54105036
11
70.7095105239
21
-132.288189652
0
LINE
5
103
100
AcDbEntity
8
0.1.32A24B-aimants-10mm
6
ByLayer
62
256
370
-1
100
AcDbLine
10
70.7095105239
20
-132.288189652
11
95.1589926245
21
-115.951568004
0
LINE
5
104
100
AcDbEntity
8
0.1.32A24B-aimants-10mm
6
ByLayer
62
256
370
-1
100
AcDbLine
10
95.1589926245
20
-115.951568004
11
115.951568004
21
-95.1589926245
0
LINE
5
105
100
AcDbEntity
8
0.1.32A24B-aimants-10mm
6
ByLayer
62
256
370
-1
100
AcDbLine
10
115.951568004
20
-95.1589926245
11
132.288189652
21
-70.7095105239
0
LINE
5
106
100
AcDbEntity
8
0.1.32A24B-aimants-10mm
6
ByLayer
62
256
370
-1
100
AcDbLine
10
132.288189652
20
-70.7095105239
11
143.54105036
21
-43.5427015882
0
LINE
5
107
100
AcDbEntity
8
0.1.32A24B-aimants-10mm
6
ByLayer
62
256
370
-1
100
AcDbLine
10
143.54105036
20
-43.5427015882
11
149.277709001
21
-14.7025710494
0
LINE
5
108
100
AcDbEntity
8
0.1.32A24B-aimants-10mm
6
ByLayer
62
256
370
-1
100
AcDbLine
10
0
20
0
11
240
21
5.77437403448e-14
0
LINE
5
109
100
AcDbEntity
8
0.1.32A24B-aimants-10mm
6
ByLayer
62
256
370
-1
100
AcDbLine
10
279.951818248
20
-1.9627069731
11
200.048181752
21
1.9627069731
0
LINE
5
10A
100
AcDbEntity
8
0.1.32A24B-bobines-maxi
6
ByLayer
62
256
370
-1
100
AcDbLine
10
188.374523661
20
-24.7999765218
11
188.374523661
21
24.7999765218
0
LINE
5
10B
100
AcDbEntity
8
0.1.32A24B-bobines-maxi
6
ByLayer
62
256
370
-1
100
AcDbLine
10
188.374523661
20
24.7999765218
11
175.537111177
21
72.7098521494
0
LINE
5
10C
100
AcDbEntity
8
0.1.32A24B-bobines-maxi
6
ByLayer
62
256
370
-1
100
AcDbLine
10
175.537111177
20
72.7098521494
11
150.737134655
21
115.664671512
0
LINE
5
10D
100
AcDbEntity
8
0.1.32A24B-bobines-maxi
6
ByLayer
62
256
370
-1
100
AcDbLine
10
150.737134655
20
115.664671512
11
115.664671512
21
150.737134655
0
LINE
5
10E
100
AcDbEntity
8
0.1.32A24B-bobines-maxi
6
ByLayer
62
256
370
-1
100
AcDbLine
10
115.664671512
20
150.737134655
11
72.7098521494
21
175.537111177
0
LINE
5
10F
100
AcDbEntity
8
0.1.32A24B-bobines-maxi
6
ByLayer
62
256
370
-1
100
AcDbLine
10
72.7098521494
20
175.537111177
11
24.7999765218
21
188.374523661
0
LINE
5
110
100
AcDbEntity
8
0.1.32A24B-bobines-maxi
6
ByLayer
62
256
370
-1
100
AcDbLine
10
24.7999765218
20
188.374523661
11
-24.7999765218
21
188.374523661
0
LINE
5
111
100
AcDbEntity
8
0.1.32A24B-bobines-maxi
6
ByLayer
62
256
370
-1
100
AcDbLine
10
-24.7999765218
20
188.374523661
11
-72.7098521494
21
175.537111177
0
LINE
5
112
100
AcDbEntity
8
0.1.32A24B-bobines-maxi
6
ByLayer
62
256
370
-1
100
AcDbLine
10
-72.7098521494
20
175.537111177
11
-115.664671512
21
150.737134655
0
LINE
5
113
100
AcDbEntity
8
0.1.32A24B-bobines-maxi
6
ByLayer
62
256
370
-1
100
AcDbLine
10
-115.664671512
20
150.737134655
11
-150.737134655
21
115.664671512
0
LINE
5
114
100
AcDbEntity
8
0.1.32A24B-bobines-maxi
6
ByLayer
62
256
370
-1
100
AcDbLine
10
-150.737134655
20
115.664671512
11
-175.537111177
21
72.7098521494
0
LINE
5
115
100
AcDbEntity
8
0.1.32A24B-bobines-maxi
6
ByLayer
62
256
370
-1
100
AcDbLine
10
-175.537111177
20
72.7098521494
11
-188.374523661
21
24.7999765218
0
LINE
5
116
100
AcDbEntity
8
0.1.32A24B-bobines-maxi
6
ByLayer
62
256
370
-1
100
AcDbLine
10
-188.374523661
20
24.7999765218
11
-188.374523661
21
-24.7999765218
0
LINE
5
117
100
AcDbEntity
8
0.1.32A24B-bobines-maxi
6
ByLayer
62
256
370
-1
100
AcDbLine
10
-188.374523661
20
-24.7999765218
11
-175.537111177
21
-72.7098521494
0
LINE
5
118
100
AcDbEntity
8
0.1.32A24B-bobines-maxi
6
ByLayer
62
256
370
-1
100
AcDbLine
10
-175.537111177
20
-72.7098521494
11
-150.737134655
21
-115.664671512
0
LINE
5
119
100
AcDbEntity
8
0.1.32A24B-bobines-maxi
6
ByLayer
62
256
370
-1
100
AcDbLine
10
-150.737134655
20
-115.664671512
11
-115.664671512
21
-150.737134655
0
LINE
5
11A
100
AcDbEntity
8
0.1.32A24B-bobines-maxi
6
ByLayer
62
256
370
-1
100
AcDbLine
10
-115.664671512
20
-150.737134655
11
-72.7098521494
21
-175.537111177
0
LINE
5
11B
100
AcDbEntity
8
0.1.32A24B-bobines-maxi
6
ByLayer
62
256
370
-1
100
AcDbLine
10
-72.7098521494
20
-175.537111177
11
-24.7999765218
21
-188.374523661
0
LINE
5
11C
100
AcDbEntity
8
0.1.32A24B-bobines-maxi
6
ByLayer
62
256
370
-1
100
AcDbLine
10
-24.7999765218
20
-188.374523661
11
24.7999765218
21
-188.374523661
0
LINE
5
11D
100
AcDbEntity
8
0.1.32A24B-bobines-maxi
6
ByLayer
62
256
370
-1
100
AcDbLine
10
24.7999765218
20
-188.374523661
11
72.7098521494
21
-175.537111177
0
LINE
5
11E
100
AcDbEntity
8
0.1.32A24B-bobines-maxi
6
ByLayer
62
256
370
-1
100
AcDbLine
10
72.7098521494
20
-175.537111177
11
115.664671512
21
-150.737134655
0
LINE
5
11F
100
AcDbEntity
8
0.1.32A24B-bobines-maxi
6
ByLayer
62
256
370
-1
100
AcDbLine
10
115.664671512
20
-150.737134655
11
150.737134655
21
-115.664671512
0
LINE
5
120
100
AcDbEntity
8
0.1.32A24B-bobines-maxi
6
ByLayer
62
256
370
-1
100
AcDbLine
10
150.737134655
20
-115.664671512
11
175.537111177
21
-72.7098521494
0
LINE
5
121
100
AcDbEntity
8
0.1.32A24B-bobines-maxi
6
ByLayer
62
256
370
-1
100
AcDbLine
10
175.537111177
20
-72.7098521494
11
188.374523661
21
-24.7999765218
0
LINE
5
122
100
AcDbEntity
8
0.1.32A24B-bobines-maxi
6
ByLayer
62
256
370
-1
100
AcDbLine
10
138.802280592
20
-18.2736669108
11
138.802280592
21
18.2736669108
0
LINE
5
123
100
AcDbEntity
8
0.1.32A24B-bobines-maxi
6
ByLayer
62
256
370
-1
100
AcDbLine
10
138.802280592
20
18.2736669108
11
129.343134552
21
53.5756805311
0
LINE
5
124
100
AcDbEntity
8
0.1.32A24B-bobines-maxi
6
ByLayer
62
256
370
-1
100
AcDbLine
10
129.343134552
20
53.5756805311
11
111.069467641
21
85.2266000612
0
LINE
5
125
100
AcDbEntity
8
0.1.32A24B-bobines-maxi
6
ByLayer
62
256
370
-1
100
AcDbLine
10
111.069467641
20
85.2266000612
11
85.2266000612
21
111.069467641
0
LINE
5
126
100
AcDbEntity
8
0.1.32A24B-bobines-maxi
6
ByLayer
62
256
370
-1
100
AcDbLine
10
85.2266000612
20
111.069467641
11
53.5756805311
21
129.343134552
0
LINE
5
127
100
AcDbEntity
8
0.1.32A24B-bobines-maxi
6
ByLayer
62
256
370
-1
100
AcDbLine
10
53.5756805311
20
129.343134552
11
18.2736669108
21
138.802280592
0
LINE
5
128
100
AcDbEntity
8
0.1.32A24B-bobines-maxi
6
ByLayer
62
256
370
-1
100
AcDbLine
10
18.2736669108
20
138.802280592
11
-18.2736669108
21
138.802280592
0
LINE
5
129
100
AcDbEntity
8
0.1.32A24B-bobines-maxi
6
ByLayer
62
256
370
-1
100
AcDbLine
10
-18.2736669108
20
138.802280592
11
-53.5756805311
21
129.343134552
0
LINE
5
12A
100
AcDbEntity
8
0.1.32A24B-bobines-maxi
6
ByLayer
62
256
370
-1
100
AcDbLine
10
-53.5756805311
20
129.343134552
11
-85.2266000612
21
111.069467641
0
LINE
5
12B
100
AcDbEntity
8
0.1.32A24B-bobines-maxi
6
ByLayer
62
256
370
-1
100
AcDbLine
10
-85.2266000612
20
111.069467641
11
-111.069467641
21
85.2266000612
0
LINE
5
12C
100
AcDbEntity
8
0.1.32A24B-bobines-maxi
6
ByLayer
62
256
370
-1
100
AcDbLine
10
-111.069467641
20
85.2266000612
11
-129.343134552
21
53.5756805311
0
LINE
5
12D
100
AcDbEntity
8
0.1.32A24B-bobines-maxi
6
ByLayer
62
256
370
-1
100
AcDbLine
10
-129.343134552
20
53.5756805311
11
-138.802280592
21
18.2736669108
0
LINE
5
12E
100
AcDbEntity
8
0.1.32A24B-bobines-maxi
6
ByLayer
62
256
370
-1
100
AcDbLine
10
-138.802280592
20
18.2736669108
11
-138.802280592
21
-18.2736669108
0
LINE
5
12F
100
AcDbEntity
8
0.1.32A24B-bobines-maxi
6
ByLayer
62
256
370
-1
100
AcDbLine
10
-138.802280592
20
-18.2736669108
11
-129.343134552
21
-53.5756805311
0
LINE
5
130
100
AcDbEntity
8
0.1.32A24B-bobines-maxi
6
ByLayer
62
256
370
-1
100
AcDbLine
10
-129.343134552
20
-53.5756805311
11
-111.069467641
21
-85.2266000612
0
LINE
5
131
100
AcDbEntity
8
0.1.32A24B-bobines-maxi
6
ByLayer
62
256
370
-1
100
AcDbLine
10
-111.069467641
20
-85.2266000612
11
-85.2266000612
21
-111.069467641
0
LINE
5
132
100
AcDbEntity
8
0.1.32A24B-bobines-maxi
6
ByLayer
62
256
370
-1
100
AcDbLine
10
-85.2266000612
20
-111.069467641
11
-53.5756805311
21
-129.343134552
0
LINE
5
133
100
AcDbEntity
8
0.1.32A24B-bobines-maxi
6
ByLayer
62
256
370
-1
100
AcDbLine
10
-53.5756805311
20
-129.343134552
11
-18.2736669108
21
-138.802280592
0
LINE
5
134
100
AcDbEntity
8
0.1.32A24B-bobines-maxi
6
ByLayer
62
256
370
-1
100
AcDbLine
10
-18.2736669108
20
-138.802280592
11
18.2736669108
21
-138.802280592
0
LINE
5
135
100
AcDbEntity
8
0.1.32A24B-bobines-maxi
6
ByLayer
62
256
370
-1
100
AcDbLine
10
18.2736669108
20
-138.802280592
11
53.5756805311
21
-129.343134552
0
LINE
5
136
100
AcDbEntity
8
0.1.32A24B-bobines-maxi
6
ByLayer
62
256
370
-1
100
AcDbLine
10
53.5756805311
20
-129.343134552
11
85.2266000612
21
-111.069467641
0
LINE
5
137
100
AcDbEntity
8
0.1.32A24B-bobines-maxi
6
ByLayer
62
256
370
-1
100
AcDbLine
10
85.2266000612
20
-111.069467641
11
111.069467641
21
-85.2266000612
0
LINE
5
138
100
AcDbEntity
8
0.1.32A24B-bobines-maxi
6
ByLayer
62
256
370
-1
100
AcDbLine
10
111.069467641
20
-85.2266000612
11
129.343134552
21
-53.5756805311
0
LINE
5
139
100
AcDbEntity
8
0.1.32A24B-bobines-maxi
6
ByLayer
62
256
370
-1
100
AcDbLine
10
129.343134552
20
-53.5756805311
11
138.802280592
21
-18.2736669108
0
LINE
5
13A
100
AcDbEntity
8
0.1.32A24B-bobines-maxi
6
ByLayer
62
256
370
-1
100
AcDbLine
10
237.94676673
20
-31.3262861328
11
240
21
1.15879528195e-15
0
LINE
5
13B
100
AcDbEntity
8
0.1.32A24B-bobines-maxi
6
ByLayer
62
256
370
-1
100
AcDbLine
10
240
20
1.15879528195e-15
11
237.94676673
21
31.3262861328
0
LINE
5
13C
100
AcDbEntity
8
0.1.32A24B-bobines-maxi
6
ByLayer
62
256
370
-1
100
AcDbLine
10
237.94676673
20
31.3262861328
11
231.822198309
21
62.1165708246
0
LINE
5
13D
100
AcDbEntity
8
0.1.32A24B-bobines-maxi
6
ByLayer
62
256
370
-1
100
AcDbLine
10
231.822198309
20
62.1165708246
11
221.731087803
21
91.8440237676
0
LINE
5
13E
100
AcDbEntity
8
0.1.32A24B-bobines-maxi
6
ByLayer
62
256
370
-1
100
AcDbLine
10
221.731087803
20
91.8440237676
11
207.846096908
21
120
0
LINE
5
13F
100
AcDbEntity
8
0.1.32A24B-bobines-maxi
6
ByLayer
62
256
370
-1
100
AcDbLine
10
207.846096908
20
120
11
190.40480167
21
146.102742962
0
LINE
5
140
100
AcDbEntity
8
0.1.32A24B-bobines-maxi
6
ByLayer
62
256
370
-1
100
AcDbLine
10
190.40480167
20
146.102742962
11
169.705627485
21
169.705627485
0
LINE
5
141
100
AcDbEntity
8
0.1.32A24B-bobines-maxi
6
ByLayer
62
256
370
-1
100
AcDbLine
10
169.705627485
20
169.705627485
11
146.102742962
21
190.40480167
0
LINE
5
142
100
AcDbEntity
8
0.1.32A24B-bobines-maxi
6
ByLayer
62
256
370
-1
100
AcDbLine
10
146.102742962
20
190.40480167
11
120
21
207.846096908
0
LINE
5
143
100
AcDbEntity
8
0.1.32A24B-bobines-maxi
6
ByLayer
62
256
370
-1
100
AcDbLine
10
120
20
207.846096908
11
91.8440237676
21
221.731087803
0
LINE
5
144
100
AcDbEntity
8
0.1.32A24B-bobines-maxi
6
ByLayer
62
256
370
-1
100
AcDbLine
10
91.8440237676
20
221.731087803
11
62.1165708246
21
231.822198309
0
LINE
5
145
100
AcDbEntity
8
0.1.32A24B-bobines-maxi
6
ByLayer
62
256
370
-1
100
AcDbLine
10
62.1165708246
20
231.822198309
11
31.3262861328
21
237.94676673
0
LINE
5
146
100
AcDbEntity
8
0.1.32A24B-bobines-maxi
6
ByLayer
62
256
370
-1
100
AcDbLine
10
31.3262861328
20
237.94676673
11
4.07330419394e-14
21
240
0
LINE
5
147
100
AcDbEntity
8
0.1.32A24B-bobines-maxi
6
ByLayer
62
256
370
-1
100
AcDbLine
10
4.07330419394e-14
20
240
11
-31.3262861328
21
237.94676673
0
LINE
5
148
100
AcDbEntity
8
0.1.32A24B-bobines-maxi
6
ByLayer
62
256
370
-1
100
AcDbLine
10
-31.3262861328
20
237.94676673
11
-62.1165708246
21
231.822198309
0
LINE
5
149
100
AcDbEntity
8
0.1.32A24B-bobines-maxi
6
ByLayer
62
256
370
-1
100
AcDbLine
10
-62.1165708246
20
231.822198309
11
-91.8440237676
21
221.731087803
0
LINE
5
14A
100
AcDbEntity
8
0.1.32A24B-bobines-maxi
6
ByLayer
62
256
370
-1
100
AcDbLine
10
-91.8440237676
20
221.731087803
11
-120
21
207.846096908
0
LINE
5
14B
100
AcDbEntity
8
0.1.32A24B-bobines-maxi
6
ByLayer
62
256
370
-1
100
AcDbLine
10
-120
20
207.846096908
11
-146.102742962
21
190.40480167
0
LINE
5
14C
100
AcDbEntity
8
0.1.32A24B-bobines-maxi
6
ByLayer
62
256
370
-1
100
AcDbLine
10
-146.102742962
20
190.40480167
11
-169.705627485
21
169.705627485
0
LINE
5
14D
100
AcDbEntity
8
0.1.32A24B-bobines-maxi
6
ByLayer
62
256
370
-1
100
AcDbLine
10
-169.705627485
20
169.705627485
11
-190.40480167
21
146.102742962
0
LINE
5
14E
100
AcDbEntity
8
0.1.32A24B-bobines-maxi
6
ByLayer
62
256
370
-1
100
AcDbLine
10
-190.40480167
20
146.102742962
11
-207.846096908
21
120
0
LINE
5
14F
100
AcDbEntity
8
0.1.32A24B-bobines-maxi
6
ByLayer
62
256
370
-1
100
AcDbLine
10
-207.846096908
20
120
11
-221.731087803
21
91.8440237676
0
LINE
5
150
100
AcDbEntity
8
0.1.32A24B-bobines-maxi
6
ByLayer
62
256
370
-1
100
AcDbLine
10
-221.731087803
20
91.8440237676
11
-231.822198309
21
62.1165708246
0
LINE
5
151
100
AcDbEntity
8
0.1.32A24B-bobines-maxi
6
ByLayer
62
256
370
-1
100
AcDbLine
10
-231.822198309
20
62.1165708246
11
-237.94676673
21
31.3262861328
0
LINE
5
152
100
AcDbEntity
8
0.1.32A24B-bobines-maxi
6
ByLayer
62
256
370
-1
100
AcDbLine
10
-237.94676673
20
31.3262861328
11
-240
21
6.44519160264e-14
0
LINE
5
153
100
AcDbEntity
8
0.1.32A24B-bobines-maxi
6
ByLayer
62
256
370
-1
100
AcDbLine
10
-240
20
6.44519160264e-14
11
-237.94676673
21
-31.3262861328
0
LINE
5
154
100
AcDbEntity
8
0.1.32A24B-bobines-maxi
6
ByLayer
62
256
370
-1
100
AcDbLine
10
-237.94676673
20
-31.3262861328
11
-231.822198309
21
-62.1165708246
0
LINE
5
155
100
AcDbEntity
8
0.1.32A24B-bobines-maxi
6
ByLayer
62
256
370
-1
100
AcDbLine
10
-231.822198309
20
-62.1165708246
11
-221.731087803
21
-91.8440237676
0
LINE
5
156
100
AcDbEntity
8
0.1.32A24B-bobines-maxi
6
ByLayer
62
256
370
-1
100
AcDbLine
10
-221.731087803
20
-91.8440237676
11
-207.846096908
21
-120
0
LINE
5
157
100
AcDbEntity
8
0.1.32A24B-bobines-maxi
6
ByLayer
62
256
370
-1
100
AcDbLine
10
-207.846096908
20
-120
11
-190.40480167
21
-146.102742962
0
LINE
5
158
100
AcDbEntity
8
0.1.32A24B-bobines-maxi
6
ByLayer
62
256
370
-1
100
AcDbLine
10
-190.40480167
20
-146.102742962
11
-169.705627485
21
-169.705627485
0
LINE
5
159
100
AcDbEntity
8
0.1.32A24B-bobines-maxi
6
ByLayer
62
256
370
-1
100
AcDbLine
10
-169.705627485
20
-169.705627485
11
-146.102742962
21
-190.40480167
0
LINE
5
15A
100
AcDbEntity
8
0.1.32A24B-bobines-maxi
6
ByLayer
62
256
370
-1
100
AcDbLine
10
-146.102742962
20
-190.40480167
11
-120
21
-207.846096908
0
LINE
5
15B
100
AcDbEntity
8
0.1.32A24B-bobines-maxi
6
ByLayer
62
256
370
-1
100
AcDbLine
10
-120
20
-207.846096908
11
-91.8440237676
21
-221.731087803
0
LINE
5
15C
100
AcDbEntity
8
0.1.32A24B-bobines-maxi
6
ByLayer
62
256
370
-1
100
AcDbLine
10
-91.8440237676
20
-221.731087803
11
-62.1165708246
21
-231.822198309
0
LINE
5
15D
100
AcDbEntity
8
0.1.32A24B-bobines-maxi
6
ByLayer
62
256
370
-1
100
AcDbLine
10
-62.1165708246
20
-231.822198309
11
-31.3262861328
21
-237.94676673
0
LINE
5
15E
100
AcDbEntity
8
0.1.32A24B-bobines-maxi
6
ByLayer
62
256
370
-1
100
AcDbLine
10
-31.3262861328
20
-237.94676673
11
-1.27479624079e-13
21
-240
0
LINE
5
15F
100
AcDbEntity
8
0.1.32A24B-bobines-maxi
6
ByLayer
62
256
370
-1
100
AcDbLine
10
-1.27479624079e-13
20
-240
11
31.3262861328
21
-237.94676673
0
LINE
5
160
100
AcDbEntity
8
0.1.32A24B-bobines-maxi
6
ByLayer
62
256
370
-1
100
AcDbLine
10
31.3262861328
20
-237.94676673
11
62.1165708246
21
-231.822198309
0
LINE
5
161
100
AcDbEntity
8
0.1.32A24B-bobines-maxi
6
ByLayer
62
256
370
-1
100
AcDbLine
10
62.1165708246
20
-231.822198309
11
91.8440237676
21
-221.731087803
0
LINE
5
162
100
AcDbEntity
8
0.1.32A24B-bobines-maxi
6
ByLayer
62
256
370
-1
100
AcDbLine
10
91.8440237676
20
-221.731087803
11
120
21
-207.846096908
0
LINE
5
163
100
AcDbEntity
8
0.1.32A24B-bobines-maxi
6
ByLayer
62
256
370
-1
100
AcDbLine
10
120
20
-207.846096908
11
146.102742962
21
-190.40480167
0
LINE
5
164
100
AcDbEntity
8
0.1.32A24B-bobines-maxi
6
ByLayer
62
256
370
-1
100
AcDbLine
10
146.102742962
20
-190.40480167
11
169.705627485
21
-169.705627485
0
LINE
5
165
100
AcDbEntity
8
0.1.32A24B-bobines-maxi
6
ByLayer
62
256
370
-1
100
AcDbLine
10
169.705627485
20
-169.705627485
11
190.40480167
21
-146.102742962
0
LINE
5
166
100
AcDbEntity
8
0.1.32A24B-bobines-maxi
6
ByLayer
62
256
370
-1
100
AcDbLine
10
190.40480167
20
-146.102742962
11
207.846096908
21
-120
0
LINE
5
167
100
AcDbEntity
8
0.1.32A24B-bobines-maxi
6
ByLayer
62
256
370
-1
100
AcDbLine
10
207.846096908
20
-120
11
221.731087803
21
-91.8440237676
0
LINE
5
168
100
AcDbEntity
8
0.1.32A24B-bobines-maxi
6
ByLayer
62
256
370
-1
100
AcDbLine
10
221.731087803
20
-91.8440237676
11
231.822198309
21
-62.1165708246
0
LINE
5
169
100
AcDbEntity
8
0.1.32A24B-bobines-maxi
6
ByLayer
62
256
370
-1
100
AcDbLine
10
231.822198309
20
-62.1165708246
11
237.94676673
21
-31.3262861328
0
LINE
5
16A
100
AcDbEntity
8
0.1.32A24B-bobines-maxi
6
ByLayer
62
256
370
-1
100
AcDbLine
10
279.91435693
20
-2.61612516921
11
200.08564307
21
2.61612516921
0
LINE
5
16B
100
AcDbEntity
8
0.1.32A24B-bobines-maxi
6
ByLayer
62
256
370
-1
100
AcDbLine
10
0
20
0
11
240
21
4.68201866166e-15
0
LINE
5
16C
100
AcDbEntity
8
0.1.32A24B-bobines-maxi
6
ByLayer
62
256
370
-1
100
AcDbLine
10
178.460075047
20
-23.4947145996
11
178.460075047
21
23.4947145996
0
LINE
5
16D
100
AcDbEntity
8
0.1.32A24B-bobines-maxi
6
ByLayer
62
256
370
-1
100
AcDbLine
10
178.460075047
20
23.4947145996
11
166.298315852
21
68.8830178257
0
LINE
5
16E
100
AcDbEntity
8
0.1.32A24B-bobines-maxi
6
ByLayer
62
256
370
-1
100
AcDbLine
10
166.298315852
20
68.8830178257
11
142.803601252
21
109.577057222
0
LINE
5
16F
100
AcDbEntity
8
0.1.32A24B-bobines-maxi
6
ByLayer
62
256
370
-1
100
AcDbLine
10
142.803601252
20
109.577057222
11
109.577057222
21
142.803601252
0
LINE
5
170
100
AcDbEntity
8
0.1.32A24B-bobines-maxi
6
ByLayer
62
256
370
-1
100
AcDbLine
10
109.577057222
20
142.803601252
11
68.8830178257
21
166.298315852
0
LINE
5
171
100
AcDbEntity
8
0.1.32A24B-bobines-maxi
6
ByLayer
62
256
370
-1
100
AcDbLine
10
68.8830178257
20
166.298315852
11
23.4947145996
21
178.460075047
0
LINE
5
172
100
AcDbEntity
8
0.1.32A24B-bobines-maxi
6
ByLayer
62
256
370
-1
100
AcDbLine
10
23.4947145996
20
178.460075047
11
-23.4947145996
21
178.460075047
0
LINE
5
173
100
AcDbEntity
8
0.1.32A24B-bobines-maxi
6
ByLayer
62
256
370
-1
100
AcDbLine
10
-23.4947145996
20
178.460075047
11
-68.8830178257
21
166.298315852
0
LINE
5
174
100
AcDbEntity
8
0.1.32A24B-bobines-maxi
6
ByLayer
62
256
370
-1
100
AcDbLine
10
-68.8830178257
20
166.298315852
11
-109.577057222
21
142.803601252
0
LINE
5
175
100
AcDbEntity
8
0.1.32A24B-bobines-maxi
6
ByLayer
62
256
370
-1
100
AcDbLine
10
-109.577057222
20
142.803601252
11
-142.803601252
21
109.577057222
0
LINE
5
176
100
AcDbEntity
8
0.1.32A24B-bobines-maxi
6
ByLayer
62
256
370
-1
100
AcDbLine
10
-142.803601252
20
109.577057222
11
-166.298315852
21
68.8830178257
0
LINE
5
177
100
AcDbEntity
8
0.1.32A24B-bobines-maxi
6
ByLayer
62
256
370
-1
100
AcDbLine
10
-166.298315852
20
68.8830178257
11
-178.460075047
21
23.4947145996
0
LINE
5
178
100
AcDbEntity
8
0.1.32A24B-bobines-maxi
6
ByLayer
62
256
370
-1
100
AcDbLine
10
-178.460075047
20
23.4947145996
11
-178.460075047
21
-23.4947145996
0
LINE
5
179
100
AcDbEntity
8
0.1.32A24B-bobines-maxi
6
ByLayer
62
256
370
-1
100
AcDbLine
10
-178.460075047
20
-23.4947145996
11
-166.298315852
21
-68.8830178257
0
LINE
5
17A
100
AcDbEntity
8
0.1.32A24B-bobines-maxi
6
ByLayer
62
256
370
-1
100
AcDbLine
10
-166.298315852
20
-68.8830178257
11
-142.803601252
21
-109.577057222
0
LINE
5
17B
100
AcDbEntity
8
0.1.32A24B-bobines-maxi
6
ByLayer
62
256
370
-1
100
AcDbLine
10
-142.803601252
20
-109.577057222
11
-109.577057222
21
-142.803601252
0
LINE
5
17C
100
AcDbEntity
8
0.1.32A24B-bobines-maxi
6
ByLayer
62
256
370
-1
100
AcDbLine
10
-109.577057222
20
-142.803601252
11
-68.8830178257
21
-166.298315852
0
LINE
5
17D
100
AcDbEntity
8
0.1.32A24B-bobines-maxi
6
ByLayer
62
256
370
-1
100
AcDbLine
10
-68.8830178257
20
-166.298315852
11
-23.4947145996
21
-178.460075047
0
LINE
5
17E
100
AcDbEntity
8
0.1.32A24B-bobines-maxi
6
ByLayer
62
256
370
-1
100
AcDbLine
10
-23.4947145996
20
-178.460075047
11
23.4947145996
21
-178.460075047
0
LINE
5
17F
100
AcDbEntity
8
0.1.32A24B-bobines-maxi
6
ByLayer
62
256
370
-1
100
AcDbLine
10
23.4947145996
20
-178.460075047
11
68.8830178257
21
-166.298315852
0
LINE
5
180
100
AcDbEntity
8
0.1.32A24B-bobines-maxi
6
ByLayer
62
256
370
-1
100
AcDbLine
10
68.8830178257
20
-166.298315852
11
109.577057222
21
-142.803601252
0
LINE
5
181
100
AcDbEntity
8
0.1.32A24B-bobines-maxi
6
ByLayer
62
256
370
-1
100
AcDbLine
10
109.577057222
20
-142.803601252
11
142.803601252
21
-109.577057222
0
LINE
5
182
100
AcDbEntity
8
0.1.32A24B-bobines-maxi
6
ByLayer
62
256
370
-1
100
AcDbLine
10
142.803601252
20
-109.577057222
11
166.298315852
21
-68.8830178257
0
LINE
5
183
100
AcDbEntity
8
0.1.32A24B-bobines-maxi
6
ByLayer
62
256
370
-1
100
AcDbLine
10
166.298315852
20
-68.8830178257
11
178.460075047
21
-23.4947145996
0
LINE
5
184
100
AcDbEntity
8
0.1.32A24B-bobines-maxi
6
ByLayer
62
256
370
-1
100
AcDbLine
10
168.545626434
20
-22.1894526774
11
168.545626434
21
22.1894526774
0
LINE
5
185
100
AcDbEntity
8
0.1.32A24B-bobines-maxi
6
ByLayer
62
256
370
-1
100
AcDbLine
10
168.545626434
20
22.1894526774
11
157.059520527
21
65.0561835021
0
LINE
5
186
100
AcDbEntity
8
0.1.32A24B-bobines-maxi
6
ByLayer
62
256
370
-1
100
AcDbLine
10
157.059520527
20
65.0561835021
11
134.87006785
21
103.489442931
0
LINE
5
187
100
AcDbEntity
8
0.1.32A24B-bobines-maxi
6
ByLayer
62
256
370
-1
100
AcDbLine
10
134.87006785
20
103.489442931
11
103.489442931
21
134.87006785
0
LINE
5
188
100
AcDbEntity
8
0.1.32A24B-bobines-maxi
6
ByLayer
62
256
370
-1
100
AcDbLine
10
103.489442931
20
134.87006785
11
65.0561835021
21
157.059520527
0
LINE
5
189
100
AcDbEntity
8
0.1.32A24B-bobines-maxi
6
ByLayer
62
256
370
-1
100
AcDbLine
10
65.0561835021
20
157.059520527
11
22.1894526774
21
168.545626434
0
LINE
5
18A
100
AcDbEntity
8
0.1.32A24B-bobines-maxi
6
ByLayer
62
256
370
-1
100
AcDbLine
10
22.1894526774
20
168.545626434
11
-22.1894526774
21
168.545626434
0
LINE
5
18B
100
AcDbEntity
8
0.1.32A24B-bobines-maxi
6
ByLayer
62
256
370
-1
100
AcDbLine
10
-22.1894526774
20
168.545626434
11
-65.0561835021
21
157.059520527
0
LINE
5
18C
100
AcDbEntity
8
0.1.32A24B-bobines-maxi
6
ByLayer
62
256
370
-1
100
AcDbLine
10
-65.0561835021
20
157.059520527
11
-103.489442931
21
134.87006785
0
LINE
5
18D
100
AcDbEntity
8
0.1.32A24B-bobines-maxi
6
ByLayer
62
256
370
-1
100
AcDbLine
10
-103.489442931
20
134.87006785
11
-134.87006785
21
103.489442931
0
LINE
5
18E
100
AcDbEntity
8
0.1.32A24B-bobines-maxi
6
ByLayer
62
256
370
-1
100
AcDbLine
10
-134.87006785
20
103.489442931
11
-157.059520527
21
65.0561835021
0
LINE
5
18F
100
AcDbEntity
8
0.1.32A24B-bobines-maxi
6
ByLayer
62
256
370
-1
100
AcDbLine
10
-157.059520527
20
65.0561835021
11
-168.545626434
21
22.1894526774
0
LINE
5
190
100
AcDbEntity
8
0.1.32A24B-bobines-maxi
6
ByLayer
62
256
370
-1
100
AcDbLine
10
-168.545626434
20
22.1894526774
11
-168.545626434
21
-22.1894526774
0
LINE
5
191
100
AcDbEntity
8
0.1.32A24B-bobines-maxi
6
ByLayer
62
256
370
-1
100
AcDbLine
10
-168.545626434
20
-22.1894526774
11
-157.059520527
21
-65.0561835021
0
LINE
5
192
100
AcDbEntity
8
0.1.32A24B-bobines-maxi
6
ByLayer
62
256
370
-1
100
AcDbLine
10
-157.059520527
20
-65.0561835021
11
-134.87006785
21
-103.489442931
0
LINE
5
193
100
AcDbEntity
8
0.1.32A24B-bobines-maxi
6
ByLayer
62
256
370
-1
100
AcDbLine
10
-134.87006785
20
-103.489442931
11
-103.489442931
21
-134.87006785
0
LINE
5
194
100
AcDbEntity
8
0.1.32A24B-bobines-maxi
6
ByLayer
62
256
370
-1
100
AcDbLine
10
-103.489442931
20
-134.87006785
11
-65.0561835021
21
-157.059520527
0
LINE
5
195
100
AcDbEntity
8
0.1.32A24B-bobines-maxi
6
ByLayer
62
256
370
-1
100
AcDbLine
10
-65.0561835021
20
-157.059520527
11
-22.1894526774
21
-168.545626434
0
LINE
5
196
100
AcDbEntity
8
0.1.32A24B-bobines-maxi
6
ByLayer
62
256
370
-1
100
AcDbLine
10
-22.1894526774
20
-168.545626434
11
22.1894526774
21
-168.545626434
0
LINE
5
197
100
AcDbEntity
8
0.1.32A24B-bobines-maxi
6
ByLayer
62
256
370
-1
100
AcDbLine
10
22.1894526774
20
-168.545626434
11
65.0561835021
21
-157.059520527
0
LINE
5
198
100
AcDbEntity
8
0.1.32A24B-bobines-maxi
6
ByLayer
62
256
370
-1
100
AcDbLine
10
65.0561835021
20
-157.059520527
11
103.489442931
21
-134.87006785
0
LINE
5
199
100
AcDbEntity
8
0.1.32A24B-bobines-maxi
6
ByLayer
62
256
370
-1
100
AcDbLine
10
103.489442931
20
-134.87006785
11
134.87006785
21
-103.489442931
0
LINE
5
19A
100
AcDbEntity
8
0.1.32A24B-bobines-maxi
6
ByLayer
62
256
370
-1
100
AcDbLine
10
134.87006785
20
-103.489442931
11
157.059520527
21
-65.0561835021
0
LINE
5
19B
100
AcDbEntity
8
0.1.32A24B-bobines-maxi
6
ByLayer
62
256
370
-1
100
AcDbLine
10
157.059520527
20
-65.0561835021
11
168.545626434
21
-22.1894526774
0
LINE
5
19C
100
AcDbEntity
8
0.1.32A24B-bobines-maxi
6
ByLayer
62
256
370
-1
100
AcDbLine
10
158.63117782
20
-20.8841907552
11
158.63117782
21
20.8841907552
0
LINE
5
19D
100
AcDbEntity
8
0.1.32A24B-bobines-maxi
6
ByLayer
62
256
370
-1
100
AcDbLine
10
158.63117782
20
20.8841907552
11
147.820725202
21
61.2293491784
0
LINE
5
19E
100
AcDbEntity
8
0.1.32A24B-bobines-maxi
6
ByLayer
62
256
370
-1
100
AcDbLine
10
147.820725202
20
61.2293491784
11
126.936534447
21
97.4018286414
0
LINE
5
19F
100
AcDbEntity
8
0.1.32A24B-bobines-maxi
6
ByLayer
62
256
370
-1
100
AcDbLine
10
126.936534447
20
97.4018286414
11
97.4018286414
21
126.936534447
0
LINE
5
1A0
100
AcDbEntity
8
0.1.32A24B-bobines-maxi
6
ByLayer
62
256
370
-1
100
AcDbLine
10
97.4018286414
20
126.936534447
11
61.2293491784
21
147.820725202
0
LINE
5
1A1
100
AcDbEntity
8
0.1.32A24B-bobines-maxi
6
ByLayer
62
256
370
-1
100
AcDbLine
10
61.2293491784
20
147.820725202
11
20.8841907552
21
158.63117782
0
LINE
5
1A2
100
AcDbEntity
8
0.1.32A24B-bobines-maxi
6
ByLayer
62
256
370
-1
100
AcDbLine
10
20.8841907552
20
158.63117782
11
-20.8841907552
21
158.63117782
0
LINE
5
1A3
100
AcDbEntity
8
0.1.32A24B-bobines-maxi
6
ByLayer
62
256
370
-1
100
AcDbLine
10
-20.8841907552
20
158.63117782
11
-61.2293491784
21
147.820725202
0
LINE
5
1A4
100
AcDbEntity
8
0.1.32A24B-bobines-maxi
6
ByLayer
62
256
370
-1
100
AcDbLine
10
-61.2293491784
20
147.820725202
11
-97.4018286414
21
126.936534447
0
LINE
5
1A5
100
AcDbEntity
8
0.1.32A24B-bobines-maxi
6
ByLayer
62
256
370
-1
100
AcDbLine
10
-97.4018286414
20
126.936534447
11
-126.936534447
21
97.4018286414
0
LINE
5
1A6
100
AcDbEntity
8
0.1.32A24B-bobines-maxi
6
ByLayer
62
256
370
-1
100
AcDbLine
10
-126.936534447
20
97.4018286414
11
-147.820725202
21
61.2293491784
0
LINE
5
1A7
100
AcDbEntity
8
0.1.32A24B-bobines-maxi
6
ByLayer
62
256
370
-1
100
AcDbLine
10
-147.820725202
20
61.2293491784
11
-158.63117782
21
20.8841907552
0
LINE
5
1A8
100
AcDbEntity
8
0.1.32A24B-bobines-maxi
6
ByLayer
62
256
370
-1
100
AcDbLine
10
-158.63117782
20
20.8841907552
11
-158.63117782
21
-20.8841907552
0
LINE
5
1A9
100
AcDbEntity
8
0.1.32A24B-bobines-maxi
6
ByLayer
62
256
370
-1
100
AcDbLine
10
-158.63117782
20
-20.8841907552
11
-147.820725202
21
-61.2293491784
0
LINE
5
1AA
100
AcDbEntity
8
0.1.32A24B-bobines-maxi
6
ByLayer
62
256
370
-1
100
AcDbLine
10
-147.820725202
20
-61.2293491784
11
-126.936534447
21
-97.4018286414
0
LINE
5
1AB
100
AcDbEntity
8
0.1.32A24B-bobines-maxi
6
ByLayer
62
256
370
-1
100
AcDbLine
10
-126.936534447
20
-97.4018286414
11
-97.4018286414
21
-126.936534447
0
LINE
5
1AC
100
AcDbEntity
8
0.1.32A24B-bobines-maxi
6
ByLayer
62
256
370
-1
100
AcDbLine
10
-97.4018286414
20
-126.936534447
11
-61.2293491784
21
-147.820725202
0
LINE
5
1AD
100
AcDbEntity
8
0.1.32A24B-bobines-maxi
6
ByLayer
62
256
370
-1
100
AcDbLine
10
-61.2293491784
20
-147.820725202
11
-20.8841907552
21
-158.63117782
0
LINE
5
1AE
100
AcDbEntity
8
0.1.32A24B-bobines-maxi
6
ByLayer
62
256
370
-1
100
AcDbLine
10
-20.8841907552
20
-158.63117782
11
20.8841907552
21
-158.63117782
0
LINE
5
1AF
100
AcDbEntity
8
0.1.32A24B-bobines-maxi
6
ByLayer
62
256
370
-1
100
AcDbLine
10
20.8841907552
20
-158.63117782
11
61.2293491784
21
-147.820725202
0
LINE
5
1B0
100
AcDbEntity
8
0.1.32A24B-bobines-maxi
6
ByLayer
62
256
370
-1
100
AcDbLine
10
61.2293491784
20
-147.820725202
11
97.4018286414
21
-126.936534447
0
LINE
5
1B1
100
AcDbEntity
8
0.1.32A24B-bobines-maxi
6
ByLayer
62
256
370
-1
100
AcDbLine
10
97.4018286414
20
-126.936534447
11
126.936534447
21
-97.4018286414
0
LINE
5
1B2
100
AcDbEntity
8
0.1.32A24B-bobines-maxi
6
ByLayer
62
256
370
-1
100
AcDbLine
10
126.936534447
20
-97.4018286414
11
147.820725202
21
-61.2293491784
0
LINE
5
1B3
100
AcDbEntity
8
0.1.32A24B-bobines-maxi
6
ByLayer
62
256
370
-1
100
AcDbLine
10
147.820725202
20
-61.2293491784
11
158.63117782
21
-20.8841907552
0
LINE
5
1B4
100
AcDbEntity
8
0.1.32A24B-bobines-maxi
6
ByLayer
62
256
370
-1
100
AcDbLine
10
148.716729206
20
-19.578928833
11
148.716729206
21
19.578928833
0
LINE
5
1B5
100
AcDbEntity
8
0.1.32A24B-bobines-maxi
6
ByLayer
62
256
370
-1
100
AcDbLine
10
148.716729206
20
19.578928833
11
138.581929877
21
57.4025148548
0
LINE
5
1B6
100
AcDbEntity
8
0.1.32A24B-bobines-maxi
6
ByLayer
62
256
370
-1
100
AcDbLine
10
138.581929877
20
57.4025148548
11
119.003001044
21
91.3142143513
0
LINE
5
1B7
100
AcDbEntity
8
0.1.32A24B-bobines-maxi
6
ByLayer
62
256
370
-1
100
AcDbLine
10
119.003001044
20
91.3142143513
11
91.3142143513
21
119.003001044
0
LINE
5
1B8
100
AcDbEntity
8
0.1.32A24B-bobines-maxi
6
ByLayer
62
256
370
-1
100
AcDbLine
10
91.3142143513
20
119.003001044
11
57.4025148548
21
138.581929877
0
LINE
5
1B9
100
AcDbEntity
8
0.1.32A24B-bobines-maxi
6
ByLayer
62
256
370
-1
100
AcDbLine
10
57.4025148548
20
138.581929877
11
19.578928833
21
148.716729206
0
LINE
5
1BA
100
AcDbEntity
8
0.1.32A24B-bobines-maxi
6
ByLayer
62
256
370
-1
100
AcDbLine
10
19.578928833
20
148.716729206
11
-19.578928833
21
148.716729206
0
LINE
5
1BB
100
AcDbEntity
8
0.1.32A24B-bobines-maxi
6
ByLayer
62
256
370
-1
100
AcDbLine
10
-19.578928833
20
148.716729206
11
-57.4025148548
21
138.581929877
0
LINE
5
1BC
100
AcDbEntity
8
0.1.32A24B-bobines-maxi
6
ByLayer
62
256
370
-1
100
AcDbLine
10
-57.4025148548
20
138.581929877
11
-91.3142143513
21
119.003001044
0
LINE
5
1BD
100
AcDbEntity
8
0.1.32A24B-bobines-maxi
6
ByLayer
62
256
370
-1
100
AcDbLine
10
-91.3142143513
20
119.003001044
11
-119.003001044
21
91.3142143513
0
LINE
5
1BE
100
AcDbEntity
8
0.1.32A24B-bobines-maxi
6
ByLayer
62
256
370
-1
100
AcDbLine
10
-119.003001044
20
91.3142143513
11
-138.581929877
21
57.4025148548
0
LINE
5
1BF
100
AcDbEntity
8
0.1.32A24B-bobines-maxi
6
ByLayer
62
256
370
-1
100
AcDbLine
10
-138.581929877
20
57.4025148548
11
-148.716729206
21
19.578928833
0
LINE
5
1C0
100
AcDbEntity
8
0.1.32A24B-bobines-maxi
6
ByLayer
62
256
370
-1
100
AcDbLine
10
-148.716729206
20
19.578928833
11
-148.716729206
21
-19.578928833
0
LINE
5
1C1
100
AcDbEntity
8
0.1.32A24B-bobines-maxi
6
ByLayer
62
256
370
-1
100
AcDbLine
10
-148.716729206
20
-19.578928833
11
-138.581929877
21
-57.4025148548
0
LINE
5
1C2
100
AcDbEntity
8
0.1.32A24B-bobines-maxi
6
ByLayer
62
256
370
-1
100
AcDbLine
10
-138.581929877
20
-57.4025148548
11
-119.003001044
21
-91.3142143513
0
LINE
5
1C3
100
AcDbEntity
8
0.1.32A24B-bobines-maxi
6
ByLayer
62
256
370
-1
100
AcDbLine
10
-119.003001044
20
-91.3142143513
11
-91.3142143513
21
-119.003001044
0
LINE
5
1C4
100
AcDbEntity
8
0.1.32A24B-bobines-maxi
6
ByLayer
62
256
370
-1
100
AcDbLine
10
-91.3142143513
20
-119.003001044
11
-57.4025148548
21
-138.581929877
0
LINE
5
1C5
100
AcDbEntity
8
0.1.32A24B-bobines-maxi
6
ByLayer
62
256
370
-1
100
AcDbLine
10
-57.4025148548
20
-138.581929877
11
-19.578928833
21
-148.716729206
0
LINE
5
1C6
100
AcDbEntity
8
0.1.32A24B-bobines-maxi
6
ByLayer
62
256
370
-1
100
AcDbLine
10
-19.578928833
20
-148.716729206
11
19.578928833
21
-148.716729206
0
LINE
5
1C7
100
AcDbEntity
8
0.1.32A24B-bobines-maxi
6
ByLayer
62
256
370
-1
100
AcDbLine
10
19.578928833
20
-148.716729206
11
57.4025148548
21
-138.581929877
0
LINE
5
1C8
100
AcDbEntity
8
0.1.32A24B-bobines-maxi
6
ByLayer
62
256
370
-1
100
AcDbLine
10
57.4025148548
20
-138.581929877
11
91.3142143513
21
-119.003001044
0
LINE
5
1C9
100
AcDbEntity
8
0.1.32A24B-bobines-maxi
6
ByLayer
62
256
370
-1
100
AcDbLine
10
91.3142143513
20
-119.003001044
11
119.003001044
21
-91.3142143513
0
LINE
5
1CA
100
AcDbEntity
8
0.1.32A24B-bobines-maxi
6
ByLayer
62
256
370
-1
100
AcDbLine
10
119.003001044
20
-91.3142143513
11
138.581929877
21
-57.4025148548
0
LINE
5
1CB
100
AcDbEntity
8
0.1.32A24B-bobines-maxi
6
ByLayer
62
256
370
-1
100
AcDbLine
10
138.581929877
20
-57.4025148548
11
148.716729206
21
-19.578928833
0
CIRCLE
5
1CC
100
AcDbEntity
8
0.1.32A24B-bobines-maxi
6
ByLayer
62
256
370
-1
100
AcDbCircle
10
168.545626434
20
2.72351585728e-15
40
22.1894526774
0
CIRCLE
5
1CD
100
AcDbEntity
8
0.1.32A24B-bobines-maxi
6
ByLayer
62
256
370
-1
100
AcDbCircle
10
162.80257348
20
43.6228180897
40
22.1894526774
0
CIRCLE
5
1CE
100
AcDbEntity
8
0.1.32A24B-bobines-maxi
6
ByLayer
62
256
370
-1
100
AcDbCircle
10
145.964794188
20
84.2728132168
40
22.1894526774
0
CIRCLE
5
1CF
100
AcDbEntity
8
0.1.32A24B-bobines-maxi
6
ByLayer
62
256
370
-1
100
AcDbCircle
10
119.17975539
20
119.17975539
40
22.1894526774
0
CIRCLE
5
1D0
100
AcDbEntity
8
0.1.32A24B-bobines-maxi
6
ByLayer
62
256
370
-1
100
AcDbCircle
10
84.2728132168
20
145.964794188
40
22.1894526774
0
CIRCLE
5
1D1
100
AcDbEntity
8
0.1.32A24B-bobines-maxi
6
ByLayer
62
256
370
-1
100
AcDbCircle
10
43.6228180897
20
162.80257348
40
22.1894526774
0
CIRCLE
5
1D2
100
AcDbEntity
8
0.1.32A24B-bobines-maxi
6
ByLayer
62
256
370
-1
100
AcDbCircle
10
7.84268483489e-15
20
168.545626434
40
22.1894526774
0
CIRCLE
5
1D3
100
AcDbEntity
8
0.1.32A24B-bobines-maxi
6
ByLayer
62
256
370
-1
100
AcDbCircle
10
-43.6228180897
20
162.80257348
40
22.1894526774
0
CIRCLE
5
1D4
100
AcDbEntity
8
0.1.32A24B-bobines-maxi
6
ByLayer
62
256
370
-1
100
AcDbCircle
10
-84.2728132168
20
145.964794188
40
22.1894526774
0
CIRCLE
5
1D5
100
AcDbEntity
8
0.1.32A24B-bobines-maxi
6
ByLayer
62
256
370
-1
100
AcDbCircle
10
-119.17975539
20
119.17975539
40
22.1894526774
0
CIRCLE
5
1D6
100
AcDbEntity
8
0.1.32A24B-bobines-maxi
6
ByLayer
62
256
370
-1
100
AcDbCircle
10
-145.964794188
20
84.2728132168
40
22.1894526774
0
CIRCLE
5
1D7
100
AcDbEntity
8
0.1.32A24B-bobines-maxi
6
ByLayer
62
256
370
-1
100
AcDbCircle
10
-162.80257348
20
43.6228180897
40
22.1894526774
0
CIRCLE
5
1D8
100
AcDbEntity
8
0.1.32A24B-bobines-maxi
6
ByLayer
62
256
370
-1
100
AcDbCircle
10
-168.545626434
20
1.84088855271e-14
40
22.1894526774
0
CIRCLE
5
1D9
100
AcDbEntity
8
0.1.32A24B-bobines-maxi
6
ByLayer
62
256
370
-1
100
AcDbCircle
10
-162.80257348
20
-43.6228180897
40
22.1894526774
0
CIRCLE
5
1DA
100
AcDbEntity
8
0.1.32A24B-bobines-maxi
6
ByLayer
62
256
370
-1
100
AcDbCircle
10
-145.964794188
20
-84.2728132168
40
22.1894526774
0
CIRCLE
5
1DB
100
AcDbEntity
8
0.1.32A24B-bobines-maxi
6
ByLayer
62
256
370
-1
100
AcDbCircle
10
-119.17975539
20
-119.17975539
40
22.1894526774
0
CIRCLE
5
1DC
100
AcDbEntity
8
0.1.32A24B-bobines-maxi
6
ByLayer
62
256
370
-1
100
AcDbCircle
10
-84.2728132168
20
-145.964794188
40
22.1894526774
0
CIRCLE
5
1DD
100
AcDbEntity
8
0.1.32A24B-bobines-maxi
6
ByLayer
62
256
370
-1
100
AcDbCircle
10
-43.6228180897
20
-162.80257348
40
22.1894526774
0
CIRCLE
5
1DE
100
AcDbEntity
8
0.1.32A24B-bobines-maxi
6
ByLayer
62
256
370
-1
100
AcDbCircle
10
-2.89768209427e-14
20
-168.545626434
40
22.1894526774
0
CIRCLE
5
1DF
100
AcDbEntity
8
0.1.32A24B-bobines-maxi
6
ByLayer
62
256
370
-1
100
AcDbCircle
10
43.6228180897
20
-162.80257348
40
22.1894526774
0
CIRCLE
5
1E0
100
AcDbEntity
8
0.1.32A24B-bobines-maxi
6
ByLayer
62
256
370
-1
100
AcDbCircle
10
84.2728132168
20
-145.964794188
40
22.1894526774
0
CIRCLE
5
1E1
100
AcDbEntity
8
0.1.32A24B-bobines-maxi
6
ByLayer
62
256
370
-1
100
AcDbCircle
10
119.17975539
20
-119.17975539
40
22.1894526774
0
CIRCLE
5
1E2
100
AcDbEntity
8
0.1.32A24B-bobines-maxi
6
ByLayer
62
256
370
-1
100
AcDbCircle
10
145.964794188
20
-84.2728132168
40
22.1894526774
0
CIRCLE
5
1E3
100
AcDbEntity
8
0.1.32A24B-bobines-maxi
6
ByLayer
62
256
370
-1
100
AcDbCircle
10
162.80257348
20
-43.6228180897
40
22.1894526774
0
ENDSEC
0
SECTION
2
OBJECTS
0
DICTIONARY
5
C
330
0
100
AcDbDictionary
281
1
3
ACAD_GROUP
350
D
0
DICTIONARY
5
D
330
C
100
AcDbDictionary
281
1
0
ENDSEC
0
EOF
