Principe 4nA - 3nB - 4nA
------------------------------------
disque haut: rotor avec (n)x4 aimants
disque milieu: stator (n)x3 bobines
disque bas: rotor avec (n)x4 aimants


Taille Maximale des aimants
