999
dxfrw 0.5.10
0
SECTION
2
HEADER
9
$ACADVER
1
AC1021
9
$HANDSEED
5
20000
9
$DWGCODEPAGE
3
ANSI_1252
9
$INSBASE
10
0
20
0
30
0
9
$EXTMIN
10
10000000000
20
10000000000
30
0
9
$EXTMAX
10
-10000000000
20
-10000000000
30
0
9
$LIMMIN
10
0
20
0
9
$LIMMAX
10
420
20
297
9
$ORTHOMODE
70
0
9
$LTSCALE
40
1
9
$TEXTSTYLE
7
STANDARD
9
$CLAYER
8
ROTOR-1-CercleExterne
9
$DIMASZ
40
2.5
9
$DIMLFAC
40
1
9
$DIMSCALE
40
1
9
$DIMEXO
40
0.625
9
$DIMEXE
40
1.25
9
$DIMTXT
40
2.5
9
$DIMTSZ
40
0
9
$DIMAUNIT
70
0
9
$DIMADEC
70
0
9
$DIMLUNIT
70
2
9
$DIMSTYLE
2
STANDARD
9
$DIMGAP
40
0.625
9
$DIMTIH
70
0
9
$LUNITS
70
2
9
$LUPREC
70
4
9
$AUNITS
70
0
9
$AUPREC
70
2
9
$SPLINESEGS
70
8
9
$GRIDMODE
70
1
9
$SNAPSTYLE
70
0
9
$PINSBASE
10
0
20
0
30
0
9
$PLIMMIN
10
0
20
0
9
$PLIMMAX
10
210
20
297
9
$INSUNITS
70
0
9
$PSVPSCALE
40
1
0
ENDSEC
0
SECTION
2
CLASSES
0
ENDSEC
0
SECTION
2
TABLES
0
TABLE
2
VPORT
5
8
330
0
100
AcDbSymbolTable
70
1
0
VPORT
5
31
330
2
100
AcDbSymbolTableRecord
100
AcDbViewportTableRecord
2
*ACTIVE
70
0
10
0
20
0
11
1
21
1
12
90.3319855712
22
33.1882709419
13
0
23
0
14
10
24
10
15
10
25
10
16
0
26
0
36
1
17
0
27
0
37
0
40
129.509117435
41
1.79768786127
42
50
43
0
44
0
50
0
51
0
71
0
72
100
73
1
74
3
75
0
76
1
77
0
78
0
281
0
65
1
110
0
120
0
130
0
111
1
121
0
131
0
112
0
122
1
132
0
79
0
146
0
348
10020
60
7
61
5
292
1
282
1
141
0
142
0
63
250
421
3358443
0
ENDTAB
0
TABLE
2
LTYPE
5
5
330
0
100
AcDbSymbolTable
70
4
0
LTYPE
5
14
330
5
100
AcDbSymbolTableRecord
100
AcDbLinetypeTableRecord
2
ByBlock
70
0
3

72
65
73
0
40
0
0
LTYPE
5
15
330
5
100
AcDbSymbolTableRecord
100
AcDbLinetypeTableRecord
2
ByLayer
70
0
3

72
65
73
0
40
0
0
LTYPE
5
16
330
5
100
AcDbSymbolTableRecord
100
AcDbLinetypeTableRecord
2
Continuous
70
0
3
Solid line
72
65
73
0
40
0
0
LTYPE
5
32
330
5
100
AcDbSymbolTableRecord
100
AcDbLinetypeTableRecord
2
DOT
70
0
3
Dot . . . . . . . . . . . . . . . . . . . . . .
72
65
73
2
40
6.35
49
0
74
0
49
-6.35
74
0
0
LTYPE
5
33
330
5
100
AcDbSymbolTableRecord
100
AcDbLinetypeTableRecord
2
DOT2
70
0
3
Dot (.5x) .....................................
72
65
73
2
40
3.175
49
0
74
0
49
-3.175
74
0
0
LTYPE
5
34
330
5
100
AcDbSymbolTableRecord
100
AcDbLinetypeTableRecord
2
DOTX2
70
0
3
Dot (2x) .  .  .  .  .  .  .  .  .  .  .  .  .
72
65
73
2
40
12.7
49
0
74
0
49
-12.7
74
0
0
LTYPE
5
35
330
5
100
AcDbSymbolTableRecord
100
AcDbLinetypeTableRecord
2
DASHED
70
0
3
Dot . . . . . . . . . . . . . . . . . . . . . .
72
65
73
2
40
19.05
49
12.7
74
0
49
-6.35
74
0
0
LTYPE
5
36
330
5
100
AcDbSymbolTableRecord
100
AcDbLinetypeTableRecord
2
DASHED2
70
0
3
Dashed (.5x) _ _ _ _ _ _ _ _ _ _ _ _ _ _ _ _ _
72
65
73
2
40
9.525
49
6.35
74
0
49
-3.175
74
0
0
LTYPE
5
37
330
5
100
AcDbSymbolTableRecord
100
AcDbLinetypeTableRecord
2
DASHEDX2
70
0
3
Dashed (2x) ____  ____  ____  ____  ____  ___
72
65
73
2
40
38.1
49
25.4
74
0
49
-12.7
74
0
0
LTYPE
5
38
330
5
100
AcDbSymbolTableRecord
100
AcDbLinetypeTableRecord
2
DASHDOT
70
0
3
Dash dot __ . __ . __ . __ . __ . __ . __ . __
72
65
73
4
40
25.4
49
12.7
74
0
49
-6.35
74
0
49
0
74
0
49
-6.35
74
0
0
LTYPE
5
39
330
5
100
AcDbSymbolTableRecord
100
AcDbLinetypeTableRecord
2
DASHDOT2
70
0
3
Dash dot (.5x) _._._._._._._._._._._._._._._.
72
65
73
4
40
12.7
49
6.35
74
0
49
-3.175
74
0
49
0
74
0
49
-3.175
74
0
0
LTYPE
5
3A
330
5
100
AcDbSymbolTableRecord
100
AcDbLinetypeTableRecord
2
DASHDOTX2
70
0
3
Dash dot (2x) ____  .  ____  .  ____  .  ___
72
65
73
4
40
50.8
49
25.4
74
0
49
-12.7
74
0
49
0
74
0
49
-12.7
74
0
0
LTYPE
5
3B
330
5
100
AcDbSymbolTableRecord
100
AcDbLinetypeTableRecord
2
DIVIDE
70
0
3
Divide ____ . . ____ . . ____ . . ____ . . ____
72
65
73
6
40
31.75
49
12.7
74
0
49
-6.35
74
0
49
0
74
0
49
-6.35
74
0
49
0
74
0
49
-6.35
74
0
0
LTYPE
5
3C
330
5
100
AcDbSymbolTableRecord
100
AcDbLinetypeTableRecord
2
DIVIDE2
70
0
3
Divide (.5x) __..__..__..__..__..__..__..__.._
72
65
73
6
40
15.875
49
6.35
74
0
49
-3.175
74
0
49
0
74
0
49
-3.175
74
0
49
0
74
0
49
-3.175
74
0
0
LTYPE
5
3D
330
5
100
AcDbSymbolTableRecord
100
AcDbLinetypeTableRecord
2
DIVIDEX2
70
0
3
Divide (2x) ________  .  .  ________  .  .  _
72
65
73
6
40
63.5
49
25.4
74
0
49
-12.7
74
0
49
0
74
0
49
-12.7
74
0
49
0
74
0
49
-12.7
74
0
0
LTYPE
5
3E
330
5
100
AcDbSymbolTableRecord
100
AcDbLinetypeTableRecord
2
BORDER
70
0
3
Border __ __ . __ __ . __ __ . __ __ . __ __ .
72
65
73
6
40
44.45
49
12.7
74
0
49
-6.35
74
0
49
12.7
74
0
49
-6.35
74
0
49
0
74
0
49
-6.35
74
0
0
LTYPE
5
3F
330
5
100
AcDbSymbolTableRecord
100
AcDbLinetypeTableRecord
2
BORDER2
70
0
3
Border (.5x) __.__.__.__.__.__.__.__.__.__.__.
72
65
73
6
40
22.225
49
6.35
74
0
49
-3.175
74
0
49
6.35
74
0
49
-3.175
74
0
49
0
74
0
49
-3.175
74
0
0
LTYPE
5
40
330
5
100
AcDbSymbolTableRecord
100
AcDbLinetypeTableRecord
2
BORDERX2
70
0
3
Border (2x) ____  ____  .  ____  ____  .  ___
72
65
73
6
40
88.9
49
25.4
74
0
49
-12.7
74
0
49
25.4
74
0
49
-12.7
74
0
49
0
74
0
49
-12.7
74
0
0
LTYPE
5
41
330
5
100
AcDbSymbolTableRecord
100
AcDbLinetypeTableRecord
2
CENTER
70
0
3
Center ____ _ ____ _ ____ _ ____ _ ____ _ ____
72
65
73
4
40
50.8
49
31.75
74
0
49
-6.35
74
0
49
6.35
74
0
49
-6.35
74
0
0
LTYPE
5
42
330
5
100
AcDbSymbolTableRecord
100
AcDbLinetypeTableRecord
2
CENTER2
70
0
3
Center (.5x) ___ _ ___ _ ___ _ ___ _ ___ _ ___
72
65
73
4
40
28.575
49
19.05
74
0
49
-3.175
74
0
49
3.175
74
0
49
-3.175
74
0
0
LTYPE
5
43
330
5
100
AcDbSymbolTableRecord
100
AcDbLinetypeTableRecord
2
CENTERX2
70
0
3
Center (2x) ________  __  ________  __  _____
72
65
73
4
40
101.6
49
63.5
74
0
49
-12.7
74
0
49
12.7
74
0
49
-12.7
74
0
0
ENDTAB
0
TABLE
2
LAYER
5
2
330
0
100
AcDbSymbolTable
70
1
0
LAYER
5
10
330
2
100
AcDbSymbolTableRecord
100
AcDbLayerTableRecord
2
0
70
0
62
7
6
CONTINUOUS
370
0
390
F
0
LAYER
5
44
330
2
100
AcDbSymbolTableRecord
100
AcDbLayerTableRecord
2
Aimants Nord
70
0
62
1
6
CONTINUOUS
370
0
390
F
0
LAYER
5
45
330
2
100
AcDbSymbolTableRecord
100
AcDbLayerTableRecord
2
Bobines
70
0
62
2
6
CONTINUOUS
370
0
390
F
0
LAYER
5
46
330
2
100
AcDbSymbolTableRecord
100
AcDbLayerTableRecord
2
Aimants Sud
70
0
62
5
6
CONTINUOUS
370
0
390
F
0
LAYER
5
47
330
2
100
AcDbSymbolTableRecord
100
AcDbLayerTableRecord
2
00-Cartouche
70
0
62
7
6
CONTINUOUS
370
0
390
F
0
LAYER
5
48
330
2
100
AcDbSymbolTableRecord
100
AcDbLayerTableRecord
2
STATOR-TrousBobines
70
0
62
6
6
CONTINUOUS
370
0
390
F
0
LAYER
5
49
330
2
100
AcDbSymbolTableRecord
100
AcDbLayerTableRecord
2
STATOR-Centre
70
0
62
6
6
CONTINUOUS
370
0
390
F
0
LAYER
5
4A
330
2
100
AcDbSymbolTableRecord
100
AcDbLayerTableRecord
2
STATOR-CercleExterne
70
0
62
6
6
CONTINUOUS
370
0
390
F
0
LAYER
5
4B
330
2
100
AcDbSymbolTableRecord
100
AcDbLayerTableRecord
2
STATOR-TrousFixation
70
0
62
6
6
CONTINUOUS
370
0
390
F
0
LAYER
5
4C
330
2
100
AcDbSymbolTableRecord
100
AcDbLayerTableRecord
2
ROTOR-1-TrousAimants
70
0
62
3
6
CONTINUOUS
370
0
390
F
0
LAYER
5
4D
330
2
100
AcDbSymbolTableRecord
100
AcDbLayerTableRecord
2
ROTOR-1-CercleExterne
70
0
62
3
6
CONTINUOUS
370
0
390
F
0
LAYER
5
4E
330
2
100
AcDbSymbolTableRecord
100
AcDbLayerTableRecord
2
ROTOR-1-TrousTiges
70
0
62
3
6
CONTINUOUS
370
0
390
F
0
LAYER
5
4F
330
2
100
AcDbSymbolTableRecord
100
AcDbLayerTableRecord
2
ROTOR-1-TrousCentraux
70
0
62
3
6
CONTINUOUS
370
0
390
F
0
LAYER
5
50
330
2
100
AcDbSymbolTableRecord
100
AcDbLayerTableRecord
2
ROTOR-1-Repère
70
0
62
3
6
CONTINUOUS
370
0
390
F
0
LAYER
5
51
330
2
100
AcDbSymbolTableRecord
100
AcDbLayerTableRecord
2
ROTOR-2-CercleInterne
70
0
62
1
6
CONTINUOUS
370
0
390
F
0
LAYER
5
52
330
2
100
AcDbSymbolTableRecord
100
AcDbLayerTableRecord
2
ROTOR-couvercle
70
0
62
4
6
CONTINUOUS
370
0
390
F
0
ENDTAB
0
TABLE
2
STYLE
5
3
330
0
100
AcDbSymbolTable
70
3
0
STYLE
5
53
330
2
100
AcDbSymbolTableRecord
100
AcDbTextStyleTableRecord
2
standard
70
0
40
0
41
1
50
0
71
0
42
1
3
standard
4

0
ENDTAB
0
TABLE
2
VIEW
5
6
330
0
100
AcDbSymbolTable
70
0
0
ENDTAB
0
TABLE
2
UCS
5
7
330
0
100
AcDbSymbolTable
70
0
0
ENDTAB
0
TABLE
2
APPID
5
9
330
0
100
AcDbSymbolTable
70
1
0
APPID
5
12
330
9
100
AcDbSymbolTableRecord
100
AcDbRegAppTableRecord
2
ACAD
70
0
0
ENDTAB
0
TABLE
2
DIMSTYLE
5
A
330
0
100
AcDbSymbolTable
70
1
100
AcDbDimStyleTable
71
1
0
DIMSTYLE
105
54
330
A
100
AcDbSymbolTableRecord
100
AcDbDimStyleTableRecord
2
Standard
70
0
40
1
41
2.5
42
0.625
43
0.38
44
1.25
45
0
46
0
47
0
48
0
140
2.5
141
0.09
142
0
143
25.4
144
1
145
0
146
1
147
0.625
148
0
71
0
72
0
73
0
74
1
75
0
76
0
77
0
78
0
79
0
170
0
171
2
172
0
173
0
174
0
175
0
176
0
177
0
178
0
179
0
271
4
272
4
273
2
274
2
275
0
276
0
277
2
278
46
279
0
280
0
281
0
282
0
283
1
284
0
285
0
286
0
288
0
289
3
340
Standard
341

371
-2
372
-2
0
ENDTAB
0
TABLE
2
BLOCK_RECORD
5
1
330
0
100
AcDbSymbolTable
70
2
0
BLOCK_RECORD
5
1F
330
1
100
AcDbSymbolTableRecord
100
AcDbBlockTableRecord
2
*Model_Space
70
0
280
1
281
0
0
BLOCK_RECORD
5
1E
330
1
100
AcDbSymbolTableRecord
100
AcDbBlockTableRecord
2
*Paper_Space
70
0
280
1
281
0
0
BLOCK_RECORD
5
55
330
1
100
AcDbSymbolTableRecord
100
AcDbBlockTableRecord
2
Aimant-Q-25-25-13-N
70
0
280
1
281
0
0
BLOCK_RECORD
5
58
330
1
100
AcDbSymbolTableRecord
100
AcDbBlockTableRecord
2
Bobine-10mm
70
0
280
1
281
0
0
BLOCK_RECORD
5
5B
330
1
100
AcDbSymbolTableRecord
100
AcDbBlockTableRecord
2
Aimant-Q-25-25-13-Sud
70
0
280
1
281
0
0
BLOCK_RECORD
5
5E
330
1
100
AcDbSymbolTableRecord
100
AcDbBlockTableRecord
2
10x10
70
0
280
1
281
0
0
BLOCK_RECORD
5
61
330
1
100
AcDbSymbolTableRecord
100
AcDbBlockTableRecord
2
cartouche-300x400-0
70
0
280
1
281
0
0
BLOCK_RECORD
5
64
330
1
100
AcDbSymbolTableRecord
100
AcDbBlockTableRecord
2
cartouche-300x400-1
70
0
280
1
281
0
0
BLOCK_RECORD
5
67
330
1
100
AcDbSymbolTableRecord
100
AcDbBlockTableRecord
2
Bobine-05mm
70
0
280
1
281
0
0
BLOCK_RECORD
5
6A
330
1
100
AcDbSymbolTableRecord
100
AcDbBlockTableRecord
2
Bobine-Ronde-05mm
70
0
280
1
281
0
0
ENDTAB
0
ENDSEC
0
SECTION
2
BLOCKS
0
BLOCK
5
20
330
1F
100
AcDbEntity
8
0
100
AcDbBlockBegin
2
*Model_Space
70
0
10
0
20
0
30
0
3
*Model_Space
1

0
ENDBLK
5
21
330
1F
100
AcDbEntity
8
0
100
AcDbBlockEnd
0
BLOCK
5
1C
330
1B
100
AcDbEntity
8
0
100
AcDbBlockBegin
2
*Paper_Space
70
0
10
0
20
0
30
0
3
*Paper_Space
1

0
ENDBLK
5
1D
330
1F
100
AcDbEntity
8
0
100
AcDbBlockEnd
0
BLOCK
5
56
330
55
100
AcDbEntity
8
0
100
AcDbBlockBegin
2
Aimant-Q-25-25-13-N
70
0
10
0
20
0
3
Aimant-Q-25-25-13-N
1

0
HATCH
5
6D
100
AcDbEntity
8
Aimants Nord
6
ByLayer
62
256
370
-1
100
AcDbHatch
10
0
20
0
30
0
210
0
220
0
230
1
2
ansi31
70
0
71
0
91
1
92
0
93
4
72
1
10
0
20
-12.7
11
25.4
21
-12.7
72
1
10
25.4
20
-12.7
11
25.4
21
12.7
72
1
10
25.4
20
12.7
11
0
21
12.7
72
1
10
0
20
12.7
11
0
21
-12.7
97
0
75
0
76
1
52
0
41
0
77
0
78
0
98
0
0
LINE
5
6E
100
AcDbEntity
8
Aimants Nord
6
ByLayer
62
256
370
-1
100
AcDbLine
10
0
20
-12.7
11
25.4
21
-12.7
0
LINE
5
6F
100
AcDbEntity
8
Aimants Nord
6
ByLayer
62
256
370
-1
100
AcDbLine
10
25.4
20
-12.7
11
25.4
21
12.7
0
LINE
5
70
100
AcDbEntity
8
Aimants Nord
6
ByLayer
62
256
370
-1
100
AcDbLine
10
25.4
20
12.7
11
0
21
12.7
0
LINE
5
71
100
AcDbEntity
8
Aimants Nord
6
ByLayer
62
256
370
-1
100
AcDbLine
10
0
20
12.7
11
0
21
-12.7
0
ENDBLK
5
57
330
55
100
AcDbEntity
8
0
100
AcDbBlockEnd
0
BLOCK
5
59
330
58
100
AcDbEntity
8
0
100
AcDbBlockBegin
2
Bobine-10mm
70
0
10
0
20
0
3
Bobine-10mm
1

0
HATCH
5
72
100
AcDbEntity
8
Bobines
6
ByLayer
62
256
370
-1
100
AcDbHatch
10
0
20
0
30
0
210
0
220
0
230
1
2
ansi31
70
0
71
0
91
1
92
0
93
8
72
1
10
10
20
-13
11
36
21
-13
72
1
10
36
20
-13
11
36
21
13
72
1
10
36
20
13
11
10
21
13
72
1
10
10
20
13
11
10
21
-13
72
1
10
0
20
-23
11
46
21
-23
72
1
10
46
20
-23
11
46
21
23
72
1
10
46
20
23
11
0
21
23
72
1
10
0
20
23
11
0
21
-23
97
0
75
0
76
1
52
0
41
0
77
0
78
0
98
0
0
LINE
5
73
100
AcDbEntity
8
Bobines
6
ByLayer
62
256
370
-1
100
AcDbLine
10
10
20
-13
11
36
21
-13
0
LINE
5
74
100
AcDbEntity
8
Bobines
6
ByLayer
62
256
370
-1
100
AcDbLine
10
36
20
-13
11
36
21
13
0
LINE
5
75
100
AcDbEntity
8
Bobines
6
ByLayer
62
256
370
-1
100
AcDbLine
10
36
20
13
11
10
21
13
0
LINE
5
76
100
AcDbEntity
8
Bobines
6
ByLayer
62
256
370
-1
100
AcDbLine
10
10
20
13
11
10
21
-13
0
LINE
5
77
100
AcDbEntity
8
Bobines
6
ByLayer
62
256
370
-1
100
AcDbLine
10
0
20
-23
11
46
21
-23
0
LINE
5
78
100
AcDbEntity
8
Bobines
6
ByLayer
62
256
370
-1
100
AcDbLine
10
46
20
-23
11
46
21
23
0
LINE
5
79
100
AcDbEntity
8
Bobines
6
ByLayer
62
256
370
-1
100
AcDbLine
10
46
20
23
11
0
21
23
0
LINE
5
7A
100
AcDbEntity
8
Bobines
6
ByLayer
62
256
370
-1
100
AcDbLine
10
0
20
23
11
0
21
-23
0
ENDBLK
5
5A
330
58
100
AcDbEntity
8
0
100
AcDbBlockEnd
0
BLOCK
5
5C
330
5B
100
AcDbEntity
8
0
100
AcDbBlockBegin
2
Aimant-Q-25-25-13-Sud
70
0
10
0
20
0
3
Aimant-Q-25-25-13-Sud
1

0
HATCH
5
7B
100
AcDbEntity
8
Aimants Sud
6
ByLayer
62
256
370
-1
100
AcDbHatch
10
0
20
0
30
0
210
0
220
0
230
1
2
ansi31
70
0
71
0
91
1
92
0
93
4
72
1
10
0
20
-12.7
11
25.4
21
-12.7
72
1
10
25.4
20
-12.7
11
25.4
21
12.7
72
1
10
25.4
20
12.7
11
0
21
12.7
72
1
10
0
20
12.7
11
0
21
-12.7
97
0
75
0
76
1
52
0
41
0
77
0
78
0
98
0
0
LINE
5
7C
100
AcDbEntity
8
Aimants Sud
6
ByLayer
62
256
370
-1
100
AcDbLine
10
0
20
-12.7
11
25.4
21
-12.7
0
LINE
5
7D
100
AcDbEntity
8
Aimants Sud
6
ByLayer
62
256
370
-1
100
AcDbLine
10
25.4
20
-12.7
11
25.4
21
12.7
0
LINE
5
7E
100
AcDbEntity
8
Aimants Sud
6
ByLayer
62
256
370
-1
100
AcDbLine
10
25.4
20
12.7
11
0
21
12.7
0
LINE
5
7F
100
AcDbEntity
8
Aimants Sud
6
ByLayer
62
256
370
-1
100
AcDbLine
10
0
20
12.7
11
0
21
-12.7
0
ENDBLK
5
5D
330
5B
100
AcDbEntity
8
0
100
AcDbBlockEnd
0
BLOCK
5
5F
330
5E
100
AcDbEntity
8
0
100
AcDbBlockBegin
2
10x10
70
0
10
0
20
0
3
10x10
1

0
LINE
5
80
100
AcDbEntity
8
0
6
ByLayer
62
256
370
-1
100
AcDbLine
10
50
20
50
11
-50
21
50
0
LINE
5
81
100
AcDbEntity
8
0
6
ByLayer
62
256
370
-1
100
AcDbLine
10
-50
20
50
11
-50
21
-50
0
LINE
5
82
100
AcDbEntity
8
0
6
ByLayer
62
256
370
-1
100
AcDbLine
10
-50
20
-50
11
50
21
-50
0
LINE
5
83
100
AcDbEntity
8
0
6
ByLayer
62
256
370
-1
100
AcDbLine
10
50
20
-50
11
50
21
50
0
ENDBLK
5
60
330
5E
100
AcDbEntity
8
0
100
AcDbBlockEnd
0
BLOCK
5
62
330
61
100
AcDbEntity
8
0
100
AcDbBlockBegin
2
cartouche-300x400-0
70
0
10
0
20
0
3
cartouche-300x400-0
1

0
LINE
5
84
100
AcDbEntity
8
0
6
ByLayer
62
256
370
-1
100
AcDbLine
10
-300
20
-300
11
400
21
-300
0
LINE
5
85
100
AcDbEntity
8
0
6
ByLayer
62
256
370
-1
100
AcDbLine
10
400
20
-300
11
400
21
300
0
LINE
5
86
100
AcDbEntity
8
0
6
ByLayer
62
256
370
-1
100
AcDbLine
10
400
20
300
11
-300
21
300
0
LINE
5
87
100
AcDbEntity
8
0
6
ByLayer
62
256
370
-1
100
AcDbLine
10
-300
20
300
11
-300
21
-300
0
LINE
5
88
100
AcDbEntity
8
0
6
ByLayer
62
256
370
-1
100
AcDbLine
10
250
20
300
11
250
21
-300
0
LINE
5
89
100
AcDbEntity
8
0
6
ByLayer
62
256
370
-1
100
AcDbLine
10
250
20
210
11
400
21
210
0
MTEXT
5
8A
100
AcDbEntity
8
0
6
ByLayer
62
256
370
-1
100
AcDbMText
10
260
20
290
30
0
40
2
41
72.2111141968
71
1
72
1
3
/* Cette documentation fait partie du projet\P*  Pliboo, prototype de système de petite\P*  éolienne du projet expérimental Voosilla.\P*  Cette domentation concerne l'un des composants\P*  du projet Pliboo.\P*  ------------------------------\P*  P
3
liboo inclus tout son processus de \P*  développement ainsi que le développement \P*  de ses composants.\P*  --\P*  Pliboo et ses composants (dont celui-ci),\P*  sont mis à disposition sous licence \P*  CERN OHL V 1.2\P*  --\P*  Auteur:\P*  projet
1
 VOOSILLA et,\P*  4k5ADllF0cok6 4kHq.ruL70FDI (Identité Cryptée)\P*  Mai 2015\P*  \P*  Droits et Conditions d'utilisation resteints: \P*  voir fichier lisez-moi.txt\P*  ------------------------------\P*/\P
7
standard
210
0
220
0
230
1
50
0
73
2
44
1
0
MTEXT
5
8B
100
AcDbEntity
8
0
6
ByLayer
62
256
370
-1
100
AcDbMText
10
350
20
290
30
0
40
5
41
43.75
71
1
72
1
1
CERN-OHL 1.2
7
standard
210
0
220
0
230
1
50
0
73
2
44
1
0
MTEXT
5
8C
100
AcDbEntity
8
0
6
ByLayer
62
256
370
-1
100
AcDbMText
10
350
20
280
30
0
40
2
41
41.1118771695
71
1
72
1
1
Cette information\Pest mise à disposition \Psous les termes et conditions \Pde la licence \PCERN-OHL 1.2
7
standard
210
0
220
0
230
1
50
0
73
2
44
1
0
LINE
5
8D
100
AcDbEntity
8
0
6
ByLayer
62
256
370
-1
100
AcDbLine
10
340
20
300
11
340
21
210
0
LINE
5
8E
100
AcDbEntity
8
0
6
ByLayer
62
256
370
-1
100
AcDbLine
10
250
20
180
11
400
21
180
0
MTEXT
5
8F
100
AcDbEntity
8
0
6
ByLayer
62
256
370
-1
100
AcDbMText
10
260
20
200
30
0
40
5
41
59.0277803492
71
1
72
1
1
Titre de la chose
7
standard
210
0
220
0
230
1
50
0
73
2
44
1
0
ENDBLK
5
63
330
61
100
AcDbEntity
8
0
100
AcDbBlockEnd
0
BLOCK
5
65
330
64
100
AcDbEntity
8
0
100
AcDbBlockBegin
2
cartouche-300x400-1
70
0
10
0
20
0
3
cartouche-300x400-1
1

0
LINE
5
90
100
AcDbEntity
8
0
6
ByLayer
62
256
370
-1
100
AcDbLine
10
-300
20
-300
11
400
21
-300
0
LINE
5
91
100
AcDbEntity
8
0
6
ByLayer
62
256
370
-1
100
AcDbLine
10
400
20
-300
11
400
21
300
0
LINE
5
92
100
AcDbEntity
8
0
6
ByLayer
62
256
370
-1
100
AcDbLine
10
400
20
300
11
-300
21
300
0
LINE
5
93
100
AcDbEntity
8
0
6
ByLayer
62
256
370
-1
100
AcDbLine
10
-300
20
300
11
-300
21
-300
0
LINE
5
94
100
AcDbEntity
8
0
6
ByLayer
62
256
370
-1
100
AcDbLine
10
250
20
300
11
250
21
-300
0
LINE
5
95
100
AcDbEntity
8
0
6
ByLayer
62
256
370
-1
100
AcDbLine
10
250
20
210
11
400
21
210
0
MTEXT
5
96
100
AcDbEntity
8
0
6
ByLayer
62
256
370
-1
100
AcDbMText
10
260
20
290
30
0
40
2
41
72.2111141968
71
1
72
1
3
/* Cette documentation fait partie du projet\P*  Pliboo, prototype de système de petite\P*  éolienne du projet expérimental Voosilla.\P*  Cette domentation concerne l'un des composants\P*  du projet Pliboo.\P*  ------------------------------\P*  P
3
liboo inclus tout son processus de \P*  développement ainsi que le développement \P*  de ses composants.\P*  --\P*  Pliboo et ses composants (dont celui-ci),\P*  sont mis à disposition sous licence \P*  CERN OHL V 1.2\P*  --\P*  Auteur:\P*  projet
1
 VOOSILLA et,\P*  4k5ADllF0cok6 4kHq.ruL70FDI (Identité Cryptée)\P*  Mai 2015\P*  \P*  Droits et Conditions d'utilisation resteints: \P*  voir fichier lisez-moi.txt\P*  ------------------------------\P*/\P
7
standard
210
0
220
0
230
1
50
0
73
2
44
1
0
MTEXT
5
97
100
AcDbEntity
8
0
6
ByLayer
62
256
370
-1
100
AcDbMText
10
350
20
290
30
0
40
5
41
43.75
71
1
72
1
1
CERN-OHL 1.2
7
standard
210
0
220
0
230
1
50
0
73
2
44
1
0
MTEXT
5
98
100
AcDbEntity
8
0
6
ByLayer
62
256
370
-1
100
AcDbMText
10
350
20
280
30
0
40
2
41
41.1118771695
71
1
72
1
1
Cette information\Pest mise à disposition \Psous les termes et conditions \Pde la licence \PCERN-OHL 1.2
7
standard
210
0
220
0
230
1
50
0
73
2
44
1
0
LINE
5
99
100
AcDbEntity
8
0
6
ByLayer
62
256
370
-1
100
AcDbLine
10
340
20
300
11
340
21
210
0
LINE
5
9A
100
AcDbEntity
8
0
6
ByLayer
62
256
370
-1
100
AcDbLine
10
250
20
180
11
400
21
180
0
ENDBLK
5
66
330
64
100
AcDbEntity
8
0
100
AcDbBlockEnd
0
BLOCK
5
68
330
67
100
AcDbEntity
8
0
100
AcDbBlockBegin
2
Bobine-05mm
70
0
10
0
20
0
3
Bobine-05mm
1

0
HATCH
5
9B
100
AcDbEntity
8
Bobines
6
ByLayer
62
256
370
-1
100
AcDbHatch
10
0
20
0
30
0
210
0
220
0
230
1
2
ansi31
70
0
71
0
91
1
92
0
93
8
72
1
10
33
20
13
11
7
21
13
72
1
10
7
20
13
11
7
21
-13
72
1
10
7
20
-13
11
33
21
-13
72
1
10
33
20
-13
11
33
21
13
72
1
10
40
20
20
11
0
21
20
72
1
10
0
20
20
11
0
21
-20
72
1
10
0
20
-20
11
40
21
-20
72
1
10
40
20
-20
11
40
21
20
97
0
75
0
76
1
52
0
41
0
77
0
78
0
98
0
0
LINE
5
9C
100
AcDbEntity
8
Bobines
6
ByLayer
62
256
370
-1
100
AcDbLine
10
33
20
13
11
7
21
13
0
LINE
5
9D
100
AcDbEntity
8
Bobines
6
ByLayer
62
256
370
-1
100
AcDbLine
10
7
20
13
11
7
21
-13
0
LINE
5
9E
100
AcDbEntity
8
Bobines
6
ByLayer
62
256
370
-1
100
AcDbLine
10
7
20
-13
11
33
21
-13
0
LINE
5
9F
100
AcDbEntity
8
Bobines
6
ByLayer
62
256
370
-1
100
AcDbLine
10
33
20
-13
11
33
21
13
0
LINE
5
A0
100
AcDbEntity
8
Bobines
6
ByLayer
62
256
370
-1
100
AcDbLine
10
40
20
20
11
0
21
20
0
LINE
5
A1
100
AcDbEntity
8
Bobines
6
ByLayer
62
256
370
-1
100
AcDbLine
10
0
20
20
11
0
21
-20
0
LINE
5
A2
100
AcDbEntity
8
Bobines
6
ByLayer
62
256
370
-1
100
AcDbLine
10
0
20
-20
11
40
21
-20
0
LINE
5
A3
100
AcDbEntity
8
Bobines
6
ByLayer
62
256
370
-1
100
AcDbLine
10
40
20
-20
11
40
21
20
0
ENDBLK
5
69
330
67
100
AcDbEntity
8
0
100
AcDbBlockEnd
0
BLOCK
5
6B
330
6A
100
AcDbEntity
8
0
100
AcDbBlockBegin
2
Bobine-Ronde-05mm
70
0
10
0
20
0
3
Bobine-Ronde-05mm
1

0
HATCH
5
A4
100
AcDbEntity
8
Bobines
6
ByLayer
62
256
370
-1
100
AcDbHatch
10
0
20
0
30
0
210
0
220
0
230
1
2
ansi31
70
0
71
0
91
1
92
0
93
2
72
2
10
23
20
-1.0000002769e-05
40
13
50
0
51
360
73
1
72
2
10
23
20
0
40
18
50
0
51
360
73
1
97
0
75
0
76
1
52
0
41
0
77
0
78
0
98
0
0
CIRCLE
5
A5
100
AcDbEntity
8
Bobines
6
ByLayer
62
256
370
-1
100
AcDbCircle
10
23
20
-1.0000002769e-05
40
13
0
CIRCLE
5
A6
100
AcDbEntity
8
Bobines
6
ByLayer
62
256
370
-1
100
AcDbCircle
10
23
20
0
40
18
0
LINE
5
A7
100
AcDbEntity
8
Bobines
6
ByLayer
62
256
370
-1
100
AcDbLine
10
42
20
19
11
4
21
19
0
LINE
5
A8
100
AcDbEntity
8
Bobines
6
ByLayer
62
256
370
-1
100
AcDbLine
10
4
20
19
11
4
21
-19
0
LINE
5
A9
100
AcDbEntity
8
Bobines
6
ByLayer
62
256
370
-1
100
AcDbLine
10
4
20
-19
11
42
21
-19
0
LINE
5
AA
100
AcDbEntity
8
Bobines
6
ByLayer
62
256
370
-1
100
AcDbLine
10
42
20
-19
11
42
21
19
0
ENDBLK
5
6C
330
6A
100
AcDbEntity
8
0
100
AcDbBlockEnd
0
ENDSEC
0
SECTION
2
ENTITIES
0
LINE
5
AB
100
AcDbEntity
8
0
6
ByLayer
62
256
370
-1
100
AcDbLine
10
69.6629308671
20
-6.86119982307
11
298.555418002
21
-29.4051420989
0
LINE
5
AC
100
AcDbEntity
8
0
6
ByLayer
62
256
370
-1
100
AcDbLine
10
70
20
4.15032591627e-16
11
300
21
-3.02709246558e-15
0
LINE
5
AD
100
AcDbEntity
8
0
6
ByLayer
62
256
370
-1
100
AcDbLine
10
69.6629308671
20
6.86119982307
11
298.555418002
21
29.4051420989
0
LINE
5
AE
100
AcDbEntity
8
0
6
ByLayer
62
256
370
-1
100
AcDbLine
10
68.6549696282
20
13.6563225411
11
294.235584121
21
58.5270966048
0
LINE
5
AF
100
AcDbEntity
8
0
6
ByLayer
62
256
370
-1
100
AcDbLine
10
66.9858235013
20
20.3199274078
11
287.08210072
21
87.0854031763
0
LINE
5
B0
100
AcDbEntity
8
0
6
ByLayer
62
256
370
-1
100
AcDbLine
10
64.6715672758
20
26.7878402656
11
277.163859753
21
114.80502971
0
LINE
5
B1
100
AcDbEntity
8
0
6
ByLayer
62
256
370
-1
100
AcDbLine
10
61.7344885044
20
32.9977715778
11
264.576379305
21
141.419021048
0
LINE
5
B2
100
AcDbEntity
8
0
6
ByLayer
62
256
370
-1
100
AcDbLine
10
58.2028728612
20
38.8899163114
11
249.440883691
21
166.671069906
0
LINE
5
B3
100
AcDbEntity
8
0
6
ByLayer
62
256
370
-1
100
AcDbLine
10
54.1107317354
20
44.4075298915
11
231.903136009
21
190.317985249
0
LINE
5
B4
100
AcDbEntity
8
0
6
ByLayer
62
256
370
-1
100
AcDbLine
10
49.4974746831
20
49.4974746831
11
212.132034356
21
212.132034356
0
LINE
5
B5
100
AcDbEntity
8
0
6
ByLayer
62
256
370
-1
100
AcDbLine
10
44.4075298915
20
54.1107317354
11
190.317985249
21
231.903136009
0
LINE
5
B6
100
AcDbEntity
8
0
6
ByLayer
62
256
370
-1
100
AcDbLine
10
38.8899163114
20
58.2028728612
11
166.671069906
21
249.440883691
0
LINE
5
B7
100
AcDbEntity
8
0
6
ByLayer
62
256
370
-1
100
AcDbLine
10
32.9977715778
20
61.7344885044
11
141.419021048
21
264.576379305
0
LINE
5
B8
100
AcDbEntity
8
0
6
ByLayer
62
256
370
-1
100
AcDbLine
10
26.7878402656
20
64.6715672758
11
114.80502971
21
277.163859753
0
LINE
5
B9
100
AcDbEntity
8
0
6
ByLayer
62
256
370
-1
100
AcDbLine
10
20.3199274078
20
66.9858235013
11
87.0854031763
21
287.08210072
0
LINE
5
BA
100
AcDbEntity
8
0
6
ByLayer
62
256
370
-1
100
AcDbLine
10
13.6563225411
20
68.6549696282
11
58.5270966048
21
294.235584121
0
LINE
5
BB
100
AcDbEntity
8
0
6
ByLayer
62
256
370
-1
100
AcDbLine
10
6.86119982307
20
69.6629308671
11
29.4051420989
21
298.555418002
0
LINE
5
BC
100
AcDbEntity
8
0
6
ByLayer
62
256
370
-1
100
AcDbLine
10
-3.31549024346e-15
20
70
11
-9.40393596327e-15
21
300
0
LINE
5
BD
100
AcDbEntity
8
0
6
ByLayer
62
256
370
-1
100
AcDbLine
10
-6.86119982307
20
69.6629308671
11
-29.4051420989
21
298.555418002
0
LINE
5
BE
100
AcDbEntity
8
0
6
ByLayer
62
256
370
-1
100
AcDbLine
10
-13.6563225411
20
68.6549696282
11
-58.5270966048
21
294.235584121
0
LINE
5
BF
100
AcDbEntity
8
0
6
ByLayer
62
256
370
-1
100
AcDbLine
10
-20.3199274078
20
66.9858235013
11
-87.0854031763
21
287.08210072
0
LINE
5
C0
100
AcDbEntity
8
0
6
ByLayer
62
256
370
-1
100
AcDbLine
10
-26.7878402656
20
64.6715672758
11
-114.80502971
21
277.163859753
0
LINE
5
C1
100
AcDbEntity
8
0
6
ByLayer
62
256
370
-1
100
AcDbLine
10
-32.9977715778
20
61.7344885044
11
-141.419021048
21
264.576379305
0
LINE
5
C2
100
AcDbEntity
8
0
6
ByLayer
62
256
370
-1
100
AcDbLine
10
-38.8899163114
20
58.2028728612
11
-166.671069906
21
249.440883691
0
LINE
5
C3
100
AcDbEntity
8
0
6
ByLayer
62
256
370
-1
100
AcDbLine
10
-44.4075298915
20
54.1107317354
11
-190.317985249
21
231.903136009
0
LINE
5
C4
100
AcDbEntity
8
0
6
ByLayer
62
256
370
-1
100
AcDbLine
10
-49.4974746831
20
49.4974746831
11
-212.132034356
21
212.132034356
0
LINE
5
C5
100
AcDbEntity
8
0
6
ByLayer
62
256
370
-1
100
AcDbLine
10
-54.1107317354
20
44.4075298915
11
-231.903136009
21
190.317985249
0
LINE
5
C6
100
AcDbEntity
8
0
6
ByLayer
62
256
370
-1
100
AcDbLine
10
-58.2028728612
20
38.8899163114
11
-249.440883691
21
166.671069906
0
LINE
5
C7
100
AcDbEntity
8
0
6
ByLayer
62
256
370
-1
100
AcDbLine
10
-61.7344885044
20
32.9977715778
11
-264.576379305
21
141.419021048
0
LINE
5
C8
100
AcDbEntity
8
0
6
ByLayer
62
256
370
-1
100
AcDbLine
10
-64.6715672758
20
26.7878402656
11
-277.163859753
21
114.80502971
0
LINE
5
C9
100
AcDbEntity
8
0
6
ByLayer
62
256
370
-1
100
AcDbLine
10
-66.9858235013
20
20.3199274078
11
-287.08210072
21
87.0854031763
0
LINE
5
CA
100
AcDbEntity
8
0
6
ByLayer
62
256
370
-1
100
AcDbLine
10
-68.6549696282
20
13.6563225411
11
-294.235584121
21
58.5270966048
0
LINE
5
CB
100
AcDbEntity
8
0
6
ByLayer
62
256
370
-1
100
AcDbLine
10
-69.6629308671
20
6.86119982307
11
-298.555418002
21
29.4051420989
0
LINE
5
CC
100
AcDbEntity
8
0
6
ByLayer
62
256
370
-1
100
AcDbLine
10
-70
20
5.51642065361e-16
11
-300
21
7.16961212621e-15
0
LINE
5
CD
100
AcDbEntity
8
0
6
ByLayer
62
256
370
-1
100
AcDbLine
10
-69.6629308671
20
-6.86119982307
11
-298.555418002
21
-29.4051420989
0
LINE
5
CE
100
AcDbEntity
8
0
6
ByLayer
62
256
370
-1
100
AcDbLine
10
-68.6549696282
20
-13.6563225411
11
-294.235584121
21
-58.5270966048
0
LINE
5
CF
100
AcDbEntity
8
0
6
ByLayer
62
256
370
-1
100
AcDbLine
10
-66.9858235013
20
-20.3199274078
11
-287.08210072
21
-87.0854031763
0
LINE
5
D0
100
AcDbEntity
8
0
6
ByLayer
62
256
370
-1
100
AcDbLine
10
-64.6715672758
20
-26.7878402656
11
-277.163859753
21
-114.80502971
0
LINE
5
D1
100
AcDbEntity
8
0
6
ByLayer
62
256
370
-1
100
AcDbLine
10
-61.7344885044
20
-32.9977715778
11
-264.576379305
21
-141.419021048
0
LINE
5
D2
100
AcDbEntity
8
0
6
ByLayer
62
256
370
-1
100
AcDbLine
10
-58.2028728612
20
-38.8899163114
11
-249.440883691
21
-166.671069906
0
LINE
5
D3
100
AcDbEntity
8
0
6
ByLayer
62
256
370
-1
100
AcDbLine
10
-54.1107317354
20
-44.4075298915
11
-231.903136009
21
-190.317985249
0
LINE
5
D4
100
AcDbEntity
8
0
6
ByLayer
62
256
370
-1
100
AcDbLine
10
-49.4974746831
20
-49.4974746831
11
-212.132034356
21
-212.132034356
0
LINE
5
D5
100
AcDbEntity
8
0
6
ByLayer
62
256
370
-1
100
AcDbLine
10
-44.4075298915
20
-54.1107317354
11
-190.317985249
21
-231.903136009
0
LINE
5
D6
100
AcDbEntity
8
0
6
ByLayer
62
256
370
-1
100
AcDbLine
10
-38.8899163114
20
-58.2028728612
11
-166.671069906
21
-249.440883691
0
LINE
5
D7
100
AcDbEntity
8
0
6
ByLayer
62
256
370
-1
100
AcDbLine
10
-32.9977715778
20
-61.7344885044
11
-141.419021048
21
-264.576379305
0
LINE
5
D8
100
AcDbEntity
8
0
6
ByLayer
62
256
370
-1
100
AcDbLine
10
-26.7878402656
20
-64.6715672758
11
-114.80502971
21
-277.163859753
0
LINE
5
D9
100
AcDbEntity
8
0
6
ByLayer
62
256
370
-1
100
AcDbLine
10
-20.3199274078
20
-66.9858235013
11
-87.0854031763
21
-287.08210072
0
LINE
5
DA
100
AcDbEntity
8
0
6
ByLayer
62
256
370
-1
100
AcDbLine
10
-13.6563225411
20
-68.6549696282
11
-58.5270966048
21
-294.235584121
0
LINE
5
DB
100
AcDbEntity
8
0
6
ByLayer
62
256
370
-1
100
AcDbLine
10
-6.86119982307
20
-69.6629308671
11
-29.4051420989
21
-298.555418002
0
LINE
5
DC
100
AcDbEntity
8
0
6
ByLayer
62
256
370
-1
100
AcDbLine
10
-3.5354965483e-14
20
-70
11
-1.56328075485e-13
21
-300
0
LINE
5
DD
100
AcDbEntity
8
0
6
ByLayer
62
256
370
-1
100
AcDbLine
10
6.86119982307
20
-69.6629308671
11
29.4051420989
21
-298.555418002
0
LINE
5
DE
100
AcDbEntity
8
0
6
ByLayer
62
256
370
-1
100
AcDbLine
10
13.6563225411
20
-68.6549696282
11
58.5270966048
21
-294.235584121
0
LINE
5
DF
100
AcDbEntity
8
0
6
ByLayer
62
256
370
-1
100
AcDbLine
10
20.3199274078
20
-66.9858235013
11
87.0854031763
21
-287.08210072
0
LINE
5
E0
100
AcDbEntity
8
0
6
ByLayer
62
256
370
-1
100
AcDbLine
10
26.7878402656
20
-64.6715672758
11
114.80502971
21
-277.163859753
0
LINE
5
E1
100
AcDbEntity
8
0
6
ByLayer
62
256
370
-1
100
AcDbLine
10
32.9977715778
20
-61.7344885044
11
141.419021048
21
-264.576379305
0
LINE
5
E2
100
AcDbEntity
8
0
6
ByLayer
62
256
370
-1
100
AcDbLine
10
38.8899163114
20
-58.2028728612
11
166.671069906
21
-249.440883691
0
LINE
5
E3
100
AcDbEntity
8
0
6
ByLayer
62
256
370
-1
100
AcDbLine
10
44.4075298915
20
-54.1107317354
11
190.317985249
21
-231.903136009
0
LINE
5
E4
100
AcDbEntity
8
0
6
ByLayer
62
256
370
-1
100
AcDbLine
10
49.4974746831
20
-49.4974746831
11
212.132034356
21
-212.132034356
0
LINE
5
E5
100
AcDbEntity
8
0
6
ByLayer
62
256
370
-1
100
AcDbLine
10
54.1107317354
20
-44.4075298915
11
231.903136009
21
-190.317985249
0
LINE
5
E6
100
AcDbEntity
8
0
6
ByLayer
62
256
370
-1
100
AcDbLine
10
58.2028728612
20
-38.8899163114
11
249.440883691
21
-166.671069906
0
LINE
5
E7
100
AcDbEntity
8
0
6
ByLayer
62
256
370
-1
100
AcDbLine
10
61.7344885044
20
-32.9977715778
11
264.576379305
21
-141.419021048
0
LINE
5
E8
100
AcDbEntity
8
0
6
ByLayer
62
256
370
-1
100
AcDbLine
10
64.6715672758
20
-26.7878402656
11
277.163859753
21
-114.80502971
0
LINE
5
E9
100
AcDbEntity
8
0
6
ByLayer
62
256
370
-1
100
AcDbLine
10
66.9858235013
20
-20.3199274078
11
287.08210072
21
-87.0854031763
0
LINE
5
EA
100
AcDbEntity
8
0
6
ByLayer
62
256
370
-1
100
AcDbLine
10
68.6549696282
20
-13.6563225411
11
294.235584121
21
-58.5270966048
0
CIRCLE
5
EB
100
AcDbEntity
8
0
6
ByLayer
62
256
370
-1
100
AcDbCircle
10
0
20
0
40
200
0
CIRCLE
5
EC
100
AcDbEntity
8
STATOR-TrousBobines
6
ByLayer
62
256
370
-1
100
AcDbCircle
10
153
20
0
40
19
0
CIRCLE
5
ED
100
AcDbEntity
8
STATOR-TrousBobines
6
ByLayer
62
256
370
-1
100
AcDbCircle
10
143.77297098
20
52.3290819288
40
19
0
CIRCLE
5
EE
100
AcDbEntity
8
STATOR-TrousBobines
6
ByLayer
62
256
370
-1
100
AcDbCircle
10
117.204799797
20
98.346504282
40
19
0
CIRCLE
5
EF
100
AcDbEntity
8
STATOR-TrousBobines
6
ByLayer
62
256
370
-1
100
AcDbCircle
10
76.5
20
132.501886779
40
19
0
CIRCLE
5
F0
100
AcDbEntity
8
STATOR-TrousBobines
6
ByLayer
62
256
370
-1
100
AcDbCircle
10
26.568171183
20
150.675586211
40
19
0
CIRCLE
5
F1
100
AcDbEntity
8
STATOR-TrousBobines
6
ByLayer
62
256
370
-1
100
AcDbCircle
10
-26.568171183
20
150.675586211
40
19
0
CIRCLE
5
F2
100
AcDbEntity
8
STATOR-TrousBobines
6
ByLayer
62
256
370
-1
100
AcDbCircle
10
-76.5
20
132.501886779
40
19
0
CIRCLE
5
F3
100
AcDbEntity
8
STATOR-TrousBobines
6
ByLayer
62
256
370
-1
100
AcDbCircle
10
-117.204799797
20
98.346504282
40
19
0
CIRCLE
5
F4
100
AcDbEntity
8
STATOR-TrousBobines
6
ByLayer
62
256
370
-1
100
AcDbCircle
10
-143.77297098
20
52.3290819288
40
19
0
CIRCLE
5
F5
100
AcDbEntity
8
STATOR-TrousBobines
6
ByLayer
62
256
370
-1
100
AcDbCircle
10
-153
20
1.8737096027e-14
40
19
0
CIRCLE
5
F6
100
AcDbEntity
8
STATOR-TrousBobines
6
ByLayer
62
256
370
-1
100
AcDbCircle
10
-143.77297098
20
-52.3290819288
40
19
0
CIRCLE
5
F7
100
AcDbEntity
8
STATOR-TrousBobines
6
ByLayer
62
256
370
-1
100
AcDbCircle
10
-117.204799797
20
-98.346504282
40
19
0
CIRCLE
5
F8
100
AcDbEntity
8
STATOR-TrousBobines
6
ByLayer
62
256
370
-1
100
AcDbCircle
10
-76.5
20
-132.501886779
40
19
0
CIRCLE
5
F9
100
AcDbEntity
8
STATOR-TrousBobines
6
ByLayer
62
256
370
-1
100
AcDbCircle
10
-26.568171183
20
-150.675586211
40
19
0
CIRCLE
5
FA
100
AcDbEntity
8
STATOR-TrousBobines
6
ByLayer
62
256
370
-1
100
AcDbCircle
10
26.568171183
20
-150.675586211
40
19
0
CIRCLE
5
FB
100
AcDbEntity
8
STATOR-TrousBobines
6
ByLayer
62
256
370
-1
100
AcDbCircle
10
76.5
20
-132.501886779
40
19
0
CIRCLE
5
FC
100
AcDbEntity
8
STATOR-TrousBobines
6
ByLayer
62
256
370
-1
100
AcDbCircle
10
117.204799797
20
-98.346504282
40
19
0
CIRCLE
5
FD
100
AcDbEntity
8
STATOR-TrousBobines
6
ByLayer
62
256
370
-1
100
AcDbCircle
10
143.77297098
20
-52.3290819288
40
19
0
CIRCLE
5
FE
100
AcDbEntity
8
STATOR-CercleExterne
6
ByLayer
62
256
370
-1
100
AcDbCircle
10
0
20
0
40
190
0
CIRCLE
5
FF
100
AcDbEntity
8
ROTOR-1-TrousAimants
6
ByLayer
62
256
370
-1
100
AcDbCircle
10
153
20
0
40
14
0
CIRCLE
5
100
100
AcDbEntity
8
ROTOR-1-TrousAimants
6
ByLayer
62
256
370
-1
100
AcDbCircle
10
147.786651422
20
39.5993139007
40
14
0
CIRCLE
5
101
100
AcDbEntity
8
ROTOR-1-TrousAimants
6
ByLayer
62
256
370
-1
100
AcDbCircle
10
132.501886779
20
76.5
40
14
0
CIRCLE
5
102
100
AcDbEntity
8
ROTOR-1-TrousAimants
6
ByLayer
62
256
370
-1
100
AcDbCircle
10
108.187337522
20
108.187337522
40
14
0
CIRCLE
5
103
100
AcDbEntity
8
ROTOR-1-TrousAimants
6
ByLayer
62
256
370
-1
100
AcDbCircle
10
76.5
20
132.501886779
40
14
0
CIRCLE
5
104
100
AcDbEntity
8
ROTOR-1-TrousAimants
6
ByLayer
62
256
370
-1
100
AcDbCircle
10
39.5993139007
20
147.786651422
40
14
0
CIRCLE
5
105
100
AcDbEntity
8
ROTOR-1-TrousAimants
6
ByLayer
62
256
370
-1
100
AcDbCircle
10
9.36854801348e-15
20
153
40
14
0
CIRCLE
5
106
100
AcDbEntity
8
ROTOR-1-TrousAimants
6
ByLayer
62
256
370
-1
100
AcDbCircle
10
-39.5993139007
20
147.786651422
40
14
0
CIRCLE
5
107
100
AcDbEntity
8
ROTOR-1-TrousAimants
6
ByLayer
62
256
370
-1
100
AcDbCircle
10
-76.5
20
132.501886779
40
14
0
CIRCLE
5
108
100
AcDbEntity
8
ROTOR-1-TrousAimants
6
ByLayer
62
256
370
-1
100
AcDbCircle
10
-108.187337522
20
108.187337522
40
14
0
CIRCLE
5
109
100
AcDbEntity
8
ROTOR-1-TrousAimants
6
ByLayer
62
256
370
-1
100
AcDbCircle
10
-132.501886779
20
76.5
40
14
0
CIRCLE
5
10A
100
AcDbEntity
8
ROTOR-1-TrousAimants
6
ByLayer
62
256
370
-1
100
AcDbCircle
10
-147.786651422
20
39.5993139007
40
14
0
CIRCLE
5
10B
100
AcDbEntity
8
ROTOR-1-TrousAimants
6
ByLayer
62
256
370
-1
100
AcDbCircle
10
-153
20
1.8737096027e-14
40
14
0
CIRCLE
5
10C
100
AcDbEntity
8
ROTOR-1-TrousAimants
6
ByLayer
62
256
370
-1
100
AcDbCircle
10
-147.786651422
20
-39.5993139007
40
14
0
CIRCLE
5
10D
100
AcDbEntity
8
ROTOR-1-TrousAimants
6
ByLayer
62
256
370
-1
100
AcDbCircle
10
-132.501886779
20
-76.5
40
14
0
CIRCLE
5
10E
100
AcDbEntity
8
ROTOR-1-TrousAimants
6
ByLayer
62
256
370
-1
100
AcDbCircle
10
-108.187337522
20
-108.187337522
40
14
0
CIRCLE
5
10F
100
AcDbEntity
8
ROTOR-1-TrousAimants
6
ByLayer
62
256
370
-1
100
AcDbCircle
10
-76.5
20
-132.501886779
40
14
0
CIRCLE
5
110
100
AcDbEntity
8
ROTOR-1-TrousAimants
6
ByLayer
62
256
370
-1
100
AcDbCircle
10
-39.5993139007
20
-147.786651422
40
14
0
CIRCLE
5
111
100
AcDbEntity
8
ROTOR-1-TrousAimants
6
ByLayer
62
256
370
-1
100
AcDbCircle
10
-2.81056440404e-14
20
-153
40
14
0
CIRCLE
5
112
100
AcDbEntity
8
ROTOR-1-TrousAimants
6
ByLayer
62
256
370
-1
100
AcDbCircle
10
39.5993139007
20
-147.786651422
40
14
0
CIRCLE
5
113
100
AcDbEntity
8
ROTOR-1-TrousAimants
6
ByLayer
62
256
370
-1
100
AcDbCircle
10
76.5
20
-132.501886779
40
14
0
CIRCLE
5
114
100
AcDbEntity
8
ROTOR-1-TrousAimants
6
ByLayer
62
256
370
-1
100
AcDbCircle
10
108.187337522
20
-108.187337522
40
14
0
CIRCLE
5
115
100
AcDbEntity
8
ROTOR-1-TrousAimants
6
ByLayer
62
256
370
-1
100
AcDbCircle
10
132.501886779
20
-76.5
40
14
0
CIRCLE
5
116
100
AcDbEntity
8
ROTOR-1-TrousAimants
6
ByLayer
62
256
370
-1
100
AcDbCircle
10
147.786651422
20
-39.5993139007
40
14
0
CIRCLE
5
117
100
AcDbEntity
8
ROTOR-1-CercleExterne
6
ByLayer
62
256
370
-1
100
AcDbCircle
10
0
20
0
40
175
0
CIRCLE
5
118
100
AcDbEntity
8
ROTOR-1-TrousTiges
6
ByLayer
62
256
370
-1
100
AcDbCircle
10
0
20
120
40
2.5
0
CIRCLE
5
119
100
AcDbEntity
8
ROTOR-1-TrousTiges
6
ByLayer
62
256
370
-1
100
AcDbCircle
10
-103.923048454
20
60
40
2.5
0
CIRCLE
5
11A
100
AcDbEntity
8
ROTOR-1-TrousTiges
6
ByLayer
62
256
370
-1
100
AcDbCircle
10
-103.923048454
20
-60
40
2.5
0
CIRCLE
5
11B
100
AcDbEntity
8
ROTOR-1-TrousTiges
6
ByLayer
62
256
370
-1
100
AcDbCircle
10
-1.46957615898e-14
20
-120
40
2.5
0
CIRCLE
5
11C
100
AcDbEntity
8
ROTOR-1-TrousTiges
6
ByLayer
62
256
370
-1
100
AcDbCircle
10
103.923048454
20
-60
40
2.5
0
CIRCLE
5
11D
100
AcDbEntity
8
ROTOR-1-TrousTiges
6
ByLayer
62
256
370
-1
100
AcDbCircle
10
103.923048454
20
60
40
2.5
0
CIRCLE
5
11E
100
AcDbEntity
8
ROTOR-1-TrousCentraux
6
ByLayer
62
256
370
-1
100
AcDbCircle
10
0
20
40
40
2.5
0
CIRCLE
5
11F
100
AcDbEntity
8
ROTOR-1-TrousCentraux
6
ByLayer
62
256
370
-1
100
AcDbCircle
10
30
20
30
40
2.5
0
CIRCLE
5
120
100
AcDbEntity
8
ROTOR-1-TrousCentraux
6
ByLayer
62
256
370
-1
100
AcDbCircle
10
40
20
0
40
2.5
0
CIRCLE
5
121
100
AcDbEntity
8
ROTOR-1-TrousCentraux
6
ByLayer
62
256
370
-1
100
AcDbCircle
10
30
20
-30
40
2.5
0
CIRCLE
5
122
100
AcDbEntity
8
ROTOR-1-TrousCentraux
6
ByLayer
62
256
370
-1
100
AcDbCircle
10
0
20
-40
40
2.5
0
CIRCLE
5
123
100
AcDbEntity
8
ROTOR-1-TrousCentraux
6
ByLayer
62
256
370
-1
100
AcDbCircle
10
-30
20
-30
40
2.5
0
CIRCLE
5
124
100
AcDbEntity
8
ROTOR-1-TrousCentraux
6
ByLayer
62
256
370
-1
100
AcDbCircle
10
-40
20
0
40
2.5
0
CIRCLE
5
125
100
AcDbEntity
8
ROTOR-1-TrousCentraux
6
ByLayer
62
256
370
-1
100
AcDbCircle
10
-30
20
30
40
2.5
0
CIRCLE
5
126
100
AcDbEntity
8
ROTOR-1-TrousCentraux
6
ByLayer
62
256
370
-1
100
AcDbCircle
10
-10
20
10
40
2.5
0
CIRCLE
5
127
100
AcDbEntity
8
ROTOR-1-TrousCentraux
6
ByLayer
62
256
370
-1
100
AcDbCircle
10
10
20
10
40
2.5
0
CIRCLE
5
128
100
AcDbEntity
8
ROTOR-1-TrousCentraux
6
ByLayer
62
256
370
-1
100
AcDbCircle
10
10
20
-10
40
2.5
0
CIRCLE
5
129
100
AcDbEntity
8
ROTOR-1-TrousCentraux
6
ByLayer
62
256
370
-1
100
AcDbCircle
10
-10
20
-10
40
2.5
0
CIRCLE
5
12A
100
AcDbEntity
8
ROTOR-1-TrousCentraux
6
ByLayer
62
256
370
-1
100
AcDbCircle
10
0
20
0
40
5
0
ARC
5
12B
100
AcDbEntity
8
ROTOR-1-Repère
6
ByLayer
62
256
370
-1
100
AcDbCircle
10
0
20
175
40
3
100
AcDbArc
50
180
51
0
0
CIRCLE
5
12C
100
AcDbEntity
8
STATOR-Centre
6
ByLayer
62
256
370
-1
100
AcDbCircle
10
0
20
0
40
130
0
CIRCLE
5
12D
100
AcDbEntity
8
STATOR-TrousFixation
6
ByLayer
62
256
370
-1
100
AcDbCircle
10
184
20
0
40
2.5
0
CIRCLE
5
12E
100
AcDbEntity
8
STATOR-TrousFixation
6
ByLayer
62
256
370
-1
100
AcDbCircle
10
92
20
159.348674296
40
2.5
0
CIRCLE
5
12F
100
AcDbEntity
8
STATOR-TrousFixation
6
ByLayer
62
256
370
-1
100
AcDbCircle
10
-92
20
159.348674296
40
2.5
0
CIRCLE
5
130
100
AcDbEntity
8
STATOR-TrousFixation
6
ByLayer
62
256
370
-1
100
AcDbCircle
10
-184
20
2.25335011043e-14
40
2.5
0
CIRCLE
5
131
100
AcDbEntity
8
STATOR-TrousFixation
6
ByLayer
62
256
370
-1
100
AcDbCircle
10
-92
20
-159.348674296
40
2.5
0
CIRCLE
5
132
100
AcDbEntity
8
STATOR-TrousFixation
6
ByLayer
62
256
370
-1
100
AcDbCircle
10
92
20
-159.348674296
40
2.5
0
CIRCLE
5
133
100
AcDbEntity
8
ROTOR-2-CercleInterne
6
ByLayer
62
256
370
-1
100
AcDbCircle
10
0
20
0
40
110
0
CIRCLE
5
134
100
AcDbEntity
8
ROTOR-couvercle
6
ByLayer
62
256
370
-1
100
AcDbCircle
10
0
20
0
40
110
0
CIRCLE
5
135
100
AcDbEntity
8
ROTOR-couvercle
6
ByLayer
62
256
370
-1
100
AcDbCircle
10
0
20
120
40
2.5
0
CIRCLE
5
136
100
AcDbEntity
8
ROTOR-couvercle
6
ByLayer
62
256
370
-1
100
AcDbCircle
10
-103.923048454
20
60
40
2.5
0
CIRCLE
5
137
100
AcDbEntity
8
ROTOR-couvercle
6
ByLayer
62
256
370
-1
100
AcDbCircle
10
-103.923048454
20
-60
40
2.5
0
CIRCLE
5
138
100
AcDbEntity
8
ROTOR-couvercle
6
ByLayer
62
256
370
-1
100
AcDbCircle
10
-1.46957615898e-14
20
-120
40
2.5
0
CIRCLE
5
139
100
AcDbEntity
8
ROTOR-couvercle
6
ByLayer
62
256
370
-1
100
AcDbCircle
10
103.923048454
20
-60
40
2.5
0
CIRCLE
5
13A
100
AcDbEntity
8
ROTOR-couvercle
6
ByLayer
62
256
370
-1
100
AcDbCircle
10
103.923048454
20
60
40
2.5
0
CIRCLE
5
13B
100
AcDbEntity
8
ROTOR-couvercle
6
ByLayer
62
256
370
-1
100
AcDbCircle
10
0
20
0
40
170
0
ENDSEC
0
SECTION
2
OBJECTS
0
DICTIONARY
5
C
330
0
100
AcDbDictionary
281
1
3
ACAD_GROUP
350
D
0
DICTIONARY
5
D
330
C
100
AcDbDictionary
281
1
0
ENDSEC
0
EOF
