(Created with emc2b post processor 2016/01/25 19:16)
(tool change to 5 mm Fraise à Rainurer)
T4 M06 G43
G17 G90 G21
G00 X0 Y120 S7000 M03
Z5
G83 Q6 G98 X0 Y120 Z-11.8 R2 F100
X-103.923 Y60 
X-103.923 Y-60 
X0 Y-120 
X103.923 Y-60 
X103.923 Y60 
G80
(Cercle 40)
G00 X0.353 Y175.646 S7000 M03
Z2
G01 Z-5.9 
G02 X-1.06 Y177.06 I-0.707 J0.707 F150
X0 Y177.5 I1.06 J-1.06 
X1.5 Y176 I0 J-1.5 
X0 Y174.5 I-1.5 J0 
X-1.5 Y176 I0 J1.5 
X-1.06 Y177.06 I1.5 J0 
X0.353 Y175.646 I0.707 J-0.707 
G01 Z-11.8 F100
G02 X-1.06 Y177.06 I-0.707 J0.707 F150
X0 Y177.5 I1.06 J-1.06 
X1.5 Y176 I0 J-1.5 
X0 Y174.5 I-1.5 J0 
X-1.5 Y176 I0 J1.5 
X-1.06 Y177.06 I1.5 J0 
X0.353 Y175.646 I0.707 J-0.707 
G00 Z5
G90
(Esquisse 0)
X159.717 Y6.717 S7000 M03
Z2
G01 Z-5.9 F100
G02 X161.131 Y8.131 I0.707 J0.707 F150
X164.5 Y0 I-8.131 J-8.131 
X153 Y-11.5 I-11.5 J0 
X141.5 Y0 I0 J11.5 
X153 Y11.5 I11.5 J0 
X161.131 Y8.131 I0 J-11.5 
X159.717 Y6.717 I-0.707 J-0.707 
G01 Z-11.8 F100
G02 X161.131 Y8.131 I0.707 J0.707 F150
X164.5 Y0 I-8.131 J-8.131 
X153 Y-11.5 I-11.5 J0 
X141.5 Y0 I0 J11.5 
X153 Y11.5 I11.5 J0 
X161.131 Y8.131 I0 J-11.5 
X159.717 Y6.717 I-0.707 J-0.707 
G00 Z5
(Esquisse 0)
G90X154.504 Y46.316
Z2
G01 Z-5.9 F100
G02 X155.918 Y47.731 I0.707 J0.707 F150
X159.286 Y39.599 I-8.131 J-8.131 
X147.786 Y28.099 I-11.5 J0 
X136.286 Y39.599 I0 J11.5 
X147.786 Y51.099 I11.5 J0 
X155.918 Y47.731 I0 J-11.5 
X154.504 Y46.316 I-0.707 J-0.707 
G01 Z-11.8 F100
G02 X155.918 Y47.731 I0.707 J0.707 F150
X159.286 Y39.599 I-8.131 J-8.131 
X147.786 Y28.099 I-11.5 J0 
X136.286 Y39.599 I0 J11.5 
X147.786 Y51.099 I11.5 J0 
X155.918 Y47.731 I0 J-11.5 
X154.504 Y46.316 I-0.707 J-0.707 
G00 Z5
(Esquisse 0)
G90X139.219 Y83.217
Z2
G01 Z-5.9 F100
G02 X140.633 Y84.631 I0.707 J0.707 F150
X144.001 Y76.5 I-8.131 J-8.131 
X132.501 Y65 I-11.5 J0 
X121.001 Y76.5 I0 J11.5 
X132.501 Y88 I11.5 J0 
X140.633 Y84.631 I0 J-11.5 
X139.219 Y83.217 I-0.707 J-0.707 
G01 Z-11.8 F100
G02 X140.633 Y84.631 I0.707 J0.707 F150
X144.001 Y76.5 I-8.131 J-8.131 
X132.501 Y65 I-11.5 J0 
X121.001 Y76.5 I0 J11.5 
X132.501 Y88 I11.5 J0 
X140.633 Y84.631 I0 J-11.5 
X139.219 Y83.217 I-0.707 J-0.707 
G00 Z5
(Esquisse 0)
G90X114.904 Y114.904
Z2
G01 Z-5.9 F100
G02 X116.319 Y116.319 I0.707 J0.707 F150
X119.687 Y108.187 I-8.131 J-8.131 
X108.187 Y96.687 I-11.5 J0 
X96.687 Y108.187 I0 J11.499 
X108.187 Y119.687 I11.499 J0 
X116.319 Y116.319 I0 J-11.5 
X114.904 Y114.904 I-0.707 J-0.707 
G01 Z-11.8 F100
G02 X116.319 Y116.319 I0.707 J0.707 F150
X119.687 Y108.187 I-8.131 J-8.131 
X108.187 Y96.687 I-11.5 J0 
X96.687 Y108.187 I0 J11.499 
X108.187 Y119.687 I11.499 J0 
X116.319 Y116.319 I0 J-11.5 
X114.904 Y114.904 I-0.707 J-0.707 
G00 Z5
(Esquisse 0)
G90X83.217 Y139.219
Z2
G01 Z-5.9 F100
G02 X84.631 Y140.633 I0.707 J0.707 F150
X88 Y132.501 I-8.131 J-8.131 
X76.5 Y121.001 I-11.5 J0 
X65 Y132.501 I0 J11.5 
X76.5 Y144.001 I11.5 J0 
X84.631 Y140.633 I0 J-11.5 
X83.217 Y139.219 I-0.707 J-0.707 
G01 Z-11.8 F100
G02 X84.631 Y140.633 I0.707 J0.707 F150
X88 Y132.501 I-8.131 J-8.131 
X76.5 Y121.001 I-11.5 J0 
X65 Y132.501 I0 J11.5 
X76.5 Y144.001 I11.5 J0 
X84.631 Y140.633 I0 J-11.5 
X83.217 Y139.219 I-0.707 J-0.707 
G00 Z5
(Esquisse 0)
G90X46.316 Y154.504
Z2
G01 Z-5.9 F100
G02 X47.731 Y155.918 I0.707 J0.707 F150
X51.099 Y147.786 I-8.131 J-8.131 
X39.599 Y136.286 I-11.5 J0 
X28.099 Y147.786 I0 J11.5 
X39.599 Y159.286 I11.5 J0 
X47.731 Y155.918 I0 J-11.5 
X46.316 Y154.504 I-0.707 J-0.707 
G01 Z-11.8 F100
G02 X47.731 Y155.918 I0.707 J0.707 F150
X51.099 Y147.786 I-8.131 J-8.131 
X39.599 Y136.286 I-11.5 J0 
X28.099 Y147.786 I0 J11.5 
X39.599 Y159.286 I11.5 J0 
X47.731 Y155.918 I0 J-11.5 
X46.316 Y154.504 I-0.707 J-0.707 
G00 Z5
(Esquisse 0)
G90X-6.717 Y159.717
Z2
G01 Z-5.9 F100
G02 X-8.131 Y161.131 I-0.707 J0.707 F150
X0 Y164.5 I8.131 J-8.131 
X11.5 Y153 I0 J-11.5 
X0 Y141.5 I-11.5 J0 
X-11.5 Y153 I0 J11.5 
X-8.131 Y161.131 I11.5 J0 
X-6.717 Y159.717 I0.707 J-0.707 
G01 Z-11.8 F100
G02 X-8.131 Y161.131 I-0.707 J0.707 F150
X0 Y164.5 I8.131 J-8.131 
X11.5 Y153 I0 J-11.5 
X0 Y141.5 I-11.5 J0 
X-11.5 Y153 I0 J11.5 
X-8.131 Y161.131 I11.5 J0 
X-6.717 Y159.717 I0.707 J-0.707 
G00 Z5
(Esquisse 0)
G90X-32.881 Y154.504
Z2
G01 Z-5.9 F100
G02 X-31.467 Y155.918 I0.707 J0.707 F150
X-28.099 Y147.786 I-8.131 J-8.131 
X-39.599 Y136.286 I-11.5 J0 
X-51.099 Y147.786 I0 J11.5 
X-39.599 Y159.286 I11.5 J0 
X-31.467 Y155.918 I0 J-11.5 
X-32.881 Y154.504 I-0.707 J-0.707 
G01 Z-11.8 F100
G02 X-31.467 Y155.918 I0.707 J0.707 F150
X-28.099 Y147.786 I-8.131 J-8.131 
X-39.599 Y136.286 I-11.5 J0 
X-51.099 Y147.786 I0 J11.5 
X-39.599 Y159.286 I11.5 J0 
X-31.467 Y155.918 I0 J-11.5 
X-32.881 Y154.504 I-0.707 J-0.707 
G00 Z5
(Esquisse 0)
G90X-69.782 Y139.219
Z2
G01 Z-5.9 F100
G02 X-68.368 Y140.633 I0.707 J0.707 F150
X-65 Y132.501 I-8.131 J-8.131 
X-76.5 Y121.001 I-11.5 J0 
X-88 Y132.501 I0 J11.5 
X-76.5 Y144.001 I11.5 J0 
X-68.368 Y140.633 I0 J-11.5 
X-69.782 Y139.219 I-0.707 J-0.707 
G01 Z-11.8 F100
G02 X-68.368 Y140.633 I0.707 J0.707 F150
X-65 Y132.501 I-8.131 J-8.131 
X-76.5 Y121.001 I-11.5 J0 
X-88 Y132.501 I0 J11.5 
X-76.5 Y144.001 I11.5 J0 
X-68.368 Y140.633 I0 J-11.5 
X-69.782 Y139.219 I-0.707 J-0.707 
G00 Z5
(Esquisse 0)
G90X-101.469 Y114.904
Z2
G01 Z-5.9 F100
G02 X-100.055 Y116.319 I0.707 J0.707 F150
X-96.687 Y108.187 I-8.131 J-8.131 
X-108.187 Y96.687 I-11.499 J0 
X-119.687 Y108.187 I0 J11.499 
X-108.187 Y119.687 I11.5 J0 
X-100.055 Y116.319 I0 J-11.5 
X-101.469 Y114.904 I-0.707 J-0.707 
G01 Z-11.8 F100
G02 X-100.055 Y116.319 I0.707 J0.707 F150
X-96.687 Y108.187 I-8.131 J-8.131 
X-108.187 Y96.687 I-11.499 J0 
X-119.687 Y108.187 I0 J11.499 
X-108.187 Y119.687 I11.5 J0 
X-100.055 Y116.319 I0 J-11.5 
X-101.469 Y114.904 I-0.707 J-0.707 
G00 Z5
(Esquisse 0)
G90X-125.784 Y83.217
Z2
G01 Z-5.9 F100
G02 X-124.37 Y84.631 I0.707 J0.707 F150
X-121.001 Y76.5 I-8.131 J-8.131 
X-132.501 Y65 I-11.5 J0 
X-144.001 Y76.5 I0 J11.5 
X-132.501 Y88 I11.5 J0 
X-124.37 Y84.631 I0 J-11.5 
X-125.784 Y83.217 I-0.707 J-0.707 
G01 Z-11.8 F100
G02 X-124.37 Y84.631 I0.707 J0.707 F150
X-121.001 Y76.5 I-8.131 J-8.131 
X-132.501 Y65 I-11.5 J0 
X-144.001 Y76.5 I0 J11.5 
X-132.501 Y88 I11.5 J0 
X-124.37 Y84.631 I0 J-11.5 
X-125.784 Y83.217 I-0.707 J-0.707 
G00 Z5
(Esquisse 0)
G90X-141.069 Y46.316
Z2
G01 Z-5.9 F100
G02 X-139.654 Y47.731 I0.707 J0.707 F150
X-136.286 Y39.599 I-8.131 J-8.131 
X-147.786 Y28.099 I-11.5 J0 
X-159.286 Y39.599 I0 J11.5 
X-147.786 Y51.099 I11.5 J0 
X-139.654 Y47.731 I0 J-11.5 
X-141.069 Y46.316 I-0.707 J-0.707 
G01 Z-11.8 F100
G02 X-139.654 Y47.731 I0.707 J0.707 F150
X-136.286 Y39.599 I-8.131 J-8.131 
X-147.786 Y28.099 I-11.5 J0 
X-159.286 Y39.599 I0 J11.5 
X-147.786 Y51.099 I11.5 J0 
X-139.654 Y47.731 I0 J-11.5 
X-141.069 Y46.316 I-0.707 J-0.707 
G00 Z5
(Esquisse 0)
G90X-159.717 Y-6.717
Z2
G01 Z-5.9 F100
G02 X-161.131 Y-8.131 I-0.707 J-0.707 F150
X-164.5 Y0 I8.131 J8.131 
X-153 Y11.5 I11.5 J0 
X-141.5 Y0 I0 J-11.5 
X-153 Y-11.5 I-11.5 J0 
X-161.131 Y-8.131 I0 J11.5 
X-159.717 Y-6.717 I0.707 J0.707 
G01 Z-11.8 F100
G02 X-161.131 Y-8.131 I-0.707 J-0.707 F150
X-164.5 Y0 I8.131 J8.131 
X-153 Y11.5 I11.5 J0 
X-141.5 Y0 I0 J-11.5 
X-153 Y-11.5 I-11.5 J0 
X-161.131 Y-8.131 I0 J11.5 
X-159.717 Y-6.717 I0.707 J0.707 
G00 Z5
(Esquisse 0)
G90X-141.069 Y-32.881
Z2
G01 Z-5.9 F100
G02 X-139.654 Y-31.467 I0.707 J0.707 F150
X-136.286 Y-39.599 I-8.131 J-8.131 
X-147.786 Y-51.099 I-11.5 J0 
X-159.286 Y-39.599 I0 J11.5 
X-147.786 Y-28.099 I11.5 J0 
X-139.654 Y-31.467 I0 J-11.5 
X-141.069 Y-32.881 I-0.707 J-0.707 
G01 Z-11.8 F100
G02 X-139.654 Y-31.467 I0.707 J0.707 F150
X-136.286 Y-39.599 I-8.131 J-8.131 
X-147.786 Y-51.099 I-11.5 J0 
X-159.286 Y-39.599 I0 J11.5 
X-147.786 Y-28.099 I11.5 J0 
X-139.654 Y-31.467 I0 J-11.5 
X-141.069 Y-32.881 I-0.707 J-0.707 
G00 Z5
(Esquisse 0)
G90X-125.784 Y-69.782
Z2
G01 Z-5.9 F100
G02 X-124.37 Y-68.368 I0.707 J0.707 F150
X-121.001 Y-76.5 I-8.131 J-8.131 
X-132.501 Y-88 I-11.5 J0 
X-144.001 Y-76.5 I0 J11.5 
X-132.501 Y-65 I11.5 J0 
X-124.37 Y-68.368 I0 J-11.5 
X-125.784 Y-69.782 I-0.707 J-0.707 
G01 Z-11.8 F100
G02 X-124.37 Y-68.368 I0.707 J0.707 F150
X-121.001 Y-76.5 I-8.131 J-8.131 
X-132.501 Y-88 I-11.5 J0 
X-144.001 Y-76.5 I0 J11.5 
X-132.501 Y-65 I11.5 J0 
X-124.37 Y-68.368 I0 J-11.5 
X-125.784 Y-69.782 I-0.707 J-0.707 
G00 Z5
(Esquisse 0)
G90X-114.904 Y-114.904
Z2
G01 Z-5.9 F100
G02 X-116.319 Y-116.319 I-0.707 J-0.707 F150
X-119.687 Y-108.187 I8.131 J8.131 
X-108.187 Y-96.687 I11.5 J0 
X-96.687 Y-108.187 I0 J-11.499 
X-108.187 Y-119.687 I-11.499 J0 
X-116.319 Y-116.319 I0 J11.5 
X-114.904 Y-114.904 I0.707 J0.707 
G01 Z-11.8 F100
G02 X-116.319 Y-116.319 I-0.707 J-0.707 F150
X-119.687 Y-108.187 I8.131 J8.131 
X-108.187 Y-96.687 I11.5 J0 
X-96.687 Y-108.187 I0 J-11.499 
X-108.187 Y-119.687 I-11.499 J0 
X-116.319 Y-116.319 I0 J11.5 
X-114.904 Y-114.904 I0.707 J0.707 
G00 Z5
(Esquisse 0)
G90X-69.782 Y-125.784
Z2
G01 Z-5.9 F100
G02 X-68.368 Y-124.37 I0.707 J0.707 F150
X-65 Y-132.501 I-8.131 J-8.131 
X-76.5 Y-144.001 I-11.5 J0 
X-88 Y-132.501 I0 J11.5 
X-76.5 Y-121.001 I11.5 J0 
X-68.368 Y-124.37 I0 J-11.5 
X-69.782 Y-125.784 I-0.707 J-0.707 
G01 Z-11.8 F100
G02 X-68.368 Y-124.37 I0.707 J0.707 F150
X-65 Y-132.501 I-8.131 J-8.131 
X-76.5 Y-144.001 I-11.5 J0 
X-88 Y-132.501 I0 J11.5 
X-76.5 Y-121.001 I11.5 J0 
X-68.368 Y-124.37 I0 J-11.5 
X-69.782 Y-125.784 I-0.707 J-0.707 
G00 Z5
(Esquisse 0)
G90X-32.881 Y-141.069
Z2
G01 Z-5.9 F100
G02 X-31.467 Y-139.654 I0.707 J0.707 F150
X-28.099 Y-147.786 I-8.131 J-8.131 
X-39.599 Y-159.286 I-11.5 J0 
X-51.099 Y-147.786 I0 J11.5 
X-39.599 Y-136.286 I11.5 J0 
X-31.467 Y-139.654 I0 J-11.5 
X-32.881 Y-141.069 I-0.707 J-0.707 
G01 Z-11.8 F100
G02 X-31.467 Y-139.654 I0.707 J0.707 F150
X-28.099 Y-147.786 I-8.131 J-8.131 
X-39.599 Y-159.286 I-11.5 J0 
X-51.099 Y-147.786 I0 J11.5 
X-39.599 Y-136.286 I11.5 J0 
X-31.467 Y-139.654 I0 J-11.5 
X-32.881 Y-141.069 I-0.707 J-0.707 
G00 Z5
(Esquisse 0)
G90X6.717 Y-159.717
Z2
G01 Z-5.9 F100
G02 X8.131 Y-161.131 I0.707 J-0.707 F150
X0 Y-164.5 I-8.131 J8.131 
X-11.5 Y-153 I0 J11.5 
X0 Y-141.5 I11.5 J0 
X11.5 Y-153 I0 J-11.5 
X8.131 Y-161.131 I-11.5 J0 
X6.717 Y-159.717 I-0.707 J0.707 
G01 Z-11.8 F100
G02 X8.131 Y-161.131 I0.707 J-0.707 F150
X0 Y-164.5 I-8.131 J8.131 
X-11.5 Y-153 I0 J11.5 
X0 Y-141.5 I11.5 J0 
X11.5 Y-153 I0 J-11.5 
X8.131 Y-161.131 I-11.5 J0 
X6.717 Y-159.717 I-0.707 J0.707 
G00 Z5
(Esquisse 0)
G90X46.316 Y-141.069
Z2
G01 Z-5.9 F100
G02 X47.731 Y-139.654 I0.707 J0.707 F150
X51.099 Y-147.786 I-8.131 J-8.131 
X39.599 Y-159.286 I-11.5 J0 
X28.099 Y-147.786 I0 J11.5 
X39.599 Y-136.286 I11.5 J0 
X47.731 Y-139.654 I0 J-11.5 
X46.316 Y-141.069 I-0.707 J-0.707 
G01 Z-11.8 F100
G02 X47.731 Y-139.654 I0.707 J0.707 F150
X51.099 Y-147.786 I-8.131 J-8.131 
X39.599 Y-159.286 I-11.5 J0 
X28.099 Y-147.786 I0 J11.5 
X39.599 Y-136.286 I11.5 J0 
X47.731 Y-139.654 I0 J-11.5 
X46.316 Y-141.069 I-0.707 J-0.707 
G00 Z5
(Esquisse 0)
G90X83.217 Y-125.784
Z2
G01 Z-5.9 F100
G02 X84.631 Y-124.37 I0.707 J0.707 F150
X88 Y-132.501 I-8.131 J-8.131 
X76.5 Y-144.001 I-11.5 J0 
X65 Y-132.501 I0 J11.5 
X76.5 Y-121.001 I11.5 J0 
X84.631 Y-124.37 I0 J-11.5 
X83.217 Y-125.784 I-0.707 J-0.707 
G01 Z-11.8 F100
G02 X84.631 Y-124.37 I0.707 J0.707 F150
X88 Y-132.501 I-8.131 J-8.131 
X76.5 Y-144.001 I-11.5 J0 
X65 Y-132.501 I0 J11.5 
X76.5 Y-121.001 I11.5 J0 
X84.631 Y-124.37 I0 J-11.5 
X83.217 Y-125.784 I-0.707 J-0.707 
G00 Z5
(Esquisse 0)
G90X114.904 Y-114.904
Z2
G01 Z-5.9 F100
G02 X116.319 Y-116.319 I0.707 J-0.707 F150
X108.187 Y-119.687 I-8.131 J8.131 
X96.687 Y-108.187 I0 J11.5 
X108.187 Y-96.687 I11.499 J0 
X119.687 Y-108.187 I0 J-11.499 
X116.319 Y-116.319 I-11.5 J0 
X114.904 Y-114.904 I-0.707 J0.707 
G01 Z-11.8 F100
G02 X116.319 Y-116.319 I0.707 J-0.707 F150
X108.187 Y-119.687 I-8.131 J8.131 
X96.687 Y-108.187 I0 J11.5 
X108.187 Y-96.687 I11.499 J0 
X119.687 Y-108.187 I0 J-11.499 
X116.319 Y-116.319 I-11.5 J0 
X114.904 Y-114.904 I-0.707 J0.707 
G00 Z5
(Esquisse 0)
G90X139.219 Y-69.782
Z2
G01 Z-5.9 F100
G02 X140.633 Y-68.368 I0.707 J0.707 F150
X144.001 Y-76.5 I-8.131 J-8.131 
X132.501 Y-88 I-11.5 J0 
X121.001 Y-76.5 I0 J11.5 
X132.501 Y-65 I11.5 J0 
X140.633 Y-68.368 I0 J-11.5 
X139.219 Y-69.782 I-0.707 J-0.707 
G01 Z-11.8 F100
G02 X140.633 Y-68.368 I0.707 J0.707 F150
X144.001 Y-76.5 I-8.131 J-8.131 
X132.501 Y-88 I-11.5 J0 
X121.001 Y-76.5 I0 J11.5 
X132.501 Y-65 I11.5 J0 
X140.633 Y-68.368 I0 J-11.5 
X139.219 Y-69.782 I-0.707 J-0.707 
G00 Z5
(Esquisse 0)
G90X154.504 Y-32.881
Z2
G01 Z-5.9 F100
G02 X155.918 Y-31.467 I0.707 J0.707 F150
X159.286 Y-39.599 I-8.131 J-8.131 
X147.786 Y-51.099 I-11.5 J0 
X136.286 Y-39.599 I0 J11.5 
X147.786 Y-28.099 I11.5 J0 
X155.918 Y-31.467 I0 J-11.5 
X154.504 Y-32.881 I-0.707 J-0.707 
G01 Z-11.8 F100
G02 X155.918 Y-31.467 I0.707 J0.707 F150
X159.286 Y-39.599 I-8.131 J-8.131 
X147.786 Y-51.099 I-11.5 J0 
X136.286 Y-39.599 I0 J11.5 
X147.786 Y-28.099 I11.5 J0 
X155.918 Y-31.467 I0 J-11.5 
X154.504 Y-32.881 I-0.707 J-0.707 
G00 Z5
G90
(Esquisse 0)
X67.881 Y67.881 S7000 M03
Z2
G01 Z-5.9 F100
G02 X69.295 Y69.295 I0.707 J0.707 F150
X97.998 Y0 I-69.295 J-69.295 
X0 Y-97.998 I-97.998 J0 
X-97.998 Y0 I0 J97.998 
X0 Y97.998 I97.998 J0 
X69.295 Y69.295 I0 J-97.998 
X67.881 Y67.881 I-0.707 J-0.707 
G01 Z-11.8 F100
G02 X69.295 Y69.295 I0.707 J0.707 F150
X97.998 Y0 I-69.295 J-69.295 
X0 Y-97.998 I-97.998 J0 
X-97.998 Y0 I0 J97.998 
X0 Y97.998 I97.998 J0 
X69.295 Y69.295 I0 J-97.998 
X67.881 Y67.881 I-0.707 J-0.707 
G00 Z5
G90
(Esquisse 0)
X126.925 Y126.925 S7000 M03
Z2
G01 Z-5.9 F100
G02 X125.511 Y125.511 I-0.707 J-0.707 F150
G03 X0 Y177.5 I-125.511 J-125.511 
X-177.5 Y0 I0 J-177.5 
X0 Y-177.5 I177.5 J0 
X177.5 Y0 I0 J177.5 
X125.511 Y125.511 I-177.5 J0 
G02 X126.925 Y126.925 I0.707 J0.707 
G01 Z-11.8 F100
G02 X125.511 Y125.511 I-0.707 J-0.707 F150
G03 X0 Y177.5 I-125.511 J-125.511 
X-177.5 Y0 I0 J-177.5 
X0 Y-177.5 I177.5 J0 
X177.5 Y0 I0 J177.5 
X125.511 Y125.511 I-177.5 J0 
G02 X126.925 Y126.925 I0.707 J0.707 
G00 Z5
T0 M06 M02
