(Created with emc2b post processor 2015/05/26 22:24)
(tool change to 3 mm Fraise à Rainurer)
T1 M06 G43
G17 G90 G21
(Esquisse 4)
G00 X12.5 Y0 S7000 M03
Z2
G01 Z-1.75 F100
G02 X14.5 Y0 I1 J0 F150
G01 X14.5 Y-4 
G03 X16 Y-5.5 I1.5 J0 
G01 X20 Y-5.5 
G03 X21.5 Y-4 I0 J1.5 
G01 X21.5 Y4 
G03 X20 Y5.5 I-1.5 J0 
G01 X16 Y5.5 
G03 X14.5 Y4 I0 J-1.5 
G01 X14.5 Y0 
G02 X12.5 Y0 I-1 J0 
G01 Z-3.5 F100
G02 X14.5 Y0 I1 J0 F150
G01 X14.5 Y-4 
G03 X16 Y-5.5 I1.5 J0 
G01 X20 Y-5.5 
G03 X21.5 Y-4 I0 J1.5 
G01 X21.5 Y4 
G03 X20 Y5.5 I-1.5 J0 
G01 X16 Y5.5 
G03 X14.5 Y4 I0 J-1.5 
G01 X14.5 Y0 
G02 X12.5 Y0 I-1 J0 
G01 Z-5.25 F100
G02 X14.5 Y0 I1 J0 F150
G01 X14.5 Y-4 
G03 X16 Y-5.5 I1.5 J0 
G01 X20 Y-5.5 
G03 X21.5 Y-4 I0 J1.5 
G01 X21.5 Y4 
G03 X20 Y5.5 I-1.5 J0 
G01 X16 Y5.5 
G03 X14.5 Y4 I0 J-1.5 
G01 X14.5 Y0 
G02 X12.5 Y0 I-1 J0 
G01 Z-7 F100
G02 X14.5 Y0 I1 J0 F150
G01 X14.5 Y-4 
G03 X16 Y-5.5 I1.5 J0 
G01 X20 Y-5.5 
G03 X21.5 Y-4 I0 J1.5 
G01 X21.5 Y4 
G03 X20 Y5.5 I-1.5 J0 
G01 X16 Y5.5 
G03 X14.5 Y4 I0 J-1.5 
G01 X14.5 Y0 
G02 X12.5 Y0 I-1 J0 
G00 Z5
G90
(Esquisse 6)
X11.5 Y5.5 S7000 M03
Z2
G01 Z-1.75 F100
G02 X11.5 Y3.5 I0 J-1 F150
G01 X3 Y3.5 
G03 X1.5 Y2 I0 J-1.5 
G01 X1.5 Y-2 
G03 X3 Y-3.5 I1.5 J0 
G01 X20 Y-3.5 
G03 X21.5 Y-2 I0 J1.5 
G01 X21.5 Y2 
G03 X20 Y3.5 I-1.5 J0 
G01 X11.5 Y3.5 
G02 X11.5 Y5.5 I0 J1 
G01 Z-3.5 F100
G02 X11.5 Y3.5 I0 J-1 F150
G01 X3 Y3.5 
G03 X1.5 Y2 I0 J-1.5 
G01 X1.5 Y-2 
G03 X3 Y-3.5 I1.5 J0 
G01 X20 Y-3.5 
G03 X21.5 Y-2 I0 J1.5 
G01 X21.5 Y2 
G03 X20 Y3.5 I-1.5 J0 
G01 X11.5 Y3.5 
G02 X11.5 Y5.5 I0 J1 
G01 Z-5.25 F100
G02 X11.5 Y3.5 I0 J-1 F150
G01 X3 Y3.5 
G03 X1.5 Y2 I0 J-1.5 
G01 X1.5 Y-2 
G03 X3 Y-3.5 I1.5 J0 
G01 X20 Y-3.5 
G03 X21.5 Y-2 I0 J1.5 
G01 X21.5 Y2 
G03 X20 Y3.5 I-1.5 J0 
G01 X11.5 Y3.5 
G02 X11.5 Y5.5 I0 J1 
G01 Z-7 F100
G02 X11.5 Y3.5 I0 J-1 F150
G01 X3 Y3.5 
G03 X1.5 Y2 I0 J-1.5 
G01 X1.5 Y-2 
G03 X3 Y-3.5 I1.5 J0 
G01 X20 Y-3.5 
G03 X21.5 Y-2 I0 J1.5 
G01 X21.5 Y2 
G03 X20 Y3.5 I-1.5 J0 
G01 X11.5 Y3.5 
G02 X11.5 Y5.5 I0 J1 
G00 Z5
G90
(Esquisse 7)
X4.5 Y0 S7000 M03
Z2
G01 Z-1.75 F100
G02 X6.5 Y0 I1 J0 F150
G01 X6.5 Y-4 
G03 X8 Y-5.5 I1.5 J0 
G01 X12 Y-5.5 
G03 X13.5 Y-4 I0 J1.5 
G01 X13.5 Y4 
G03 X12 Y5.5 I-1.5 J0 
G01 X8 Y5.5 
G03 X6.5 Y4 I0 J-1.5 
G01 X6.5 Y0 
G02 X4.5 Y0 I-1 J0 
G01 Z-3.5 F100
G02 X6.5 Y0 I1 J0 F150
G01 X6.5 Y-4 
G03 X8 Y-5.5 I1.5 J0 
G01 X12 Y-5.5 
G03 X13.5 Y-4 I0 J1.5 
G01 X13.5 Y4 
G03 X12 Y5.5 I-1.5 J0 
G01 X8 Y5.5 
G03 X6.5 Y4 I0 J-1.5 
G01 X6.5 Y0 
G02 X4.5 Y0 I-1 J0 
G01 Z-5.25 F100
G02 X6.5 Y0 I1 J0 F150
G01 X6.5 Y-4 
G03 X8 Y-5.5 I1.5 J0 
G01 X12 Y-5.5 
G03 X13.5 Y-4 I0 J1.5 
G01 X13.5 Y4 
G03 X12 Y5.5 I-1.5 J0 
G01 X8 Y5.5 
G03 X6.5 Y4 I0 J-1.5 
G01 X6.5 Y0 
G02 X4.5 Y0 I-1 J0 
G01 Z-7 F100
G02 X6.5 Y0 I1 J0 F150
G01 X6.5 Y-4 
G03 X8 Y-5.5 I1.5 J0 
G01 X12 Y-5.5 
G03 X13.5 Y-4 I0 J1.5 
G01 X13.5 Y4 
G03 X12 Y5.5 I-1.5 J0 
G01 X8 Y5.5 
G03 X6.5 Y4 I0 J-1.5 
G01 X6.5 Y0 
G02 X4.5 Y0 I-1 J0 
G00 Z5
G90
(Cercle 2)
X-0.353 Y0.353 S7000 M03
Z2
G01 Z-1.916 F100
G02 X-1.767 Y1.767 I-0.707 J0.707 F150
X0 Y2.5 I1.767 J-1.767 
X2.5 Y0 I0 J-2.5 
X0 Y-2.5 I-2.5 J0 
X-2.5 Y0 I0 J2.5 
X-1.767 Y1.767 I2.5 J0 
X-0.353 Y0.353 I0.707 J-0.707 
G01 Z-3.833 F100
G02 X-1.767 Y1.767 I-0.707 J0.707 F150
X0 Y2.5 I1.767 J-1.767 
X2.5 Y0 I0 J-2.5 
X0 Y-2.5 I-2.5 J0 
X-2.5 Y0 I0 J2.5 
X-1.767 Y1.767 I2.5 J0 
X-0.353 Y0.353 I0.707 J-0.707 
G01 Z-5.75 F100
G02 X-1.767 Y1.767 I-0.707 J0.707 F150
X0 Y2.5 I1.767 J-1.767 
X2.5 Y0 I0 J-2.5 
X0 Y-2.5 I-2.5 J0 
X-2.5 Y0 I0 J2.5 
X-1.767 Y1.767 I2.5 J0 
X-0.353 Y0.353 I0.707 J-0.707 
G01 Z-7.666 F100
G02 X-1.767 Y1.767 I-0.707 J0.707 F150
X0 Y2.5 I1.767 J-1.767 
X2.5 Y0 I0 J-2.5 
X0 Y-2.5 I-2.5 J0 
X-2.5 Y0 I0 J2.5 
X-1.767 Y1.767 I2.5 J0 
X-0.353 Y0.353 I0.707 J-0.707 
G01 Z-9.583 F100
G02 X-1.767 Y1.767 I-0.707 J0.707 F150
X0 Y2.5 I1.767 J-1.767 
X2.5 Y0 I0 J-2.5 
X0 Y-2.5 I-2.5 J0 
X-2.5 Y0 I0 J2.5 
X-1.767 Y1.767 I2.5 J0 
X-0.353 Y0.353 I0.707 J-0.707 
G01 Z-11.5 F100
G02 X-1.767 Y1.767 I-0.707 J0.707 F150
X0 Y2.5 I1.767 J-1.767 
X2.5 Y0 I0 J-2.5 
X0 Y-2.5 I-2.5 J0 
X-2.5 Y0 I0 J2.5 
X-1.767 Y1.767 I2.5 J0 
X-0.353 Y0.353 I0.707 J-0.707 
G00 Z5
G90
X10 Y10 S7000 M03
G83 Q2 G98 X10 Y10 Z-11.5 R2 F100
X-10 Y10 
X10 Y-10 
X-10 Y-10 
G80
(Esquisse 8)
G00 X-9.5 Y5.5 S7000 M03
Z2
G01 Z-1.75 
G02 X-9.5 Y3.5 I0 J-1 F150
G01 X-17 Y3.5 
G03 X-18.5 Y2 I0 J-1.5 
G01 X-18.5 Y-2 
G03 X-17 Y-3.5 I1.5 J0 
G01 X-2 Y-3.5 
G03 X-0.5 Y-2 I0 J1.5 
G01 X-0.5 Y2 
G03 X-2 Y3.5 I-1.5 J0 
G01 X-9.5 Y3.5 
G02 X-9.5 Y5.5 I0 J1 
G01 Z-3.5 F100
G02 X-9.5 Y3.5 I0 J-1 F150
G01 X-17 Y3.5 
G03 X-18.5 Y2 I0 J-1.5 
G01 X-18.5 Y-2 
G03 X-17 Y-3.5 I1.5 J0 
G01 X-2 Y-3.5 
G03 X-0.5 Y-2 I0 J1.5 
G01 X-0.5 Y2 
G03 X-2 Y3.5 I-1.5 J0 
G01 X-9.5 Y3.5 
G02 X-9.5 Y5.5 I0 J1 
G01 Z-5.25 F100
G02 X-9.5 Y3.5 I0 J-1 F150
G01 X-17 Y3.5 
G03 X-18.5 Y2 I0 J-1.5 
G01 X-18.5 Y-2 
G03 X-17 Y-3.5 I1.5 J0 
G01 X-2 Y-3.5 
G03 X-0.5 Y-2 I0 J1.5 
G01 X-0.5 Y2 
G03 X-2 Y3.5 I-1.5 J0 
G01 X-9.5 Y3.5 
G02 X-9.5 Y5.5 I0 J1 
G01 Z-7 F100
G02 X-9.5 Y3.5 I0 J-1 F150
G01 X-17 Y3.5 
G03 X-18.5 Y2 I0 J-1.5 
G01 X-18.5 Y-2 
G03 X-17 Y-3.5 I1.5 J0 
G01 X-2 Y-3.5 
G03 X-0.5 Y-2 I0 J1.5 
G01 X-0.5 Y2 
G03 X-2 Y3.5 I-1.5 J0 
G01 X-9.5 Y3.5 
G02 X-9.5 Y5.5 I0 J1 
G00 Z5
G90
(Esquisse 9)
X-13.5 Y0 S7000 M03
Z2
G01 Z-1.75 F100
G02 X-11.5 Y0 I1 J0 F150
G01 X-11.5 Y-4 
G03 X-10 Y-5.5 I1.5 J0 
G01 X-6 Y-5.5 
G03 X-4.5 Y-4 I0 J1.5 
G01 X-4.5 Y4 
G03 X-6 Y5.5 I-1.5 J0 
G01 X-10 Y5.5 
G03 X-11.5 Y4 I0 J-1.5 
G01 X-11.5 Y0 
G02 X-13.5 Y0 I-1 J0 
G01 Z-3.5 F100
G02 X-11.5 Y0 I1 J0 F150
G01 X-11.5 Y-4 
G03 X-10 Y-5.5 I1.5 J0 
G01 X-6 Y-5.5 
G03 X-4.5 Y-4 I0 J1.5 
G01 X-4.5 Y4 
G03 X-6 Y5.5 I-1.5 J0 
G01 X-10 Y5.5 
G03 X-11.5 Y4 I0 J-1.5 
G01 X-11.5 Y0 
G02 X-13.5 Y0 I-1 J0 
G01 Z-5.25 F100
G02 X-11.5 Y0 I1 J0 F150
G01 X-11.5 Y-4 
G03 X-10 Y-5.5 I1.5 J0 
G01 X-6 Y-5.5 
G03 X-4.5 Y-4 I0 J1.5 
G01 X-4.5 Y4 
G03 X-6 Y5.5 I-1.5 J0 
G01 X-10 Y5.5 
G03 X-11.5 Y4 I0 J-1.5 
G01 X-11.5 Y0 
G02 X-13.5 Y0 I-1 J0 
G01 Z-7 F100
G02 X-11.5 Y0 I1 J0 F150
G01 X-11.5 Y-4 
G03 X-10 Y-5.5 I1.5 J0 
G01 X-6 Y-5.5 
G03 X-4.5 Y-4 I0 J1.5 
G01 X-4.5 Y4 
G03 X-6 Y5.5 I-1.5 J0 
G01 X-10 Y5.5 
G03 X-11.5 Y4 I0 J-1.5 
G01 X-11.5 Y0 
G02 X-13.5 Y0 I-1 J0 
G00 Z5
T0 M06 M02
